Place,Name,Division,Equipment,Sex,State,WeightClassKg,BodyweightKg,Age,Best3SquatKg,Best3BenchKg,Best3DeadliftKg,TotalKg,Event
1,Amanda Strobl,Juniors 20-23,Raw,F,NY,48,47.6,20,97.5,47.5,110,255,SBD
1,Amanda Strobl,Open,Raw,F,NY,48,47.6,20,97.5,47.5,110,255,SBD
1,Brianna Schmidt,Open,Raw,F,NY,52,51.65,26,100,67.5,122.5,290,SBD
2,Ilda Sampaio,Open,Raw,F,NY,52,51.55,38,80,47.5,147.5,275,SBD
1,Annette La Rosa,Open,Raw,F,CT,60,59.45,24,107.5,60,147.5,315,SBD
1,Amy Surkin,Open,Raw,F,NJ,67.5,66.45,52,82.5,52.5,120,255,SBD
1,Jocelyn Branca,Open,Raw,F,NY,82.5,81.55,24,152.5,90,157.5,400,SBD
2,Regina Soares,Open,Raw,F,NY,82.5,81.85,34,125,67.5,162.5,355,SBD
1,Ilda Sampaio,Submasters 35-39,Raw,F,NY,52,51.55,38,80,47.5,147.5,275,SBD
1,Elizabeth Mendez,Masters 45-49,Raw,F,NY,82.5,80.25,46,130,72.5,150,352.5,SBD
1,Khayal Marcano,Juniors 18-19,Raw,M,NY,75,74.1,18,190,132.5,232.5,555,SBD
1,Ceasar Domingo,Juniors 20-23,Raw,M,NY,75,74.65,21,197.5,122.5,245,565,SBD
1,Stephen Signorelli,Juniors 20-23,Raw,M,NY,82.5,79.15,20,175,107.5,192.5,475,SBD
1,Zachary Taylor,Juniors 20-23,Raw,M,NY,90,87.25,23,202.5,137.5,255,595,SBD
2,Johnathon Beck,Juniors 20-23,Raw,M,NJ,90,89.1,22,165,115,232.5,512.5,SBD
1,Justin Largo,Juniors 16-17,Raw,M,NJ,110,107.65,17,182.5,92.5,210,485,SBD
1,David Maile,Juniors 18-19,Raw,M,NY,110,102.5,19,222.5,115,250,587.5,SBD
1,Zack Carr,Juniors 18-19,Raw,M,PA,125,116.75,19,287.5,172.5,300,760,SBD
1,Steven Savo,Juniors 20-23,Raw,M,NY,125,122,22,262.5,182.5,282.5,727.5,SBD
2,Dimi Artale,Juniors 20-23,Raw,M,NY,125,123.25,22,255,165,250,670,SBD
1,Brian Galloway,Open,Raw,M,NY,60,57.75,38,202.5,145,190,537.5,SBD
1,Brian Cerezo,Open,Raw,M,NY,67.5,67.4,27,167.5,110,195,472.5,SBD
2,David Marino,Open,Raw,M,NY,67.5,66.5,26,140,112.5,192.5,445,SBD
3,Jeffrey Hom,Open,Raw,M,NY,67.5,66.55,32,102.5,77.5,117.5,297.5,SBD
1,Ceasar Domingo,Open,Raw,M,NY,75,74.65,21,197.5,122.5,245,565,SBD
2,Jeffrey Correia,Open,Raw,M,NY,75,74,27,190,122.5,250,562.5,SBD
3,Khayal Marcano,Open,Raw,M,NY,75,74.1,18,190,132.5,232.5,555,SBD
4,Leandro Jourdain,Open,Raw,M,NY,75,72.9,26,182.5,135,190,507.5,SBD
1,Stephen Borchard,Open,Raw,M,NJ,82.5,82,29,210,157.5,250,617.5,SBD
2,Nicholas Cruz,Open,Raw,M,NY,82.5,81.8,24,202.5,162.5,242.5,607.5,SBD
3,Darian Delmastro,Open,Raw,M,NY,82.5,81.85,31,222.5,140,245,607.5,SBD
4,Jose Conty,Open,Raw,M,NY,82.5,80.6,24,182.5,142.5,250,575,SBD
5,Kevin Mendoza,Open,Raw,M,NY,82.5,81.35,30,210,142.5,212.5,565,SBD
6,Michael Lafiandra,Open,Raw,M,NY,82.5,80.2,29,150,147.5,225,522.5,SBD
7,Stephen Signorelli,Open,Raw,M,NY,82.5,79.15,20,175,107.5,192.5,475,SBD
1,Darrel Simpson,Open,Raw,M,NY,90,88.6,27,220,182.5,272.5,675,SBD
2,Johnson Thai,Open,Raw,M,NY,90,88.9,24,255,155,260,670,SBD
3,Zachary Taylor,Open,Raw,M,NY,90,87.25,23,202.5,137.5,255,595,SBD
4,Matthew Kramer,Open,Raw,M,NY,90,88.1,25,205,135,212.5,552.5,SBD
5,Patrick Williams #2,Open,Raw,M,NY,90,88.15,28,185,112.5,235,532.5,SBD
DQ,Eliazar Smith-Harllee,Open,Raw,M,NY,90,89.75,24,190,,207.5,,SBD
1,Milan Boneta,Open,Raw,M,NY,100,99.1,26,247.5,152.5,322.5,722.5,SBD
2,Nick Kiger,Open,Raw,M,NY,100,100,21,242.5,167.5,275,685,SBD
DQ,Dillon Anderson,Open,Raw,M,CT,100,97.3,24,,,,,SBD
1,Jason Coneo,Open,Raw,M,NY,110,101.8,23,210,132.5,220,562.5,SBD
2,Josh Rinaldi,Open,Raw,M,NY,110,102.95,29,200,117.5,230,547.5,SBD
1,Katori Wilcher,Open,Raw,M,NY,125,123.95,35,255,212.5,330,797.5,SBD
2,Zack Carr,Open,Raw,M,PA,125,116.75,19,287.5,172.5,300,760,SBD
3,Gary Basciano,Open,Raw,M,CT,125,116.35,35,220,157.5,272.5,650,SBD
1,Dwayne Wint,Open,Raw,M,NJ,140,130.35,35,247.5,215,285,747.5,SBD
1,Christopher Aponte,Open,Raw,M,NJ,140+,140.6,34,195,170,257.5,622.5,SBD
1,Richard Mendez,Submasters 35-39,Raw,M,NY,67.5,66.1,37,82.5,87.5,137.5,307.5,SBD
1,Katori Wilcher,Submasters 35-39,Raw,M,NY,125,123.95,35,255,212.5,330,797.5,SBD
2,Gary Basciano,Submasters 35-39,Raw,M,CT,125,116.35,35,220,157.5,272.5,650,SBD
DQ,Brian Ettinger,Masters 55-59,Raw,M,NY,82.5,80.25,57,,,,,SBD
1,Kristen Reiche,Open,Wraps,F,NY,67.5,67.45,25,160,80,167.5,407.5,SBD
1,Matt Curran,Juniors 18-19,Wraps,M,NY,90,87.2,18,170,130,230,530,SBD
1,Omar Elzayat,Juniors 20-23,Wraps,M,NY,90,87,20,210,142.5,265,617.5,SBD
1,Chris Rodgers,Open,Wraps,M,NY,67.5,67.45,36,167.5,105,232.5,505,SBD
1,Brad Ettinger,Open,Wraps,M,NY,82.5,81.8,27,260,172.5,287.5,720,SBD
2,Tom Oddo,Open,Wraps,M,NY,82.5,81.35,26,227.5,150,227.5,605,SBD
1,Jeremy Velazquez,Open,Wraps,M,NY,90,89.1,27,185,152.5,205,542.5,SBD
1,Carlos Mennea,Open,Wraps,M,NY,100,96.4,25,152.5,95,215,462.5,SBD
DQ,Charles Galasso,Open,Wraps,M,NY,100,92.1,25,,142.5,237.5,,SBD
1,Walter Ostrowski,Masters 50-54,Wraps,M,NY,110,106.4,51,235,152.5,232.5,620,SBD
