Division,WeightClassKg,Place,Name,Team,BodyweightKg,Best3SquatKg,Best3BenchKg,Best3DeadliftKg,TotalKg,Equipment,Event,Sex
Boys,55.79,1,Jordan Wilson,Coahoma,51.89,88.45,56.7,111.13,256.28,Single-ply,SBD,M
Boys,51.71,2,Erik Gomez,Post,45.86,90.72,43.09,102.06,235.87,Single-ply,SBD,M
Boys,51.71,3,Connor Steel,Forsan,46.27,74.84,45.36,83.91,204.12,Single-ply,SBD,M
Boys,51.71,4,Josh Dean,Coahoma,36.29,45.36,29.48,74.84,149.69,Single-ply,SBD,M
Boys,51.71,DQ,Hayden Belongia,Post,51.26,90.72,,,,Single-ply,SBD,M
Boys,55.79,1,Jesse Ramirez,San Angelo Lake View,53.43,136.08,86.18,158.76,381.02,Single-ply,SBD,M
Boys,55.79,2,Tyler Nairn,Big Spring,53.57,129.27,74.84,138.35,342.46,Single-ply,SBD,M
Boys,55.79,3,Nate Martinez,Loraine,54.61,127.01,65.77,145.15,337.93,Single-ply,SBD,M
Boys,55.79,4,Christian Perez,Post,54.48,138.35,65.77,131.54,335.66,Single-ply,SBD,M
Boys,55.79,5,Josh Raies,Midland Classical Academy,54.52,97.52,40.82,92.99,231.33,Single-ply,SBD,M
Boys,55.79,6,Will Taylor,Midland Classical Academy,54.52,63.5,38.56,68.04,170.1,Single-ply,SBD,M
Boys,55.79,DQ,Brandon Lee,San Angelo Lake View,53.98,102.06,,,,Single-ply,SBD,M
Boys,59.87,DQ,Trenton Crenshaw,Coahoma,56.02,117.93,,,,Single-ply,SBD,M
Boys,59.87,1,Alan Moreno,San Angelo Lake View,58.56,142.88,70.31,170.1,383.29,Single-ply,SBD,M
Boys,59.87,2,Mario Manquero,Garden City,57.65,140.61,86.18,151.95,378.75,Single-ply,SBD,M
Boys,59.87,3,Chris McPhereson,Coahoma,59.78,111.13,83.91,136.08,331.12,Single-ply,SBD,M
Boys,59.87,4,Alejo Rodriguez,Post,59.47,115.67,70.31,136.08,322.05,Single-ply,SBD,M
Boys,59.87,5,Anthony Moreno,San Angelo Lake View,58.11,108.86,65.77,140.61,315.25,Single-ply,SBD,M
Boys,59.87,6,Danny Muro,San Angelo Lake View,57.65,97.52,58.97,122.47,278.96,Single-ply,SBD,M
Boys,67.13,1,DJ Brown,Post,62.19,183.7,111.13,190.51,485.34,Single-ply,SBD,M
Boys,67.13,2,John Hernandez,San Angelo Lake View,66.32,170.1,104.33,197.31,471.74,Single-ply,SBD,M
Boys,67.13,3,Cody Ortiz,Big Lake Reagan County,66.68,172.37,88.45,161.03,421.84,Single-ply,SBD,M
Boys,67.13,4,Caleb Drake,San Angelo Lake View,66.72,149.69,86.18,174.63,410.5,Single-ply,SBD,M
Boys,67.13,5,Dalton Doss,Forsan,65.41,149.69,102.06,156.49,408.23,Single-ply,SBD,M
Boys,67.13,6,Victor Muro,San Angelo Lake View,63.96,129.27,92.99,172.37,394.63,Single-ply,SBD,M
Boys,67.13,7,Tim Garza,Loraine,66.77,142.88,90.72,161.03,394.63,Single-ply,SBD,M
Boys,67.13,8,Steven Howard,Post,64,138.35,102.06,149.69,390.09,Single-ply,SBD,M
Boys,74.84,9,Julian Uranga,Coahoma,67.31,145.15,86.18,158.76,390.09,Single-ply,SBD,M
Boys,67.13,10,Brandon Coker,Coahoma,65.32,142.88,88.45,156.49,387.82,Single-ply,SBD,M
Boys,67.13,11,Jacob Ludwig,Colorado City Colorado,66.41,145.15,61.23,154.22,360.61,Single-ply,SBD,M
Boys,67.13,12,David Evans,Midland Lee,62.19,142.88,77.11,136.08,356.07,Single-ply,SBD,M
Boys,67.13,13,Paulino Rios,Midland Lee,64.41,124.74,74.84,147.42,347,Single-ply,SBD,M
Boys,67.13,14,Foster Kasey,Big Spring,61.33,117.93,68.04,136.08,322.05,Single-ply,SBD,M
Boys,67.13,15,Calvin Gibbs,Coahoma,66.59,117.93,68.04,127.01,312.98,Single-ply,SBD,M
Boys,67.13,16,Christian Herrera,Denver City,64,90.72,83.91,127.01,301.64,Single-ply,SBD,M
Boys,67.13,17,Damian Cate,Coahoma,66.41,117.93,56.7,127.01,301.64,Single-ply,SBD,M
Boys,67.13,DQ,Martin Zambrano,Big Spring,66.27,,,,,Single-ply,SBD,M
Boys,74.84,DQ,Robert Martinez,Big Spring,67.31,165.56,,,,Single-ply,SBD,M
Boys,67.13,DQ,Nathan Wiedebusch,San Angelo Lake View,65.77,,,,,Single-ply,SBD,M
Boys,74.84,1,Justin Coker,Coahoma,74.25,204.12,140.61,213.19,557.92,Single-ply,SBD,M
Boys,74.84,2,Angel Moreno,San Angelo Lake View,70.35,195.04,111.13,176.9,483.08,Single-ply,SBD,M
Boys,82.1,3,Caden Dean,Post,74.89,181.44,115.67,165.56,462.66,Single-ply,SBD,M
Boys,74.84,4,Garrett Mindrup,Midland Classical Academy,74.84,181.44,90.72,181.44,453.59,Single-ply,SBD,M
Boys,74.84,5,Isaac Stern,Post,70.67,170.1,97.52,181.44,449.06,Single-ply,SBD,M
Boys,74.84,6,Trenton Gardner,Big Lake Reagan County,73.98,174.63,86.18,181.44,442.25,Single-ply,SBD,M
Boys,74.84,7,George Silva,San Angelo Lake View,74.84,161.03,77.11,195.04,433.18,Single-ply,SBD,M
Boys,74.84,8,Larnce Hicks,Denver City,69.44,149.69,117.93,163.29,430.91,Single-ply,SBD,M
Boys,74.84,9,Aaron Goff,Forsan,71.49,151.95,90.72,188.24,430.91,Single-ply,SBD,M
Boys,74.84,10,Alan Alaniz,Post,68.67,133.81,97.52,170.1,401.43,Single-ply,SBD,M
Boys,74.84,11,Taylor Robertson,Big Spring,70.4,142.88,86.18,161.03,390.09,Single-ply,SBD,M
Boys,74.84,12,Cain Abalos,Midland Lee,68.99,136.08,77.11,158.76,371.95,Single-ply,SBD,M
Boys,74.84,13,Jalin Gilbert,Coahoma,71.8,127.01,79.38,161.03,367.41,Single-ply,SBD,M
Boys,74.84,14,Austin Grantham,Forsan,69.67,136.08,86.18,142.88,365.14,Single-ply,SBD,M
Boys,74.84,15,Dontae Harris,Mertzon Irion County,68.54,138.35,74.84,142.88,356.07,Single-ply,SBD,M
Boys,82.1,16,Roy Carillo,Big Spring,74.98,158.76,72.57,124.74,356.07,Single-ply,SBD,M
Boys,74.84,17,Hernandez Eduardo,Denver City,69.94,129.27,70.31,136.08,335.66,Single-ply,SBD,M
Boys,74.84,18,Carson Edmonds,Loraine,68.99,99.79,77.11,145.15,322.05,Single-ply,SBD,M
Boys,74.84,19,Victor Castillo,Big Spring,73.3,113.4,95.25,113.4,322.05,Single-ply,SBD,M
Boys,74.84,20,Francisco Hernandez,Coahoma,68.13,61.23,43.09,72.57,176.9,Single-ply,SBD,M
Boys,82.1,1,Peyton Rodriguez,Coahoma,80.29,213.19,136.08,217.72,566.99,Single-ply,SBD,M
Boys,82.1,2,Joseph Melendez,Coahoma,81.19,199.58,106.59,197.31,503.49,Single-ply,SBD,M
Boys,82.1,3,Foster Burchett,Forsan,80.65,181.44,102.06,206.38,489.88,Single-ply,SBD,M
Boys,82.1,4,DruMarcus Austin,Midland Lee,76.7,190.51,102.06,195.04,487.61,Single-ply,SBD,M
Boys,82.1,5,Saul Acevado,San Angelo Lake View,79.85,179.17,99.79,204.12,483.08,Single-ply,SBD,M
Boys,82.1,6,Branson Kennedy,Coahoma,76.84,163.29,102.06,190.51,455.86,Single-ply,SBD,M
Boys,82.1,7,Josh Neri,Mertzon Irion County,76.29,163.29,99.79,181.44,444.52,Single-ply,SBD,M
Boys,82.1,8,Tyler Barron,Midland Classical Academy,81.65,156.49,92.99,165.56,415.04,Single-ply,SBD,M
Boys,82.1,9,Bryan Smith,Post,75.34,133.81,106.59,149.69,390.09,Single-ply,SBD,M
Boys,82.1,10,Spencer Frost,Midland Classical Academy,76.25,122.47,74.84,120.2,317.51,Single-ply,SBD,M
Boys,89.81,1,Louis Loera,Midland Lee,83.82,185.97,122.47,195.04,503.49,Single-ply,SBD,M
Boys,89.81,2,Nathaniel Gill,Post,85.32,174.63,120.2,192.78,487.61,Single-ply,SBD,M
Boys,99.79,3,Isaac Garza,Big Spring,89.86,176.9,90.72,192.78,460.4,Single-ply,SBD,M
Boys,89.81,4,Jahari Vanover,Big Spring,87.14,165.56,90.72,165.56,421.84,Single-ply,SBD,M
Boys,89.81,5,Ben Webb,Midland Classical Academy,88.04,133.81,92.99,165.56,392.36,Single-ply,SBD,M
Boys,89.81,6,Corey Potter,Coahoma,84.55,145.15,72.57,163.29,381.02,Single-ply,SBD,M
Boys,99.79,7,Brody Coates,Coahoma,89.99,136.08,72.57,124.74,333.39,Single-ply,SBD,M
Boys,89.81,8,Jose Baleza,Garden City,84.41,111.13,61.23,115.67,288.03,Single-ply,SBD,M
Boys,89.81,DQ,Brett Saucedo,Big Spring,84.01,136.08,81.65,,,Single-ply,SBD,M
Boys,99.79,1,Ramiro Reyes,Colorado City Colorado,98.7,278.96,204.12,256.28,739.36,Single-ply,SBD,M
Boys,99.79,2,Blake Long,Midland Lee,93.8,204.12,102.06,215.46,521.63,Single-ply,SBD,M
Boys,99.79,3,Gage McSwain,Midland Lee,96.21,204.12,113.4,204.12,521.63,Single-ply,SBD,M
Boys,99.79,4,Jesse Garza,Colorado City Colorado,99.34,204.12,117.93,195.04,517.1,Single-ply,SBD,M
Boys,99.79,5,Ronnie Bell,Big Spring,92.12,172.37,111.13,190.51,474,Single-ply,SBD,M
Boys,99.79,6,Josh Smith,San Angelo Lake View,96.21,192.78,97.52,174.63,464.93,Single-ply,SBD,M
Boys,99.79,7,Braxton Dodson,Midland Lee,93.94,185.97,95.25,163.29,444.52,Single-ply,SBD,M
Boys,99.79,DQ,Mark Gonzalez,Colorado City Colorado,91.53,174.63,95.25,,,Single-ply,SBD,M
Boys,99.79,DQ,Andrew Hicks,Garden City,94.39,147.42,,,,Single-ply,SBD,M
Boys,109.77,1,Aaron Allen #2,San Angelo Lake View,102.54,254.01,129.27,272.16,655.44,Single-ply,SBD,M
Boys,109.77,2,Jordan Stokes,Coahoma,101.33,240.4,142.88,247.21,630.49,Single-ply,SBD,M
Boys,109.77,3,Rudy Brito,Coahoma,108.68,215.46,115.67,172.37,503.49,Single-ply,SBD,M
Boys,109.77,4,Zak Walton,Coahoma,108.32,188.24,117.93,185.97,492.15,Single-ply,SBD,M
Boys,109.77,5,Diamond Bailey,Big Spring,103.06,192.78,97.52,197.31,487.61,Single-ply,SBD,M
Boys,124.74,6,Diego Alvarado,Midland Lee,109.81,149.69,90.72,181.44,421.84,Single-ply,SBD,M
Boys,109.77,7,Phillip Bacon,Coahoma,109.45,122.47,74.84,127.01,324.32,Single-ply,SBD,M
Boys,109.77,DQ,Angel Aquilera,Big Lake Reagan County,108.45,109.77,,,,Single-ply,SBD,M
Boys,124.74,1,Ricky Ciuba,Mertzon Irion County,118.89,276.69,170.1,254.01,700.8,Single-ply,SBD,M
Boys,124.74,2,Dustin Fontana,Coahoma,114.76,231.33,154.22,217.72,603.28,Single-ply,SBD,M
Boys,124.74,3,Chris Lara,Midland Lee,124.74,233.6,124.74,204.12,562.45,Single-ply,SBD,M
Boys,124.74,4,Lelton Mosley,Midland Lee,118.02,240.4,117.93,185.97,544.31,Single-ply,SBD,M
Boys,124.74,5,Christian Delgado,San Angelo Lake View,122.02,219.99,124.74,185.97,530.7,Single-ply,SBD,M
Boys,124.74,6,Brandon Lopez,San Angelo Lake View,112.06,215.46,120.2,183.7,519.36,Single-ply,SBD,M
Boys,124.74,7,Aric Rutledge,Big Spring,116.75,185.97,113.4,199.58,498.95,Single-ply,SBD,M
Boys,124.74,8,Aaron Enriquez,Garden City,110.72,151.95,102.06,181.44,435.45,Single-ply,SBD,M
Boys,124.74,9,Hardy Berber,Colorado City Colorado,121.38,151.95,111.13,151.95,415.04,Single-ply,SBD,M
Boys,124.74,10,Aj Martinez,Big Spring,124.1,151.95,90.72,161.03,403.7,Single-ply,SBD,M
Boys,124.74,11,Jordan Ramos,San Angelo Lake View,113.9,149.69,61.23,133.81,344.73,Single-ply,SBD,M
Boys,124.74+,DQ,Eric Rodiguez,Big Spring,124.83,131.54,,,,Single-ply,SBD,M
Boys,124.74+,1,Bowdy Thompson,San Angelo Lake View,165.11,278.96,165.56,249.48,694,Single-ply,SBD,M
Boys,124.74+,2,Dj Schlather,San Angelo Lake View,133.27,226.8,124.74,201.85,553.38,Single-ply,SBD,M
Boys,124.74+,3,Thomas Rivera,Colorado City Colorado,154.22,136.08,97.52,142.88,376.48,Single-ply,SBD,M
Boys,124.74+,DQ,Fabian Guiterrez,Colorado City Colorado,126.64,,,,,Single-ply,SBD,M
Boys,124.74+,DQ,Frankie Mier,Garden City,129.32,,,,,Single-ply,SBD,M
Boys,,NS,Shawn Walker,Garden City,,,,,,Single-ply,SBD,M
Boys,,NS,Brendan Roman,Forsan,,,,,,Single-ply,SBD,M
Boys,,NS,Till Siebert,Loraine,,,,,,Single-ply,SBD,M
Boys,,NS,Anthony Rivera,Colorado City Colorado,,,,,,Single-ply,SBD,M
Boys,,NS,Blaise Coffman,Forsan,,,,,,Single-ply,SBD,M
Boys,,NS,Randon Lance,Denver City,,,,,,Single-ply,SBD,M
Boys,,NS,Ruben Garcia,Denver City,,,,,,Single-ply,SBD,M
Boys,,NS,Sumner Wingo,Denver City,,,,,,Single-ply,SBD,M
Boys,,NS,Kenny Gonzales,San Angelo Lake View,,,,,,Single-ply,SBD,M
Boys,,NS,Jonathan Leyva,San Angelo Lake View,,,,,,Single-ply,SBD,M
Boys,,NS,Keaton Collins,Post,,,,,,Single-ply,SBD,M
Boys,,NS,Daniel Fu,Midland Classical Academy,,,,,,Single-ply,SBD,M
Boys,,NS,Stefano Herrera,Midland Classical Academy,,,,,,Single-ply,SBD,M
