Division,WeightClassKg,Place,Name,Team,BodyweightKg,Best3SquatKg,Best3BenchKg,Best3DeadliftKg,TotalKg,Equipment,Event,Sex
Boys,51.71,1,Angel Garcia,Edinburg Idea College Prep,51.44,195.04,97.52,188.24,480.81,Single-ply,SBD,M
Boys,51.71,2,Terry Cole,Skidmore-Tynan,51.62,172.37,95.25,176.9,444.52,Single-ply,SBD,M
Boys,51.71,3,Arnold Pena,Benavides,51.71,151.95,86.18,170.1,408.23,Single-ply,SBD,M
Boys,51.71,4,Mason Williams,Yorktown,51.62,154.22,81.65,163.29,399.16,Single-ply,SBD,M
Boys,51.71,5,Joey Rodriguez,Edinburg Idea College Prep,50.08,151.95,81.65,158.76,392.36,Single-ply,SBD,M
Boys,51.71,6,Johnny Gomez,Rocksprings,51.71,138.35,95.25,151.95,385.55,Single-ply,SBD,M
Boys,51.71,7,Fabian Garcia,Edinburg Idea College Prep,49.62,147.42,81.65,136.08,365.14,Single-ply,SBD,M
Boys,51.71,8,Dylan Crye,Hallettsville,51.71,127.01,56.7,117.93,301.64,Single-ply,SBD,M
Boys,51.71,DQ,Jovan Colchado,Dilley,51.71,,,,,Single-ply,SBD,M
Boys,51.71,DQ,Robert Montemayor,Taft,51.62,131.54,,,,Single-ply,SBD,M
Boys,51.71,DQ,Christian Pena,Benavides,51.44,149.69,88.45,,,Single-ply,SBD,M
Boys,55.79,1,Adrian Campos,Freer,55.07,192.78,115.67,181.44,489.88,Single-ply,SBD,M
Boys,55.79,2,Brandon Canales,Benavides,55.25,174.63,99.79,190.51,464.93,Single-ply,SBD,M
Boys,55.79,3,Niko Munoz,Falfurrias,54.61,172.37,113.4,165.56,451.32,Single-ply,SBD,M
Boys,55.79,4,Gavin Chapa,Corpus Christi London,54.98,174.63,83.91,183.7,442.25,Single-ply,SBD,M
Boys,55.79,5,Miguel Ramirez,Agua Dulce,55.7,188.24,79.38,163.29,430.91,Single-ply,SBD,M
Boys,55.79,6,Arnold Perez,Ben Bolt-Palito Blanco,55.79,161.03,97.52,172.37,430.91,Single-ply,SBD,M
Boys,55.79,7,Austin Lopez,Hebbronville,55.52,176.9,97.52,149.69,424.11,Single-ply,SBD,M
Boys,55.79,8,Damien Diaz,Hebbronville,54.43,172.37,68.04,172.37,412.77,Single-ply,SBD,M
Boys,55.79,9,Elijah Wheeler,Edinburg Idea College Prep,55.79,156.49,77.11,161.03,394.63,Single-ply,SBD,M
Boys,55.79,10,Scott Ramirez,Cotulla,55.16,131.54,86.18,147.42,365.14,Single-ply,SBD,M
Boys,55.79,DQ,Tristan Perez,Benavides,53.98,174.63,79.38,,,Single-ply,SBD,M
Boys,59.87,1,Manuel Padilla,Natalia,59.33,217.72,111.13,195.04,523.9,Single-ply,SBD,M
Boys,59.87,2,Lucas Lara,Mathis,58.15,170.1,102.06,199.58,471.74,Single-ply,SBD,M
Boys,59.87,3,Danny Morales,Karnes City,58.79,192.78,88.45,176.9,458.13,Single-ply,SBD,M
Boys,59.87,4,Ray Martinez,Santa Rosa,58.97,163.29,111.13,183.7,458.13,Single-ply,SBD,M
Boys,59.87,5,Aaron Lozano,Edinburg Quest College Prep,59.42,172.37,88.45,192.78,453.59,Single-ply,SBD,M
Boys,59.87,6,Ryan Juarez,Natalia,59.15,179.17,92.99,176.9,449.06,Single-ply,SBD,M
Boys,59.87,7,JR Velasquez,Rocksprings,58.42,163.29,133.81,145.15,442.25,Single-ply,SBD,M
Boys,59.87,8,Vynce Ochoa,Dilley,58.06,174.63,99.79,163.29,437.72,Single-ply,SBD,M
Boys,59.87,9,Evy Curiel,Natalia,59.42,154.22,70.31,165.56,390.09,Single-ply,SBD,M
Boys,59.87,DQ,Matthew Randall,Edinburg Quest College Prep,59.78,163.29,106.59,,,Single-ply,SBD,M
Boys,59.87,DQ,Samuel Moczygemba,Poth,59.87,,,,,Single-ply,SBD,M
Boys,67.13,1,Anthony Perez,San Diego,66.13,274.42,165.56,249.48,689.46,Single-ply,SBD,M
Boys,67.13,2,Marcos Chavez,Lyford,65.59,215.46,122.47,235.87,573.79,Single-ply,SBD,M
Boys,67.13,3,Brandon Carballo,Hebbronville,65.41,235.87,127.01,204.12,566.99,Single-ply,SBD,M
Boys,67.13,4,Seth Meza-Briones,Santa Gertrudis Academy,65.86,185.97,136.08,197.31,519.36,Single-ply,SBD,M
Boys,67.13,5,Garrett McDonald,Jourdanton,66.68,226.8,111.13,181.44,519.36,Single-ply,SBD,M
Boys,67.13,6,Nathan Meza,Refugio,64.77,195.04,108.86,208.65,512.56,Single-ply,SBD,M
Boys,67.13,7,Diego Zapata,Natalia,66.32,208.65,99.79,183.7,492.15,Single-ply,SBD,M
Boys,67.13,8,Michael Rodriguez,Stockdale,66.41,185.97,120.2,181.44,487.61,Single-ply,SBD,M
Boys,67.13,9,Jonathan Pena,Banquete,65.95,154.22,138.35,183.7,476.27,Single-ply,SBD,M
Boys,67.13,10,Andrew Garcia,Mathis,63.87,183.7,115.67,167.83,467.2,Single-ply,SBD,M
Boys,67.13,DQ,Andrew Nevarez,Edinburg Idea College Prep,66.32,,,,,Single-ply,SBD,M
Boys,74.84,1,Ramiro Gonzalez,Falfurrias,74.57,254.01,138.35,249.48,641.83,Single-ply,SBD,M
Boys,74.84,2,Gilibaldo Garcia,San Antonio Brooks Academy,73.66,242.67,127.01,251.74,621.42,Single-ply,SBD,M
Boys,74.84,3,Arturo Reyna,Bishop,72.57,240.4,131.54,217.72,589.67,Single-ply,SBD,M
Boys,74.84,4,Storm Toelken,Skidmore-Tynan,74.84,195.04,145.15,210.92,551.11,Single-ply,SBD,M
Boys,74.84,5,Marcus Almeida,Stockdale,73.3,204.12,142.88,201.85,548.85,Single-ply,SBD,M
Boys,74.84,6,Nick Rodriguez,Dilley,74.48,195.04,124.74,210.92,530.7,Single-ply,SBD,M
Boys,74.84,7,Kyle Jones,Poth,73.21,192.78,97.52,233.6,523.9,Single-ply,SBD,M
Boys,74.84,8,Enrique Garza,Dilley,73.39,204.12,120.2,195.04,519.36,Single-ply,SBD,M
Boys,74.84,9,Ethan Ozuna,Center Point,71.85,206.38,111.13,183.7,501.22,Single-ply,SBD,M
Boys,74.84,DQ,Diego Pérez,Rocksprings,73.57,,,,,Single-ply,SBD,M
Boys,74.84,DQ,Devin Sims,Altair Rice,74.03,,,,,Single-ply,SBD,M
Boys,82.1,1,Joshua Olivarez,Falfurrias,80.2,272.16,142.88,251.74,666.78,Single-ply,SBD,M
Boys,82.1,2,Frank Moreno,Lyford,81.19,240.4,133.81,263.08,637.3,Single-ply,SBD,M
Boys,82.1,3,John Hodge,Pettus,79.02,242.67,129.27,251.74,623.69,Single-ply,SBD,M
Boys,82.1,4,Conner Bowers,Bishop,80.92,233.6,158.76,219.99,612.35,Single-ply,SBD,M
Boys,82.1,5,Brent Gisler,Karnes City,81.56,222.26,161.03,219.99,603.28,Single-ply,SBD,M
Boys,82.1,6,Oscar Perez,Ben Bolt-Palito Blanco,76.66,226.8,129.27,235.87,591.94,Single-ply,SBD,M
Boys,82.1,7,Robert Schmidt,Karnes City,81.28,229.06,131.54,208.65,569.26,Single-ply,SBD,M
Boys,82.1,8,Jacob Munoz,Falfurrias,77.66,210.92,131.54,192.78,535.24,Single-ply,SBD,M
Boys,82.1,9,Brit Bowers,Bishop,78.56,185.97,127.01,217.72,530.7,Single-ply,SBD,M
Boys,82.1,10,Joel Rios,Natalia,76.2,195.04,113.4,206.38,514.83,Single-ply,SBD,M
Boys,82.1,11,Giovanni Narvaiz,Cotulla,81.92,219.99,102.06,192.78,514.83,Single-ply,SBD,M
Boys,82.1,DQ,Enrique Espinoza,Mathis,78.2,,,,,Single-ply,SBD,M
Boys,89.81,1,Mitchell Rees,Karnes City,87.36,308.44,154.22,263.08,725.75,Single-ply,SBD,M
Boys,89.81,2,Alan Medrano,Bishop,87.63,233.6,163.29,247.21,644.1,Single-ply,SBD,M
Boys,89.81,3,Ithel Carrillo,Hebbronville,89.72,249.48,158.76,235.87,644.1,Single-ply,SBD,M
Boys,89.81,4,Beau Medrano,Dilley,87.09,240.4,154.22,208.65,603.28,Single-ply,SBD,M
Boys,89.81,5,Tevin Moreno,Odem,89.45,240.4,133.81,217.72,591.94,Single-ply,SBD,M
Boys,89.81,6,Alex Garza,Cotulla,89.63,233.6,145.15,210.92,589.67,Single-ply,SBD,M
Boys,89.81,7,Chance Lamb,Natalia,89.27,204.12,113.4,213.19,530.7,Single-ply,SBD,M
Boys,89.81,DQ,Michael Martinez,Natalia,87,,,,,Single-ply,SBD,M
Boys,89.81,DQ,Jacob Trujollo,Universal City Randolph,88.09,204.12,127.01,,,Single-ply,SBD,M
Boys,89.81,DQ,Marty Trevino,Dilley,89.63,,,,,Single-ply,SBD,M
Boys,89.81,DQ,Marcus Cerda,Taft,88.72,,,,,Single-ply,SBD,M
Boys,99.79,1,Ray Saenz,Bishop,98.97,283.5,170.1,272.16,725.75,Single-ply,SBD,M
Boys,99.79,2,Jp Cordova,Rocksprings,90.08,278.96,161.03,249.48,689.46,Single-ply,SBD,M
Boys,99.79,3,Trace McAfee,Hallettsville,95.07,265.35,165.56,240.4,671.32,Single-ply,SBD,M
Boys,99.79,4,Jose Rangel,La Villa,99.43,281.23,140.61,235.87,657.71,Single-ply,SBD,M
Boys,99.79,5,Elias Cantu,Hebbronville,99.43,240.4,172.37,226.8,639.57,Single-ply,SBD,M
Boys,99.79,6,Joseph Martinez,Cotulla,96.43,240.4,138.35,249.48,628.23,Single-ply,SBD,M
Boys,99.79,7,Conner Brandt,Yoakum,98.97,260.82,138.35,215.46,614.62,Single-ply,SBD,M
Boys,99.79,8,Austin Kennemer,Agua Dulce,99.7,240.4,142.88,224.53,607.81,Single-ply,SBD,M
Boys,99.79,9,David Colecio,Bishop,96.89,238.14,147.42,217.72,603.28,Single-ply,SBD,M
Boys,99.79,10,Lorenzo Perez,Mathis,97.07,240.4,151.95,192.78,585.13,Single-ply,SBD,M
Boys,99.79,DQ,Patrick Rhodes,San Antonio Cole,94.44,,,,,Single-ply,SBD,M
Boys,99.79,DQ,Ethan Gonzalez,San Diego,96.98,,,,,Single-ply,SBD,M
Boys,109.77,1,Michael Salar,San Diego,106.78,281.23,183.7,249.48,714.41,Single-ply,SBD,M
Boys,109.77,2,Joey Garza,Falfurrias,106.87,272.16,149.69,254.01,675.85,Single-ply,SBD,M
Boys,109.77,3,Angel Hernandez,Goliad,106.14,240.4,156.49,260.82,657.71,Single-ply,SBD,M
Boys,109.77,4,Joshua Koppenol,Hallettsville,109.41,249.48,174.63,224.53,648.64,Single-ply,SBD,M
Boys,109.77,5,Uriel Arellano,Natalia,100.06,249.48,161.03,233.6,644.1,Single-ply,SBD,M
Boys,109.77,6,Ethan Bernal,George West,107.68,258.55,151.95,224.53,635.03,Single-ply,SBD,M
Boys,109.77,7,Richard Villarreal,Kenedy,101.42,240.4,136.08,204.12,580.6,Single-ply,SBD,M
Boys,109.77,8,Ezekiel Palacios,Goliad,108.41,226.8,138.35,208.65,573.79,Single-ply,SBD,M
Boys,109.77,9,Robert de la Cruz,Corpus Christi London,103.24,204.12,138.35,226.8,569.26,Single-ply,SBD,M
Boys,109.77,10,Nathaniel Gomez,Karnes City,101.79,229.06,124.74,195.04,548.85,Single-ply,SBD,M
Boys,109.77,DQ,Jose Ramirez,La Villa,107.68,,,,,Single-ply,SBD,M
Boys,124.74,1,David Mendez,Taft,121.2,285.76,167.83,249.48,703.07,Single-ply,SBD,M
Boys,124.74,2,Christian Lopez,La Pryor,120.93,303.91,156.49,238.14,698.53,Single-ply,SBD,M
Boys,124.74,3,Dustin Dominguez,Dilley,123.1,281.23,165.56,233.6,680.39,Single-ply,SBD,M
Boys,124.74,4,Jalen Cano,Stockdale,114.49,267.62,167.83,240.4,675.85,Single-ply,SBD,M
Boys,124.74,5,Louie Sanchez,Three Rivers,122.29,272.16,165.56,229.06,666.78,Single-ply,SBD,M
Boys,124.74,6,Paul Billalobos,Natalia,123.1,256.28,142.88,238.14,637.3,Single-ply,SBD,M
Boys,124.74,7,Shawn Allen,Schulenburg,111.04,249.48,149.69,229.06,628.23,Single-ply,SBD,M
Boys,124.74,8,Jace Gonzalez,Karnes City,116.85,256.28,142.88,229.06,628.23,Single-ply,SBD,M
Boys,124.74,9,Ronnie Ellis,Altair Rice,114.58,251.74,124.74,244.94,621.42,Single-ply,SBD,M
Boys,124.74,DQ,Oscar Ramirez,Natalia,119.84,276.69,176.9,,,Single-ply,SBD,M
Boys,124.74,DQ,Jason Carrillo,Rocksprings,121.93,,,,,Single-ply,SBD,M
Boys,124.74,DQ,Luis Garza,Odem,121.47,258.55,158.76,,,Single-ply,SBD,M
Boys,124.74+,1,Justin Garcia,Lyford,141.25,294.84,183.7,244.94,723.48,Single-ply,SBD,M
Boys,124.74+,2,Freddie Enriquez,Rocksprings,154.22,294.84,158.76,240.4,694,Single-ply,SBD,M
Boys,124.74+,3,Victor Cruz,Natalia,130.18,258.55,170.1,247.21,675.85,Single-ply,SBD,M
Boys,124.74+,4,Edward Carrera,Taft,137.98,258.55,158.76,240.4,657.71,Single-ply,SBD,M
Boys,124.74+,5,Taj Fields,Altair Rice,144.79,251.74,124.74,199.58,576.06,Single-ply,SBD,M
Boys,124.74+,6,Mikey Chapa,Karnes City,151.68,235.87,122.47,213.19,571.53,Single-ply,SBD,M
Boys,124.74+,7,Joseph Anaglia,San Antonio Brooks Academy,126.82,235.87,142.88,181.44,560.19,Single-ply,SBD,M
Boys,124.74+,DQ,Enrique Paredes,Cotulla,196.59,,,,,Single-ply,SBD,M
Boys,124.74+,DQ,Jonathan Rodriguez,Agua Dulce,137.08,260.82,147.42,,,Single-ply,SBD,M
Boys,124.74+,DQ,Joey Dominguez,Yoakum,139.16,,,,,Single-ply,SBD,M
