Division,WeightClassKg,Place,Name,Team,BodyweightKg,Best3SquatKg,Best3BenchKg,Best3DeadliftKg,TotalKg,Equipment,Event,Sex
Girls,44.23,1,Mayte Arredondo,Whitney,43.45,74.84,31.75,102.06,208.65,Single-ply,SBD,F
Girls,47.85,1,Kailee Hansmire,Comanche,47.63,102.06,58.97,120.2,281.23,Single-ply,SBD,F
Girls,47.85,2,Sabra Warren,Gatesville,47.26,102.06,65.77,99.79,267.62,Single-ply,SBD,F
Girls,47.85,3,Elizabeth Pettit,Bangs,45.45,79.38,40.82,92.99,213.19,Single-ply,SBD,F
Girls,47.85,4,Mackenzie Robbins,Gustine,44.45,70.31,40.82,79.38,190.51,Single-ply,SBD,F
Girls,51.94,1,Sanjuana Delgado,Whitney,51.89,83.91,45.36,90.72,219.99,Single-ply,SBD,F
Girls,51.94,2,Traci Creamer,Whitney,50.26,90.72,38.56,83.91,213.19,Single-ply,SBD,F
Girls,51.94,3,Autumn Kidwell,Stephenville,51.89,83.91,38.56,90.72,213.19,Single-ply,SBD,F
Girls,51.94,4,Sierra Childers,Meridian,48.44,86.18,40.82,81.65,208.65,Single-ply,SBD,F
Girls,51.94,5,Jacky Hernandez,Meridian,49.26,65.77,45.36,97.52,208.65,Single-ply,SBD,F
Girls,51.94,6,Teresa Ramirez,Gustine,49.17,68.04,40.82,97.52,206.38,Single-ply,SBD,F
Girls,51.94,7,Anaylely Escobar,Gustine,51.53,68.04,36.29,81.65,185.97,Single-ply,SBD,F
Girls,51.94,8,Tania Valdez,Gustine,48.17,58.97,36.29,79.38,174.63,Single-ply,SBD,F
Girls,51.94,9,Tara Moreno,Alvarado,50.8,70.31,34.02,70.31,174.63,Single-ply,SBD,F
Girls,51.94,10,Lauren Winborn,Early,48.44,52.16,29.48,74.84,156.49,Single-ply,SBD,F
Girls,51.94,11,Andrea Watkins,Santo,49.08,54.43,36.29,63.5,154.22,Single-ply,SBD,F
Girls,51.94,12,Kameron McKandless,Hamilton,48.08,52.16,29.48,52.16,133.81,Single-ply,SBD,F
Girls,51.94,13,Madison Mobley,Lingleville,51.53,43.09,27.22,61.23,131.54,Single-ply,SBD,F
Girls,51.94,DQ,Shyann Wyatt-Dixon,Stephenville,49.8,61.23,,70.31,,Single-ply,SBD,F
Girls,56.02,1,Elizabeth Trejo,Gatesville,55.97,108.86,52.16,122.47,283.5,Single-ply,SBD,F
Girls,56.02,2,Chanda Leal,Ranger,55.97,77.11,47.63,97.52,222.26,Single-ply,SBD,F
Girls,56.02,3,Lakyn Dent,Bangs,53.52,79.38,43.09,97.52,219.99,Single-ply,SBD,F
Girls,56.02,4,Keaghan Moore,Alvarado,53.52,77.11,40.82,90.72,208.65,Single-ply,SBD,F
Girls,56.02,5,Shelby Buttler,San Saba,52.98,77.11,34.02,92.99,204.12,Single-ply,SBD,F
Girls,56.02,6,Lineivia Garcia,Gustine,54.98,63.5,34.02,90.72,188.24,Single-ply,SBD,F
Girls,56.02,7,Shea Scott,San Saba,53.07,65.77,36.29,81.65,183.7,Single-ply,SBD,F
Girls,56.02,8,Jayslin King,Early,54.7,52.16,38.56,92.99,183.7,Single-ply,SBD,F
Girls,56.02,9,Breana Cooney,Early,53.34,52.16,29.48,79.38,161.03,Single-ply,SBD,F
Girls,56.02,10,Paige Smith,Early,53.16,43.09,29.48,81.65,154.22,Single-ply,SBD,F
Girls,56.02,11,Chaeli Stalcup,Early,55.79,49.9,22.68,74.84,147.42,Single-ply,SBD,F
Girls,56.02,DQ,Kennedy Bradldly,Bangs,55.16,79.38,,88.45,,Single-ply,SBD,F
Girls,60.1,1,Baylie DeViney,Stephenville,57.88,102.06,47.63,97.52,247.21,Single-ply,SBD,F
Girls,60.1,2,Inez Salazar,Cross Plains,58.24,90.72,47.63,104.33,242.67,Single-ply,SBD,F
Girls,60.1,3,Jaclyn Turley,Dublin,60.06,97.52,52.16,92.99,242.67,Single-ply,SBD,F
Girls,60.1,4,Abby Kunkel,Ranger,57.7,88.45,47.63,104.33,240.4,Single-ply,SBD,F
Girls,60.1,5,Zaidee Paul,Joshua,58.42,90.72,54.43,92.99,238.14,Single-ply,SBD,F
Girls,60.1,6,Taylor Bledsue,Joshua,57.15,81.65,45.36,95.25,222.26,Single-ply,SBD,F
Girls,60.1,7,Chelsea Gillespie,Stephenville,59.24,81.65,43.09,95.25,219.99,Single-ply,SBD,F
Girls,60.1,8,Emmalee Tate,Joshua,56.43,77.11,43.09,90.72,210.92,Single-ply,SBD,F
Girls,60.1,9,Adrianna Contreras,Whitney,59.51,68.04,40.82,90.72,199.58,Single-ply,SBD,F
Girls,60.1,10,Jacey Sparks,Early,59.69,70.31,43.09,79.38,192.78,Single-ply,SBD,F
Girls,60.1,11,Meagan Sessler,Early,57.52,74.84,29.48,79.38,183.7,Single-ply,SBD,F
Girls,60.1,12,Cheyenne Parker,Glen Rose,56.88,70.31,29.48,77.11,176.9,Single-ply,SBD,F
Girls,60.1,13,Meagan Farfalla,Stephenville,60.06,65.77,34.02,74.84,174.63,Single-ply,SBD,F
Girls,60.1,14,Sydney Beaver,Stephenville,58.97,63.5,31.75,72.57,167.83,Single-ply,SBD,F
Girls,60.1,DQ,Sarah Leonard,Santo,59.6,61.23,,72.57,,Single-ply,SBD,F
Girls,67.36,1,Amber Jones,Bangs,66.41,136.08,65.77,145.15,347,Single-ply,SBD,F
Girls,67.36,2,Ashlyn Wilkerson,Whitney,67.31,122.47,54.43,131.54,308.44,Single-ply,SBD,F
Girls,67.36,3,Andrea Jimenez,San Saba,60.51,102.06,49.9,127.01,278.96,Single-ply,SBD,F
Girls,67.36,4,Courtney Owen,Bangs,65.41,90.72,54.43,127.01,272.16,Single-ply,SBD,F
Girls,67.36,5,Yajaira Garcia,Meridian,67.22,102.06,52.16,113.4,267.62,Single-ply,SBD,F
Girls,67.36,6,Samantha Williams,Meridian,63.05,92.99,47.63,124.74,265.35,Single-ply,SBD,F
Girls,67.36,7,Becca Dunahoo,Gatesville,64.86,92.99,49.9,106.59,249.48,Single-ply,SBD,F
Girls,67.36,8,Destini Bradshaw,Whitney,60.78,104.33,43.09,99.79,247.21,Single-ply,SBD,F
Girls,67.36,9,Stormi Davidson,Bangs,60.69,88.45,38.56,102.06,229.06,Single-ply,SBD,F
Girls,67.36,10,Neely Rumfield,Joshua,63.05,83.91,45.36,97.52,226.8,Single-ply,SBD,F
Girls,67.36,11,Taylor Francois,Bangs,62.32,81.65,40.82,88.45,210.92,Single-ply,SBD,F
Girls,67.36,12,Maria Harbison,Meridian,64.05,86.18,34.02,86.18,206.38,Single-ply,SBD,F
Girls,67.36,13,Kara Saunders,Ranger,64.95,88.45,27.22,90.72,206.38,Single-ply,SBD,F
Girls,67.36,14,Jessica Watson,Whitney,60.87,81.65,34.02,83.91,199.58,Single-ply,SBD,F
Girls,67.36,15,Lily Reagan,Early,64.55,61.23,43.09,95.25,199.58,Single-ply,SBD,F
Girls,67.36,16,Candace Herrera,Dublin,67.31,65.77,45.36,79.38,190.51,Single-ply,SBD,F
Girls,67.36,17,Taylor Moreno,Alvarado,62.41,63.5,36.29,88.45,188.24,Single-ply,SBD,F
Girls,67.36,18,Samantha Buitron,Gustine,63.68,65.77,34.02,86.18,185.97,Single-ply,SBD,F
Girls,67.36,19,Beatriz Hernandez,Lometa,65.59,72.57,29.48,81.65,183.7,Single-ply,SBD,F
Girls,67.36,20,Genesis Andrews,Stephenville,64.59,70.31,36.29,70.31,176.9,Single-ply,SBD,F
Girls,67.36,21,Nicona Stilwell,Stephenville,65.95,65.77,34.02,77.11,176.9,Single-ply,SBD,F
Girls,67.36,22,Jacee Bridges,Glen Rose,66.32,61.23,29.48,81.65,172.37,Single-ply,SBD,F
Girls,67.36,DQ,Kathy Vasquez,Whitney,60.69,95.25,,113.4,,Single-ply,SBD,F
Girls,75.07,1,Ashley Lawerance,Ranger,71.76,113.4,65.77,117.93,297.1,Single-ply,SBD,F
Girls,75.07,2,Emily Brown,Bangs,75.02,102.06,49.9,104.33,256.28,Single-ply,SBD,F
Girls,75.07,3,Victoria Beck,Rising Star,70.31,102.06,49.9,102.06,254.01,Single-ply,SBD,F
Girls,75.07,4,Avi Marin,Whitney,71.94,102.06,43.09,104.33,249.48,Single-ply,SBD,F
Girls,75.07,5,Kk Aper,Glen Rose,75.02,83.91,38.56,90.72,213.19,Single-ply,SBD,F
Girls,75.07,6,Wendy Flores,Alvarado,74.48,56.7,43.09,88.45,188.24,Single-ply,SBD,F
Girls,75.07,7,Bailie Abney,Alvarado,71.12,68.04,34.02,79.38,181.44,Single-ply,SBD,F
Girls,75.07,DQ,Cassidy Wright,Alvarado,73.57,97.52,,97.52,,Single-ply,SBD,F
Girls,75.07,DQ,Mercedes Hinze,Bangs,74.12,97.52,,120.2,,Single-ply,SBD,F
Girls,75.07,DQ,Haley Dickens,Gatesville,68.49,92.99,,,,Single-ply,SBD,F
Girls,75.07,DQ,Sidnee Rivas,Gatesville,73.84,136.08,56.7,,,Single-ply,SBD,F
Girls,75.07,DQ,Maria Lozando,Gatesville,70.13,113.4,,,,Single-ply,SBD,F
Girls,82.33,1,Cursti Cope,Gatesville,80.74,133.81,81.65,122.47,337.93,Single-ply,SBD,F
Girls,82.33,2,Kaylie Winstead,Stephenville,80.2,124.74,45.36,113.4,283.5,Single-ply,SBD,F
Girls,82.33,3,MacKenzie Dahl,Glen Rose,78.38,99.79,47.63,131.54,278.96,Single-ply,SBD,F
Girls,82.33,4,Joeley Haverland,San Saba,79.02,92.99,54.43,111.13,258.55,Single-ply,SBD,F
Girls,82.33,5,Meagan Jennings,San Saba,80.56,102.06,47.63,106.59,256.28,Single-ply,SBD,F
Girls,82.33,6,Stefani Reyna,Stephenville,77.56,90.72,45.36,97.52,233.6,Single-ply,SBD,F
Girls,82.33,7,Prisma Esparza,Dublin,78.47,79.38,52.16,95.25,226.8,Single-ply,SBD,F
Girls,82.33,8,Casey Jaynes,Rising Star,80.38,86.18,49.9,90.72,226.8,Single-ply,SBD,F
Girls,90.04,1,Sarah Walker,Gatesville,84.64,158.76,86.18,151.95,396.89,Single-ply,SBD,F
Girls,90.04,2,Corinna Lyon,Gatesville,86.18,149.69,77.11,140.61,367.41,Single-ply,SBD,F
Girls,90.04,3,Abby Davis,Alvarado,84.73,95.25,54.43,99.79,249.48,Single-ply,SBD,F
Girls,90.04,4,Cassie Carmichael,Bangs,88.9,83.91,52.16,99.79,235.87,Single-ply,SBD,F
Girls,90.04,5,Madi Garza,Stephenville,84.1,65.77,29.48,83.91,179.17,Single-ply,SBD,F
Girls,90.04,DQ,Ruby Hernandez,Dublin,89.99,129.27,,124.74,,Single-ply,SBD,F
Girls,100.02,1,KayDee Sexton,Gatesville,92.99,136.08,72.57,145.15,353.8,Single-ply,SBD,F
Girls,100.02,2,Amber Rush,Stephenville,90.81,133.81,65.77,115.67,315.25,Single-ply,SBD,F
Girls,100.02,3,Ebony Patrick,Bangs,93.17,131.54,52.16,122.47,306.17,Single-ply,SBD,F
Girls,100.02,4,Alexus Duckett,Stephenville,92.71,113.4,54.43,127.01,294.84,Single-ply,SBD,F
Girls,100.02,5,Evelyn Morales,Cross Plains,95.89,99.79,52.16,113.4,265.35,Single-ply,SBD,F
Girls,100.02,DQ,Kayla Fleming,Gatesville,91.81,138.35,,147.42,,Single-ply,SBD,F
Girls,100.02,DQ,Dani Munoz,Meridian,95.98,138.35,63.5,,,Single-ply,SBD,F
Girls,100.02+,1,Tricia Williams,Lometa,134.26,176.9,129.27,167.83,474,Single-ply,SBD,F
Girls,100.02+,2,Genesis Funez,Glen Rose,119.57,158.76,72.57,136.08,367.41,Single-ply,SBD,F
Girls,100.02+,3,Ashley Adams,Alvarado,131.45,131.54,83.91,124.74,340.19,Single-ply,SBD,F
Girls,100.02+,4,Brianna Hatcher,Dublin,113.4,124.74,83.91,129.27,337.93,Single-ply,SBD,F
Girls,100.02+,5,Mariah Gonzales,Lometa,101.15,117.93,63.5,127.01,308.44,Single-ply,SBD,F
Girls,100.02+,6,Bernice Flores,Alvarado,108.5,58.97,47.63,95.25,201.85,Single-ply,SBD,F
Girls,100.02+,DQ,Erin Sanders,San Saba,114.58,165.56,63.5,,,Single-ply,SBD,F
