Division,WeightClassKg,Place,Name,Team,BodyweightKg,Best3SquatKg,Best3BenchKg,Best3DeadliftKg,TotalKg,Equipment,Event,Sex
Girls,44.23,1,Natali Dominguez,Mertzon Irion County,43.73,113.4,65.77,115.67,294.84,Single-ply,SBD,F
Girls,44.23,2,Heav'nly Noriega,Tulia,42.37,95.25,47.63,111.13,254.01,Single-ply,SBD,F
Girls,44.23,3,Azaylea Tovar,Ozona,42.64,99.79,47.63,102.06,249.48,Single-ply,SBD,F
Girls,44.23,4,Marissa Godino,Hart,44.23,81.65,47.63,115.67,244.94,Single-ply,SBD,F
Girls,44.23,5,Layney Vega,Tahoka,43.73,97.52,45.36,97.52,240.4,Single-ply,SBD,F
Girls,44.23,6,Mariah De La Rosa,Crane,44,86.18,45.36,90.72,222.26,Single-ply,SBD,F
Girls,44.23,7,Brayleigh McGill,Panhandle,43.91,79.38,31.75,106.59,217.72,Single-ply,SBD,F
Girls,44.23,8,Raelee Borrego,Ozona,43.45,90.72,43.09,77.11,210.92,Single-ply,SBD,F
Girls,44.23,9,Chynna Sandate,Eldorado,41.1,72.57,43.09,90.72,206.38,Single-ply,SBD,F
Girls,44.23,10,Salina Flores,Ralls,43,81.65,31.75,92.99,206.38,Single-ply,SBD,F
Girls,44.23,DQ,Aaliyah Portales,Big Lake Reagan County,44.18,,,,,Single-ply,SBD,F
Girls,44.23,NS,Kaitlyn Guillen,Ballinger,,,,,,Single-ply,SBD,F
Girls,47.85,1,Madison Sullivan,Clyde,46.54,120.2,52.16,124.74,297.1,Single-ply,SBD,F
Girls,47.85,2,Serena Ayala,Tahoka,46.18,117.93,56.7,120.2,294.84,Single-ply,SBD,F
Girls,47.85,3,Kelby Tidwell,Post,47.85,117.93,45.36,111.13,274.42,Single-ply,SBD,F
Girls,47.85,4,Alyssa Davila,Kermit,46.18,104.33,49.9,106.59,260.82,Single-ply,SBD,F
Girls,47.85,5,Madison Kauk,Panhandle,46.63,90.72,58.97,104.33,254.01,Single-ply,SBD,F
Girls,47.85,6,Lynelle Hernandez,Sundown,47.36,99.79,47.63,104.33,251.74,Single-ply,SBD,F
Girls,47.85,7,Laney Medrano,Dimmitt,47.36,95.25,45.36,108.86,249.48,Single-ply,SBD,F
Girls,47.85,8,Mikaylee Gwin,Tahoka,46.54,99.79,43.09,102.06,244.94,Single-ply,SBD,F
Girls,47.85,9,Cierra Sanchez,Ozona,46.27,90.72,45.36,102.06,238.14,Single-ply,SBD,F
Girls,47.85,10,Victoria DeHanis,Mertzon Irion County,47.36,90.72,52.16,90.72,233.6,Single-ply,SBD,F
Girls,47.85,11,Destinny Sandate,Eldorado,46.9,79.38,36.29,106.59,222.26,Single-ply,SBD,F
Girls,47.85,DQ,Clarissa Jimenez,Big Lake Reagan County,46.72,92.99,,,,Single-ply,SBD,F
Girls,51.94,1,Kenzie Cramer,Mertzon Irion County,51.17,136.08,79.38,140.61,356.07,Single-ply,SBD,F
Girls,51.94,2,Taylor Lopez,Clyde,50.62,131.54,49.9,131.54,312.98,Single-ply,SBD,F
Girls,51.94,3,Zharia Childers,Seagraves,51.44,129.27,54.43,129.27,312.98,Single-ply,SBD,F
Girls,51.94,4,Alexis Mauricio,Cross Plains,50.35,122.47,52.16,113.4,288.03,Single-ply,SBD,F
Girls,51.94,5,Jordan Paredes,Sonora,50.98,120.2,47.63,117.93,285.76,Single-ply,SBD,F
Girls,51.94,6,Brianna Barron,Muleshoe,50.62,117.93,43.09,115.67,276.69,Single-ply,SBD,F
Girls,51.94,7,Bri Paiz,Abernathy,50.8,102.06,47.63,115.67,265.35,Single-ply,SBD,F
Girls,51.94,8,Laura Coronado,Eldorado,50.98,99.79,54.43,108.86,263.08,Single-ply,SBD,F
Girls,51.94,9,Franki Torres,Ralls,51.71,108.86,43.09,111.13,263.08,Single-ply,SBD,F
Girls,51.94,10,Kaylee Mueller,Seagraves,50.98,102.06,52.16,95.25,249.48,Single-ply,SBD,F
Girls,51.94,11,Hope Mauldon,Junction,51.35,92.99,38.56,111.13,242.67,Single-ply,SBD,F
Girls,51.94,DQ,Carmen Gonzalez,Amarillo Highland Park,49.8,92.99,40.82,,,Single-ply,SBD,F
Girls,56.02,1,Taylor Snodgrass,Mertzon Irion County,55.07,115.67,70.31,120.2,306.17,Single-ply,SBD,F
Girls,56.02,2,Jordain Castro,Ralls,52.07,113.4,49.9,140.61,303.91,Single-ply,SBD,F
Girls,56.02,3,Bryannah Minjarez,Seagraves,53.52,115.67,56.7,131.54,303.91,Single-ply,SBD,F
Girls,56.02,4,Julie Marshall,Ozona,54.79,124.74,54.43,122.47,301.64,Single-ply,SBD,F
Girls,56.02,5,Lorena Guajardo,San Angelo Grape Creek,55.25,122.47,58.97,115.67,297.1,Single-ply,SBD,F
Girls,56.02,6,Emily Nhek,Eldorado,53.07,117.93,54.43,120.2,292.57,Single-ply,SBD,F
Girls,56.02,7,Oralia Cardenas,Slaton,56.02,113.4,45.36,122.47,281.23,Single-ply,SBD,F
Girls,56.02,8,Payton Calderon,Ralls,55.25,92.99,52.16,122.47,267.62,Single-ply,SBD,F
Girls,56.02,9,Taylor Franklin,Sundown,55.79,97.52,52.16,117.93,267.62,Single-ply,SBD,F
Girls,56.02,10,Lizbeth Huerta,Garden City,55.97,83.91,47.63,111.13,242.67,Single-ply,SBD,F
Girls,56.02,DQ,Jessica Early,Clyde,52.62,,,,,Single-ply,SBD,F
Girls,56.02,NS,Abby Trevizo,Springlake Earth,,,,,,Single-ply,SBD,F
Girls,60.1,1,Rachel Mendoza,Ozona,57.88,136.08,77.11,142.88,356.07,Single-ply,SBD,F
Girls,60.1,2,Bianca Jimenez,Dimmitt,60.1,129.27,70.31,140.61,340.19,Single-ply,SBD,F
Girls,60.1,3,Hannah Jamar,Hawley,59.51,117.93,61.23,117.93,297.1,Single-ply,SBD,F
Girls,60.1,4,Erica Martinez,Ranger,57.24,124.74,47.63,115.67,288.03,Single-ply,SBD,F
Girls,60.1,5,Marisol DeLuna,Eldorado,57.61,111.13,56.7,120.2,288.03,Single-ply,SBD,F
Girls,60.1,6,Lizet Anett,Bovina,59.33,102.06,56.7,124.74,283.5,Single-ply,SBD,F
Girls,60.1,7,Daniela Deluna,Garden City,59.33,111.13,52.16,111.13,274.42,Single-ply,SBD,F
Girls,60.1,8,Kati Creech,Big Lake Reagan County,57.7,117.93,47.63,102.06,267.62,Single-ply,SBD,F
Girls,60.1,DQ,Samantha Sosa,Big Lake Reagan County,59.06,,,,,Single-ply,SBD,F
Girls,60.1,DQ,Chase Mertz,Eldorado,60.1,113.4,61.23,,,Single-ply,SBD,F
Girls,60.1,DQ,Brekka Ochoa,Floydada,56.7,,,,,Single-ply,SBD,F
Girls,60.1,NS,Brittany Howard,Kermit,,,,,,Single-ply,SBD,F
Girls,67.36,1,Kaylie Aranda,Kermit,67.13,151.95,81.65,129.27,362.87,Single-ply,SBD,F
Girls,67.36,2,Clarissa Hernandez,Dimmitt,62.96,149.69,77.11,129.27,356.07,Single-ply,SBD,F
Girls,67.36,3,Andrea Cuevas,Dimmitt,66.41,147.42,68.04,131.54,347,Single-ply,SBD,F
Girls,67.36,4,Maiah Jurado,Ozona,64.68,120.2,65.77,147.42,333.39,Single-ply,SBD,F
Girls,67.36,5,Ac Corley,San Angelo Grape Creek,65.95,142.88,63.5,122.47,328.85,Single-ply,SBD,F
Girls,67.36,6,Bekah Wilbourn,Alpine,67.36,129.27,70.31,129.27,328.85,Single-ply,SBD,F
Girls,67.36,7,Mikayla Cross,Alpine,66.41,136.08,72.57,117.93,326.59,Single-ply,SBD,F
Girls,67.36,8,Samantha Sanchez,Alpine,65.95,117.93,77.11,122.47,317.51,Single-ply,SBD,F
Girls,67.36,9,Asia Lara,Ozona,64.05,129.27,65.77,120.2,315.25,Single-ply,SBD,F
Girls,67.36,10,Hannah Crockett,Cross Plains,62.69,124.74,52.16,127.01,303.91,Single-ply,SBD,F
Girls,67.36,11,Lien Pham,Amarillo Highland Park,63.87,124.74,45.36,122.47,292.57,Single-ply,SBD,F
Girls,67.36,DQ,Araseli Villanueva,Junction,64.14,136.08,56.7,,,Single-ply,SBD,F
Girls,75.07,1,Larissa Vordick,San Angelo Grape Creek,74.48,163.29,79.38,156.49,399.16,Single-ply,SBD,F
Girls,75.07,2,Kaela Michaelis,Alpine,72.76,136.08,74.84,136.08,347,Single-ply,SBD,F
Girls,75.07,3,Macy Esquivel,Crane,71.94,131.54,65.77,136.08,333.39,Single-ply,SBD,F
Girls,75.07,4,KyLynn McCleskey,Tahoka,67.95,124.74,68.04,136.08,328.85,Single-ply,SBD,F
Girls,75.07,5,Erika Arzola,Muleshoe,67.77,120.2,68.04,138.35,326.59,Single-ply,SBD,F
Girls,75.07,6,Adriana Ortiz,Friona,71.58,131.54,56.7,131.54,319.78,Single-ply,SBD,F
Girls,75.07,7,Nayeli Jaramillo,Friona,71.85,136.08,52.16,124.74,312.98,Single-ply,SBD,F
Girls,75.07,8,Olivia Hammonds,Tahoka,73.75,115.67,52.16,142.88,310.71,Single-ply,SBD,F
Girls,75.07,9,Mallory Maxwell,Plains,71.3,127.01,61.23,120.2,308.44,Single-ply,SBD,F
Girls,75.07,10,Briana Jimenez,Dimmitt,72.76,122.47,56.7,129.27,308.44,Single-ply,SBD,F
Girls,75.07,11,Anais Ornelas,Crane,71.12,149.69,52.16,104.33,306.17,Single-ply,SBD,F
Girls,75.07,12,Kamelia Navarette,Crane,72.76,120.2,58.97,124.74,303.91,Single-ply,SBD,F
Girls,75.07,13,Katrina Soliz,Big Lake Reagan County,67.49,113.4,61.23,122.47,297.1,Single-ply,SBD,F
Girls,82.33,1,Bridgett Zubia,Kermit,79.38,145.15,86.18,167.83,399.16,Single-ply,SBD,F
Girls,82.33,2,Toni Huelsberg,Alpine,75.57,161.03,86.18,138.35,385.55,Single-ply,SBD,F
Girls,82.33,3,Macy McNutt,Mertzon Irion County,81.28,140.61,81.65,142.88,365.14,Single-ply,SBD,F
Girls,82.33,4,Amyah Newman,Sundown,76.66,151.95,63.5,138.35,353.8,Single-ply,SBD,F
Girls,82.33,5,Abeni Garcia,Seagraves,80.1,147.42,70.31,136.08,353.8,Single-ply,SBD,F
Girls,82.33,6,Lupita Hernandez,Friona,79.47,145.15,61.23,136.08,342.46,Single-ply,SBD,F
Girls,82.33,7,Marialena Viernes,Friona,80.83,129.27,65.77,129.27,324.32,Single-ply,SBD,F
Girls,82.33,8,Monica Sanchez,Eldorado,79.56,120.2,61.23,129.27,310.71,Single-ply,SBD,F
Girls,82.33,9,Natalie Ceballos,Coahoma,79.02,115.67,45.36,131.54,292.57,Single-ply,SBD,F
Girls,82.33,DQ,Sarah Oltivero,Dimmitt,78.29,163.29,,,,Single-ply,SBD,F
Girls,82.33,DQ,Britney George,Hawley,78.56,136.08,,,,Single-ply,SBD,F
Girls,82.33,DQ,Mikayla De La Cruz,Big Lake Reagan County,80.01,111.13,68.04,,,Single-ply,SBD,F
Girls,82.33,DQ,Vanessa Ramirez,Childress,80.29,151.95,56.7,,,Single-ply,SBD,F
Girls,90.04,1,Sirena Minjarez,Seagraves,87.63,172.37,104.33,172.37,449.06,Single-ply,SBD,F
Girls,90.04,2,Belle Gomez,Clyde,85.73,167.83,72.57,147.42,387.82,Single-ply,SBD,F
Girls,90.04,3,Lucy Arreola,Kermit,89.18,142.88,58.97,122.47,324.32,Single-ply,SBD,F
Girls,90.04,4,Elsa Galvan,Anson,86.36,149.69,45.36,122.47,317.51,Single-ply,SBD,F
Girls,90.04,5,Natalie Olvera,Bovina,83.82,127.01,49.9,131.54,308.44,Single-ply,SBD,F
Girls,90.04,6,Jae Dea DeBusk,Clyde,87.18,127.01,54.43,127.01,308.44,Single-ply,SBD,F
Girls,90.04,7,Crystal Regalado,Memphis,83.55,142.88,61.23,102.06,306.17,Single-ply,SBD,F
Girls,90.04,8,Tricia Carter,Iraan,90.04,111.13,56.7,117.93,285.76,Single-ply,SBD,F
Girls,90.04,DQ,Taylyn Lopez,Memphis,87.09,136.08,,,,Single-ply,SBD,F
Girls,90.04,DQ,Lexi Briley,San Angelo Grape Creek,87.72,142.88,,,,Single-ply,SBD,F
Girls,90.04,DQ,Mariea Freeman,Ranger,89.63,161.03,,,,Single-ply,SBD,F
Girls,90.04,DQ,Amber Baughman,San Angelo Grape Creek,88.27,,,,,Single-ply,SBD,F
Girls,100.02,1,Amanda Long,Hermleigh,90.99,185.97,68.04,158.76,412.77,Single-ply,SBD,F
Girls,100.02,2,Maggie Ikehara,Junction,91.72,158.76,74.84,165.56,399.16,Single-ply,SBD,F
Girls,100.02,3,Jacque Marquez,Alpine,90.08,156.49,79.38,133.81,369.68,Single-ply,SBD,F
Girls,100.02,4,Abigale Evans,Tulia,91.81,140.61,61.23,138.35,340.19,Single-ply,SBD,F
Girls,100.02,5,Kendra Sarabia,Ozona,93.35,147.42,61.23,115.67,324.32,Single-ply,SBD,F
Girls,100.02,6,Brittney Landin,Ralls,98.7,133.81,45.36,145.15,324.32,Single-ply,SBD,F
Girls,100.02,7,Lexia Arrieta,Anson,91.44,136.08,49.9,131.54,317.51,Single-ply,SBD,F
Girls,100.02,8,Madison Moya,Tahoka,92.71,136.08,47.63,104.33,288.03,Single-ply,SBD,F
Girls,100.02,9,Kassandra Gonzalez,Garden City,93.08,113.4,47.63,127.01,288.03,Single-ply,SBD,F
Girls,100.02,DQ,Angelica Cervantes,Big Lake Reagan County,96.89,,,,,Single-ply,SBD,F
Girls,100.02,NS,Trisha Carter,Iraan,,,,,,Single-ply,SBD,F
Girls,100.02,NS,Andreya Rogers,Crane,,,,,,Single-ply,SBD,F
Girls,117.71,1,Taylor Parmer,Iraan,112.94,181.44,77.11,161.03,419.57,Single-ply,SBD,F
Girls,117.71,2,Katlin Parks,Coleman,109.59,181.44,72.57,140.61,394.63,Single-ply,SBD,F
Girls,117.71,3,Myrah Miranda,Seagraves,103.78,158.76,86.18,140.61,385.55,Single-ply,SBD,F
Girls,117.71,4,Alexis Gutierrez,Seagraves,102.42,151.95,70.31,149.69,371.95,Single-ply,SBD,F
Girls,117.71,5,Charley Gardner,Anson,111.13,163.29,77.11,131.54,371.95,Single-ply,SBD,F
Girls,117.71,6,Daisey Narvaez,Big Lake Reagan County,114.21,151.95,70.31,140.61,362.87,Single-ply,SBD,F
Girls,117.71,7,Janay Leven,Panhandle,114.94,136.08,86.18,131.54,353.8,Single-ply,SBD,F
Girls,117.71,8,Amber Maldonado,Slaton,115.3,151.95,70.31,124.74,347,Single-ply,SBD,F
Girls,117.71,9,Alicia Arumbula,Junction,107.68,138.35,63.5,136.08,337.93,Single-ply,SBD,F
Girls,117.71,10,Raegan Deel,Coahoma,103.96,136.08,54.43,127.01,317.51,Single-ply,SBD,F
Girls,117.71,11,Kayla Sarabia,Ozona,105.23,131.54,56.7,108.86,297.1,Single-ply,SBD,F
Girls,117.71,12,Ebany Saucedo,Friona,105.51,129.27,47.63,113.4,290.3,Single-ply,SBD,F
Girls,117.71,13,Kirston Burns,Childress,111.67,122.47,47.63,115.67,285.76,Single-ply,SBD,F
Girls,117.71+,1,Mikala Arizmendi,Dimmitt,136.71,249.48,90.72,181.44,521.63,Single-ply,SBD,F
Girls,117.71+,2,Jaden Wilson,Forsan,124.01,122.47,54.43,115.67,292.57,Single-ply,SBD,F
Girls,117.71+,3,Shaianne Gonzales,Ballinger,143.15,104.33,63.5,111.13,278.96,Single-ply,SBD,F
Girls,117.71+,4,Toni Munoz,Forsan,148.78,113.4,56.7,97.52,267.62,Single-ply,SBD,F
Girls,117.71+,5,Marina Dehoyos,Ballinger,131.81,58.97,31.75,63.5,154.22,Single-ply,SBD,F
