Division,WeightClassKg,Place,Name,Team,BodyweightKg,Best3SquatKg,Best3BenchKg,Best3DeadliftKg,TotalKg,Equipment,Event,Sex
Girls,44.23,1,Phoebe Gale,Lago Vista,40.28,56.7,29.48,81.65,167.83,Single-ply,SBD,F
Girls,44.23,2,Kylee Rutledge,Lampasas,41.1,49.9,27.22,61.23,138.35,Single-ply,SBD,F
Girls,44.23,DQ,Alyssa Collinsworth,Lago Vista,43,,,,,Single-ply,SBD,F
Girls,47.85,1,Blaine Gluck,Stephenville,45.99,120.2,54.43,120.2,294.84,Single-ply,SBD,F
Girls,47.85,2,Zhynese Finley,Bangs,47.17,83.91,43.09,106.59,233.6,Single-ply,SBD,F
Girls,47.85,3,Marina Kingery,Llano,45.63,83.91,43.09,86.18,213.19,Single-ply,SBD,F
Girls,47.85,4,Reigh Neudorf,Llano,46.54,83.91,38.56,88.45,210.92,Single-ply,SBD,F
Girls,47.85,5,Jordyn Pitts,Bangs,47.36,70.31,38.56,92.99,201.85,Single-ply,SBD,F
Girls,47.85,6,Anna Rickles,Lampasas,47.81,72.57,43.09,86.18,201.85,Single-ply,SBD,F
Girls,47.85,7,Diandra Tejada,Stephenville,47.81,70.31,31.75,92.99,195.04,Single-ply,SBD,F
Girls,47.85,8,Savanna Simerly,Lometa,46.36,72.57,38.56,77.11,188.24,Single-ply,SBD,F
Girls,47.85,9,Alexis Gustavsen,Hico,46.54,68.04,36.29,83.91,188.24,Single-ply,SBD,F
Girls,47.85,10,Kimberly Diaz,Bangs,47.81,72.57,34.02,70.31,176.9,Single-ply,SBD,F
Girls,47.85,11,Christina Dobbertin,Lampasas,47.54,52.16,29.48,58.97,140.61,Single-ply,SBD,F
Girls,47.85,DQ,Tasha San Migel,Rockdale,45.54,74.84,,,,Single-ply,SBD,F
Girls,51.94,1,Alyssa Ayers,Lampasas,51.17,122.47,81.65,133.81,337.93,Single-ply,SBD,F
Girls,51.94,2,Jesenia Navarro,Rockdale,50.44,95.25,40.82,95.25,231.33,Single-ply,SBD,F
Girls,51.94,3,Brianna Miller,Lampasas,51.89,77.11,47.63,95.25,219.99,Single-ply,SBD,F
Girls,51.94,4,Angelina Cummins,Lampasas,50.98,72.57,38.56,70.31,181.44,Single-ply,SBD,F
Girls,51.94,5,Ethni Sanchez,Lampasas,48.99,61.23,31.75,83.91,176.9,Single-ply,SBD,F
Girls,51.94,6,Sami Thompson,Lometa,51.53,56.7,34.02,65.77,156.49,Single-ply,SBD,F
Girls,56.02,1,Skylar Stefka,Lago Vista,55.97,136.08,58.97,117.93,312.98,Single-ply,SBD,F
Girls,56.02,2,Brooke Gauthier,Lago Vista,55.34,102.06,52.16,106.59,260.82,Single-ply,SBD,F
Girls,56.02,3,Chloe Coats,Stephenville,55.43,106.59,43.09,97.52,247.21,Single-ply,SBD,F
Girls,56.02,4,Cloe Montague,Bangs,54.07,86.18,36.29,102.06,224.53,Single-ply,SBD,F
Girls,56.02,5,Libbi Showman,Lampasas,54.7,79.38,52.16,90.72,222.26,Single-ply,SBD,F
Girls,56.02,6,Maci Jones,Lampasas,55.34,79.38,38.56,95.25,213.19,Single-ply,SBD,F
Girls,56.02,7,Alyis Wright,Llano,53.34,74.84,34.02,79.38,188.24,Single-ply,SBD,F
Girls,56.02,8,Kaylan Rucker,Lampasas,53.07,74.84,29.48,81.65,185.97,Single-ply,SBD,F
Girls,60.1,1,Monica Garza,Lampasas,60.06,117.93,61.23,124.74,303.91,Single-ply,SBD,F
Girls,60.1,2,Aliyah Galvan,Bangs,57.61,106.59,70.31,124.74,301.64,Single-ply,SBD,F
Girls,60.1,3,Nikayla Waller,Lometa,56.79,102.06,56.7,127.01,285.76,Single-ply,SBD,F
Girls,60.1,4,Ariawna Burt,Stephenville,58.88,102.06,54.43,111.13,267.62,Single-ply,SBD,F
Girls,60.1,5,Brianna Lewellen,Lampasas,56.34,65.77,31.75,74.84,172.37,Single-ply,SBD,F
Girls,67.36,1,Victoria Martinez,Lampasas,65.68,142.88,77.11,140.61,360.61,Single-ply,SBD,F
Girls,67.36,2,Autumn Montelongo,Rockdale,64.86,124.74,58.97,127.01,310.71,Single-ply,SBD,F
Girls,67.36,3,McKenzie Hughes,Bangs,61.14,106.59,45.36,124.74,276.69,Single-ply,SBD,F
Girls,67.36,4,Hailey Tindell,Burnet,66.68,111.13,56.7,102.06,269.89,Single-ply,SBD,F
Girls,67.36,5,Stacey Bastardo,Brownwood,67.31,90.72,61.23,113.4,265.35,Single-ply,SBD,F
Girls,67.36,6,Selena Balderas,Bangs,66.77,106.59,40.82,104.33,251.74,Single-ply,SBD,F
Girls,67.36,7,Jessica Leija,Stephenville,62.23,106.59,47.63,92.99,247.21,Single-ply,SBD,F
Girls,67.36,8,Gerizim Alvarez,Lampasas,64.95,83.91,47.63,92.99,224.53,Single-ply,SBD,F
Girls,67.36,9,Kate Kenisky,Fredericksburg,61.14,79.38,43.09,90.72,213.19,Single-ply,SBD,F
Girls,67.36,10,Kirstyn Reyes,Burnet,63.59,68.04,34.02,97.52,199.58,Single-ply,SBD,F
Girls,67.36,11,Hannah Wood,Llano,64.77,52.16,40.82,52.16,145.15,Single-ply,SBD,F
Girls,67.36,12,Lillian Warren,Lago Vista,62.96,47.63,24.95,61.23,133.81,Single-ply,SBD,F
Girls,67.36,DQ,Victoria Fincannon,Hico,64.14,,,,,Single-ply,SBD,F
Girls,67.36,DQ,Natalie Denoso,Lampasas,63.73,,,,,Single-ply,SBD,F
Girls,67.36,DQ,Harlee Quintero,Burnet,66.32,104.33,,,,Single-ply,SBD,F
Girls,75.07,1,Dasha Gildon,Lago Vista,72.67,163.29,58.97,142.88,365.14,Single-ply,SBD,F
Girls,75.07,2,Hannah Phelps,Hico,73.48,136.08,74.84,129.27,340.19,Single-ply,SBD,F
Girls,75.07,3,Mikayla Whitus,Burnet,71.4,117.93,74.84,117.93,310.71,Single-ply,SBD,F
Girls,75.07,4,Whitley Boyd,Rockdale,71.76,111.13,68.04,124.74,303.91,Single-ply,SBD,F
Girls,75.07,5,Kendall Wenzel,Llano,74.93,127.01,61.23,115.67,303.91,Single-ply,SBD,F
Girls,75.07,6,Rebekah Pearce,Lampasas,71.76,104.33,49.9,108.86,263.08,Single-ply,SBD,F
Girls,75.07,7,Yasmine Ancira,Lago Vista,71.49,99.79,43.09,111.13,254.01,Single-ply,SBD,F
Girls,75.07,8,Esmaralda Alonso,Stephenville,75.02,106.59,34.02,106.59,247.21,Single-ply,SBD,F
Girls,75.07,9,Bailey Jacoby,Fredericksburg,71.03,92.99,47.63,104.33,244.94,Single-ply,SBD,F
Girls,75.07,10,Hattie Alexander,Marble Falls,70.49,92.99,38.56,90.72,222.26,Single-ply,SBD,F
Girls,75.07,11,Monica Lopez-Ulloa,Lago Vista,71.67,90.72,36.29,92.99,219.99,Single-ply,SBD,F
Girls,75.07,12,Zoie Acker,Hico,70.31,70.31,47.63,88.45,206.38,Single-ply,SBD,F
Girls,82.33,1,Cydney Morgan,Hico,80.47,156.49,72.57,145.15,374.21,Single-ply,SBD,F
Girls,82.33,2,Kara Spence,Llano,77.84,149.69,72.57,149.69,371.95,Single-ply,SBD,F
Girls,82.33,3,Elizabeth Sebera,Fredericksburg,78.47,136.08,83.91,140.61,360.61,Single-ply,SBD,F
Girls,82.33,4,Kenzie Mayes,Stephenville,75.39,113.4,63.5,106.59,283.5,Single-ply,SBD,F
Girls,82.33,5,Sidney Reyes,Burnet,79.56,102.06,56.7,120.2,278.96,Single-ply,SBD,F
Girls,82.33,6,Valentina Morua,Lampasas,78.2,99.79,56.7,108.86,265.35,Single-ply,SBD,F
Girls,82.33,7,Rylea Whitus,Burnet,79.74,92.99,74.84,92.99,260.82,Single-ply,SBD,F
Girls,82.33,8,Daniella Torres,Burnet,77.2,99.79,47.63,92.99,240.4,Single-ply,SBD,F
Girls,82.33,9,Haven Jimenez,Rockdale,79.29,92.99,45.36,102.06,240.4,Single-ply,SBD,F
Girls,82.33,10,Madison Kajs,Lampasas,81.28,104.33,38.56,95.25,238.14,Single-ply,SBD,F
Girls,82.33,11,Anais Lazos,Marble Falls,76.84,88.45,38.56,108.86,235.87,Single-ply,SBD,F
Girls,82.33,12,Abigail Pierce,Burnet,79.83,81.65,49.9,95.25,226.8,Single-ply,SBD,F
Girls,82.33,13,Teagan Tappe,Burnet,79.2,97.52,43.09,83.91,224.53,Single-ply,SBD,F
Girls,82.33,14,Lisbett Bousart,Rockdale,80.47,92.99,43.09,72.57,208.65,Single-ply,SBD,F
Girls,82.33,15,Selina Harding,Lago Vista,80.83,72.57,40.82,86.18,199.58,Single-ply,SBD,F
Girls,90.04,1,Jessica Ebeling,Stephenville,87.54,174.63,86.18,140.61,401.43,Single-ply,SBD,F
Girls,90.04,2,Mallory Gunter,Stephenville,82.74,133.81,88.45,124.74,347,Single-ply,SBD,F
Girls,90.04,3,Aubreyanne Ziegler,Stephenville,89.99,138.35,58.97,145.15,342.46,Single-ply,SBD,F
Girls,90.04,4,Hailey Reiss,Lampasas,87.27,129.27,68.04,124.74,322.05,Single-ply,SBD,F
Girls,90.04,5,Mari Sanchez,Hico,89.72,113.4,47.63,113.4,274.42,Single-ply,SBD,F
Girls,90.04,6,Kaitlyn Keener,Lampasas,89.81,74.84,45.36,102.06,222.26,Single-ply,SBD,F
Girls,90.04,DQ,Jollie Mays,Stephenville,87.09,115.67,,,,Single-ply,SBD,F
Girls,100.02,1,Alyssa Preston,Brownwood,94.89,138.35,92.99,129.27,360.61,Single-ply,SBD,F
Girls,100.02,2,Carlie Groves,Lampasas,98.61,117.93,54.43,129.27,301.64,Single-ply,SBD,F
Girls,100.02,3,Shumara Finley,Bangs,97.52,104.33,56.7,95.25,256.28,Single-ply,SBD,F
Girls,100.02,4,Lluvia Loredo,Burnet,90.63,102.06,52.16,95.25,249.48,Single-ply,SBD,F
Girls,100.02,5,Sarah Bowden,Lampasas,92.08,92.99,43.09,104.33,240.4,Single-ply,SBD,F
Girls,100.02,6,Veronica Ordaz-Carter,Burnet,95.44,79.38,61.23,95.25,235.87,Single-ply,SBD,F
Girls,100.02,7,Jasmine Romero,Bangs,91.44,97.52,43.09,90.72,231.33,Single-ply,SBD,F
Girls,117.71,1,Courtney Reina,Llano,109.86,158.76,92.99,147.42,399.16,Single-ply,SBD,F
Girls,117.71,2,Norma Hernandez,Stephenville,100.06,142.88,68.04,127.01,337.93,Single-ply,SBD,F
Girls,117.71,3,Cally Reding,Lampasas,106.78,124.74,86.18,120.2,331.12,Single-ply,SBD,F
Girls,117.71,4,Cheyenne LeBlanc,Lago Vista,108.86,149.69,45.36,136.08,331.12,Single-ply,SBD,F
Girls,117.71,5,Brooklann Mullins,Bangs,112.85,117.93,52.16,102.06,272.16,Single-ply,SBD,F
Girls,117.71,6,Lila Walling,Lampasas,106.68,102.06,52.16,108.86,263.08,Single-ply,SBD,F
Girls,117.71,7,Michelle Medina,Lago Vista,109.32,102.06,45.36,102.06,249.48,Single-ply,SBD,F
Girls,117.71+,1,Daisia Bell,Snook,156.13,192.78,113.4,147.42,453.59,Single-ply,SBD,F
Girls,,NS,Kendal Hampton,Marble Falls,,,,,,Single-ply,SBD,F
