Division,WeightClassKg,Place,Name,Team,BodyweightKg,Best3SquatKg,Best3BenchKg,Best3DeadliftKg,TotalKg,Equipment,Event,Sex
Boys,51.71,1,Tyler Crank,San Antonio East Central,48.63,95.25,58.97,106.59,260.82,Single-ply,SBD,M
Boys,51.71,2,Ritchie Nevarez,Uvalde,45.99,81.65,45.36,106.59,233.6,Single-ply,SBD,M
Boys,55.79,DQ,Sawyer Yandell,Natalia,55.79,,,,,Single-ply,SBD,M
Boys,55.79,DQ,Mauricio Galarza,San Antonio East Central,55.79,,,,,Single-ply,SBD,M
Boys,59.87,1,Jeffrey Johnson,Seguin,57.79,131.54,79.38,167.83,378.75,Single-ply,SBD,M
Boys,59.87,2,Mario Cano,Pleasanton,59.42,136.08,72.57,161.03,369.68,Single-ply,SBD,M
Boys,59.87,3,Zach Truillo,Universal City Randolph,56.7,127.01,70.31,142.88,340.19,Single-ply,SBD,M
Boys,59.87,4,Miguel Rivera,Universal City Randolph,59.87,115.67,65.77,136.08,317.51,Single-ply,SBD,M
Boys,74.84,1,Michael Davis,San Antonio East Central,67.31,183.7,106.59,195.04,485.34,Single-ply,SBD,M
Boys,67.13,2,Elvis Benitez,San Antonio East Central,63.32,183.7,104.33,165.56,453.59,Single-ply,SBD,M
Boys,67.13,3,Justin Hartman,Universal City Randolph,61.96,163.29,83.91,145.15,392.36,Single-ply,SBD,M
Boys,67.13,4,Angel Gonzales,Uvalde,65.23,149.69,70.31,158.76,378.75,Single-ply,SBD,M
Boys,67.13,5,Tyler Gould,Pleasanton,63.68,142.88,74.84,140.61,358.34,Single-ply,SBD,M
Boys,67.13,6,Jacob Jones,Universal City Randolph,66.77,129.27,74.84,138.35,342.46,Single-ply,SBD,M
Boys,67.13,7,Andres Rodriguez,Castroville Medina Valley,61.14,102.06,56.7,102.06,260.82,Single-ply,SBD,M
Boys,67.13,DQ,Joe Bustos,San Antonio East Central,67.13,,,,,Single-ply,SBD,M
Boys,67.13,DQ,Garrett Williams,San Antonio East Central,65.95,,,,,Single-ply,SBD,M
Boys,74.84,1,Matt Ritch,San Antonio East Central,72.12,210.92,127.01,190.51,528.44,Single-ply,SBD,M
Boys,74.84,2,Trey Washington,Universal City Randolph,70.49,165.56,111.13,215.46,492.15,Single-ply,SBD,M
Boys,74.84,3,Austin Gonzales,San Antonio Southside,71.58,176.9,124.74,181.44,483.08,Single-ply,SBD,M
Boys,74.84,4,Noel Gonzales,Uvalde,72.21,176.9,97.52,147.42,421.84,Single-ply,SBD,M
Boys,74.84,5,Alonzo Barclift,Universal City Randolph,72.12,142.88,97.52,172.37,412.77,Single-ply,SBD,M
Boys,74.84,6,Miguel Cano,Pleasanton,73.57,158.76,90.72,161.03,410.5,Single-ply,SBD,M
Boys,74.84,7,Mark Hernandez,Natalia,72.03,131.54,88.45,133.81,353.8,Single-ply,SBD,M
Boys,74.84,8,Joey Vasquez,San Antonio Southside,69.22,124.74,63.5,145.15,333.39,Single-ply,SBD,M
Boys,74.84,9,Robert Rodriguez,Castroville Medina Valley,71.94,124.74,61.23,142.88,328.85,Single-ply,SBD,M
Boys,74.84,10,Chase Todd,Castroville Medina Valley,68.49,83.91,63.5,129.27,276.69,Single-ply,SBD,M
Boys,74.84,DQ,Hans Torres,Bandera,74.84,,,,,Single-ply,SBD,M
Boys,74.84,DQ,Dustin Toscano,San Antonio East Central,73.12,213.19,124.74,,,Single-ply,SBD,M
Boys,82.1,1,Jacob Ritch,San Antonio East Central,82.01,247.21,167.83,222.26,637.3,Single-ply,SBD,M
Boys,82.1,2,John Hernandez,San Antonio Southside,79.29,210.92,111.13,219.99,542.04,Single-ply,SBD,M
Boys,82.1,3,Javier Garcia,Seguin,81.37,195.04,115.67,226.8,537.51,Single-ply,SBD,M
Boys,82.1,4,Jacob Gonzales,San Antonio East Central,81.19,219.99,117.93,195.04,532.97,Single-ply,SBD,M
Boys,82.1,5,Carlos Zepeda,Seguin,79.92,176.9,136.08,204.12,517.1,Single-ply,SBD,M
Boys,82.1,6,Freddie Larry,Universal City Randolph,79.92,183.7,97.52,172.37,453.59,Single-ply,SBD,M
Boys,82.1,7,Brenner Haby,Castroville Medina Valley,76.75,136.08,95.25,170.1,401.43,Single-ply,SBD,M
Boys,82.1,8,Rigo Hernandez,Uvalde,78.11,131.54,77.11,149.69,358.34,Single-ply,SBD,M
Boys,82.1,9,Noah Nelson,Bandera,79.56,129.27,65.77,120.2,315.25,Single-ply,SBD,M
Boys,82.1,10,James Martinez,Castroville Medina Valley,78.93,83.91,74.84,133.81,292.57,Single-ply,SBD,M
Boys,82.1,DQ,Daniel Lee-Heneke,San Antonio Southside,82.1,,,,,Single-ply,SBD,M
Boys,82.1,DQ,Omar Guadarrama,San Antonio Southside,80.01,210.92,,,,Single-ply,SBD,M
Boys,82.1,DQ,Matt Marrs,Bandera,77.38,233.6,,,,Single-ply,SBD,M
Boys,89.81,1,Richard Pena,San Antonio Southside,88.81,254.01,170.1,231.33,655.44,Single-ply,SBD,M
Boys,89.81,2,Cole Thompson,Universal City Randolph,88.72,206.38,117.93,206.38,530.7,Single-ply,SBD,M
Boys,89.81,3,Jacob Rivera,San Antonio Southside,89.36,204.12,111.13,192.78,508.02,Single-ply,SBD,M
Boys,89.81,4,Ryan Farrell,Universal City Randolph,83.28,181.44,102.06,185.97,469.47,Single-ply,SBD,M
Boys,89.81,5,Julian Validinos,Bandera,86.73,165.56,108.86,181.44,455.86,Single-ply,SBD,M
Boys,89.81,6,Nick Andreas,Bandera,83.55,156.49,97.52,181.44,435.45,Single-ply,SBD,M
Boys,89.81,7,Matthew Georg,Seguin,85.73,151.95,88.45,181.44,421.84,Single-ply,SBD,M
Boys,89.81,8,José Pérez,Uvalde,84.01,167.83,79.38,136.08,383.29,Single-ply,SBD,M
Boys,89.81,9,Lance Huerta,Natalia,86.18,142.88,83.91,156.49,383.29,Single-ply,SBD,M
Boys,89.81,10,Isaac Robles #3,Castroville Medina Valley,87.72,102.06,104.33,104.33,310.71,Single-ply,SBD,M
Boys,89.81,11,Albert Romo,Castroville Medina Valley,82.37,113.4,77.11,113.4,303.91,Single-ply,SBD,M
Boys,89.81,DQ,Adolph Lopez,San Antonio Southside,86.91,,,,,Single-ply,SBD,M
Boys,89.81,DQ,Justin Laque,Castroville Medina Valley,89.81,,,,,Single-ply,SBD,M
Boys,99.79,DQ,Jeremy Chamberlain,San Antonio East Central,89.9,235.87,,,,Single-ply,SBD,M
Boys,99.79,1,Santos Dominguez,San Antonio East Central,95.35,288.03,161.03,258.55,707.6,Single-ply,SBD,M
Boys,99.79,2,Henry Vasquez,San Antonio East Central,96.25,263.08,136.08,219.99,619.15,Single-ply,SBD,M
Boys,99.79,3,Joe Hernandez,San Antonio East Central,97.07,244.94,133.81,219.99,598.74,Single-ply,SBD,M
Boys,99.79,4,Jacob Almaguer,Seguin,92.17,226.8,124.74,224.53,576.06,Single-ply,SBD,M
Boys,99.79,5,Juan Landa,Castroville Medina Valley,96.34,222.26,111.13,174.63,508.02,Single-ply,SBD,M
Boys,99.79,6,Nick Ringler,Universal City Randolph,98.7,181.44,117.93,192.78,492.15,Single-ply,SBD,M
Boys,99.79,7,Travis Smith,Seguin,93.98,163.29,133.81,190.51,487.61,Single-ply,SBD,M
Boys,109.77,8,Jason Van Epps,Pleasanton,99.97,201.85,92.99,192.78,487.61,Single-ply,SBD,M
Boys,99.79,9,Frank Hernandez,Pleasanton,99.7,183.7,111.13,183.7,478.54,Single-ply,SBD,M
Boys,99.79,10,Sam Jones,Universal City Randolph,90.81,172.37,81.65,199.58,453.59,Single-ply,SBD,M
Boys,99.79,11,Micah Jones,Universal City Randolph,91.26,154.22,104.33,170.1,428.64,Single-ply,SBD,M
Boys,99.79,12,Josh Hicks,Castroville Medina Valley,93.08,170.1,111.13,142.88,424.11,Single-ply,SBD,M
Boys,99.79,13,Kyle Wilson,Bandera,98.88,142.88,83.91,161.03,387.82,Single-ply,SBD,M
Boys,99.79,DQ,Gavin Snider,Castroville Medina Valley,99.79,,,,,Single-ply,SBD,M
Boys,99.79,DQ,Izzy Hays,Bandera,99.06,179.17,115.67,,,Single-ply,SBD,M
Boys,109.77,1,Chris McCumber,San Antonio East Central,108.41,281.23,172.37,233.6,687.19,Single-ply,SBD,M
Boys,109.77,2,Daniel Diaz,Three Rivers,103.51,238.14,142.88,208.65,589.67,Single-ply,SBD,M
Boys,109.77,3,Danny DeLeon,San Antonio East Central,106.05,249.48,120.2,208.65,578.33,Single-ply,SBD,M
Boys,109.77,4,Bryce Dowda,Bandera,108.86,190.51,136.08,199.58,526.17,Single-ply,SBD,M
Boys,109.77,5,Dustin Phelps,Universal City Randolph,100.61,195.04,106.59,204.12,505.76,Single-ply,SBD,M
Boys,109.77,6,D'Antre Smith,Seguin,108.14,183.7,124.74,190.51,498.95,Single-ply,SBD,M
Boys,109.77,7,Tyler Pharris,Universal City Randolph,100.06,167.83,113.4,172.37,453.59,Single-ply,SBD,M
Boys,109.77,8,Lucas Taulli,Bandera,103.51,174.63,90.72,185.97,451.32,Single-ply,SBD,M
Boys,109.77,9,Bj Carranza,Uvalde,109.41,163.29,90.72,165.56,419.57,Single-ply,SBD,M
Boys,109.77,10,Ivan Hernandez,Uvalde,106.5,163.29,92.99,156.49,412.77,Single-ply,SBD,M
Boys,109.77,11,Reuben Duron,San Antonio East Central,108.05,154.22,72.57,154.22,381.02,Single-ply,SBD,M
Boys,109.77,DQ,MacNeal Price,San Antonio East Central,109.77,,,,,Single-ply,SBD,M
Boys,109.77,DQ,Rivonte Chizer,Seguin,109.13,226.8,,,,Single-ply,SBD,M
Boys,124.74,1,Eddie Lopez,San Antonio East Central,118.39,278.96,170.1,247.21,696.26,Single-ply,SBD,M
Boys,124.74,2,Raul Loza,Natalia,120.47,272.16,124.74,208.65,605.55,Single-ply,SBD,M
Boys,124.74,3,Alejandro Maldonado,Uvalde,112.76,260.82,117.93,217.72,596.47,Single-ply,SBD,M
Boys,124.74,4,Kalead Schuler,Seguin,112.4,206.38,113.4,163.29,483.08,Single-ply,SBD,M
Boys,124.74,5,Jose Alaniz,Natalia,110.31,170.1,90.72,192.78,453.59,Single-ply,SBD,M
Boys,124.74,6,Juan Flores,Castroville Medina Valley,112.49,165.56,108.86,172.37,446.79,Single-ply,SBD,M
Boys,124.74,DQ,Jacob Guerra,San Antonio Southside,116.94,,,,,Single-ply,SBD,M
Boys,124.74,DQ,Hunter Ullrich,Seguin,113.49,,,,,Single-ply,SBD,M
Boys,124.74,DQ,Emilio Sanchez,San Antonio East Central,118.57,158.76,99.79,,,Single-ply,SBD,M
Boys,124.74,DQ,Robert Ramos,San Antonio Southside,123.2,226.8,,,,Single-ply,SBD,M
Boys,124.74+,1,Mark Alarcon,San Antonio East Central,134.17,285.76,183.7,235.87,705.34,Single-ply,SBD,M
Boys,124.74+,2,Carlos Trevino,Seguin,126.46,249.48,163.29,226.8,639.57,Single-ply,SBD,M
Boys,124.74+,3,Kyle Oden,Uvalde,157.12,235.87,124.74,231.33,591.94,Single-ply,SBD,M
Boys,124.74+,4,Jesus Angel,Pleasanton,135.99,226.8,131.54,213.19,571.53,Single-ply,SBD,M
Boys,124.74+,5,Drew Kirkpatrick,Uvalde,133.63,224.53,122.47,206.38,553.38,Single-ply,SBD,M
Boys,124.74+,6,Kaleb Quintanilla,Seguin,125.65,181.44,133.81,172.37,487.61,Single-ply,SBD,M
Boys,124.74+,DQ,Michael Reyes,Natalia,136.08,,,,,Single-ply,SBD,M
Boys,124.74+,DQ,Andrew Tercek,San Antonio East Central,125.19,258.55,161.03,,,Single-ply,SBD,M
