Place,Name,BodyweightKg,Best3SquatKg,Best3BenchKg,Best3DeadliftKg,TotalKg,WeightClassKg,Sex,CyrillicName,BirthYear,Event,Equipment,Division
1,Ivan Kantov,52.6,165,90,170,425,53,M,Іван Кантов,1991,SBD,Single-ply,Juniors
2,Igor Kolisnyk,52.45,117.5,82.5,150,350,53,M,Ігор Колісник,1991,SBD,Single-ply,Juniors
1,Oleg Yasenetskyy,58.85,230,150,205,585,59,M,Олег Ясенецький,1991,SBD,Single-ply,Juniors
2,Oleksiy Glushenkov,58.8,210,142.5,210,562.5,59,M,Олексій Глушенков,1992,SBD,Single-ply,Juniors
3,Bogdan Vakarev,58.9,220,130,190,540,59,M,Богдан Вакарєв,1990,SBD,Single-ply,Juniors
4,Ruslan Belozer,59,150,80,150,380,59,M,Руслан Белозер,1994,SBD,Single-ply,Juniors
1,Oleksandr Borodatyy,65.15,250,155,247.5,652.5,66,M,Олександр Бородатий,1994,SBD,Single-ply,Juniors
2,Artem Luchnikov,65.15,235,165,237.5,637.5,66,M,Артем Лучников,1990,SBD,Single-ply,Juniors
3,Ruslan Koryaka,63.4,245,150,230,625,66,M,Руслан Коряка,1990,SBD,Single-ply,Juniors
4,Denys Tupakhin,64.9,225,157.5,202.5,585,66,M,Денис Тупахін,1994,SBD,Single-ply,Juniors
5,Oleksiy Tarasenko,61.4,235,135,210,580,66,M,Олексій Тарасенко,1994,SBD,Single-ply,Juniors
1,Oleksandr Narizhnyuk,73.65,290,167.5,252.5,710,74,M,Олександр Нарижнюк,1990,SBD,Single-ply,Juniors
2,Oleksandr Makhov,73.3,270,162.5,270,702.5,74,M,Олександр Махов,1990,SBD,Single-ply,Juniors
3,Vitaliy Grygorov,72.9,250,180,265,695,74,M,Віталій Григоров,1990,SBD,Single-ply,Juniors
4,Yaroslav Khovalkin,73,290,155,247.5,692.5,74,M,Ярослав Ховалкін,1994,SBD,Single-ply,Juniors
5,Dmytro Gaynulin,71.6,275,152.5,255,682.5,74,M,Дмитро Гайнулін,1992,SBD,Single-ply,Juniors
6,Artem Shinkaruk,73.35,250,185,245,680,74,M,Артем Шинкарук,1991,SBD,Single-ply,Juniors
7,Stanislav Budayev,73.75,262.5,167.5,250,680,74,M,Станіслав Будаєв,1992,SBD,Single-ply,Juniors
8,Sergiy Ignatyuk,73.8,250,150,250,650,74,M,Сергій Ігнатюк,1993,SBD,Single-ply,Juniors
9,Vitaliy Kolomiets,73.25,230,140,250,620,74,M,Віталій Коломієць,1992,SBD,Single-ply,Juniors
10,Oleksandr Anyschenko,73.25,212.5,145,232.5,590,74,M,Олександр Анищенко,1991,SBD,Single-ply,Juniors
DQ,Mykola Dudin,73.8,,,,,74,M,Микола Дудін,1991,SBD,Single-ply,Juniors
1,Artem Panteleyev,81,325,212.5,295,832.5,83,M,Артем Пантелєєв,1992,SBD,Single-ply,Juniors
2,Roman Martynenko,81.25,322.5,245,265,832.5,83,M,Роман Мартиненко,1990,SBD,Single-ply,Juniors
3,Myroslav Kurylyuk,82.4,295,200,310,805,83,M,Мирослав Курилюк,1990,SBD,Single-ply,Juniors
4,Oleksandr Alekseyenko,81.65,275,197.5,280,752.5,83,M,Олександр Алексєєнко,1990,SBD,Single-ply,Juniors
5,Ivan Korol,82.85,285,205,235,725,83,M,Іван Король,1993,SBD,Single-ply,Juniors
6,Volodymyr Binda,82.15,292.5,160,250,702.5,83,M,Володимир Бинда,1990,SBD,Single-ply,Juniors
7,Artem Kalita,82.3,270,165,250,685,83,M,Артем Калита,1992,SBD,Single-ply,Juniors
8,Ivan Posenko,81.6,270,162.5,240,672.5,83,M,Іван Посенко,1991,SBD,Single-ply,Juniors
9,Oleg Polischuk,82.3,245,182.5,240,667.5,83,M,Олег Поліщук,1991,SBD,Single-ply,Juniors
10,Oleksandr Mogylka,81.8,235,190,205,630,83,M,Олександр Могилка,1993,SBD,Single-ply,Juniors
11,Artem Tsygankov,80.6,240,130,245,615,83,M,Артем Циганков,1991,SBD,Single-ply,Juniors
12,Vadym Bilyk,82.1,250,142.5,220,612.5,83,M,Вадим Білик,1994,SBD,Single-ply,Juniors
1,Dmitro Pavlenko,92.4,360,207.5,302.5,870,93,M,Дмитро Павленко,1992,SBD,Single-ply,Juniors
2,Anton Pravnik,90.6,322.5,230,315,867.5,93,M,Антон Правник,1991,SBD,Single-ply,Juniors
3,Yuriy Grytsan,93,340,210,292.5,842.5,93,M,Юрій Грицан,1991,SBD,Single-ply,Juniors
4,Viktor Kunyk,92.65,320,200,320,840,93,M,Віктор Куник,1990,SBD,Single-ply,Juniors
5,Viktor Leskovets,92.7,310,225,280,815,93,M,Віктор Лесковець,1990,SBD,Single-ply,Juniors
6,Mykyta Skobelev,89.5,310,210,280,800,93,M,Микита Скобелєв,1994,SBD,Single-ply,Juniors
7,Denis Kozlov,92.35,297.5,175,300,772.5,93,M,Денис Козлов,1990,SBD,Single-ply,Juniors
8,Oleksandr Slyusar,92.6,310,155,300,765,93,M,Олександр Слюсар,1990,SBD,Single-ply,Juniors
9,Gennadiy Semenov,87.4,285,180,265,730,93,M,Геннадий Семенов,1992,SBD,Single-ply,Juniors
10,Bogdan Semko,91.6,280,180,230,690,93,M,Богдан Семко,1993,SBD,Single-ply,Juniors
11,Yuriy Rybko,91.35,260,170,250,680,93,M,Юрій Рибко,1990,SBD,Single-ply,Juniors
12,Bogdan Petelka,90.3,260,155,260,675,93,M,Богдан Петелька,1992,SBD,Single-ply,Juniors
13,Igor Lambrozo,90.75,270,167.5,235,672.5,93,M,Ігор Ламброзо,1992,SBD,Single-ply,Juniors
14,Mykola Arsenyuk,92,240,167.5,260,667.5,93,M,Микола Арсенюк,1993,SBD,Single-ply,Juniors
15,Andriy Filippov,88.9,277.5,150,215,642.5,93,M,Андрій Філіппов,1991,SBD,Single-ply,Juniors
DQ,Yevgen Zakalyuzhnyy,92.95,270,,,,93,M,Євген Закалюжний,1990,SBD,Single-ply,Juniors
1,Vitaliy Boyko,104.05,312.5,217.5,317.5,847.5,105,M,Виталий Бойко,1990,SBD,Single-ply,Juniors
2,Artem Yakushenko,103.95,305,207.5,320,832.5,105,M,Артем Якушенко,1990,SBD,Single-ply,Juniors
3,Bogdan Nizhnik,99.4,297.5,205,287.5,790,105,M,Богдан Нижник,1992,SBD,Single-ply,Juniors
4,Bogdan Pryymak,103.65,300,207.5,275,782.5,105,M,Богдан Приймак,1991,SBD,Single-ply,Juniors
5,Valentin Burmistrov,102.9,310,180,282.5,772.5,105,M,Валентин Бурмістров,1990,SBD,Single-ply,Juniors
6,Igor Adamchuk,104.1,315,195,260,770,105,M,Ігор Адамчук,1993,SBD,Single-ply,Juniors
7,Oleksiy Sydorov,100.4,260,160,270,690,105,M,Олексій Сидоров,1990,SBD,Single-ply,Juniors
8,Viktor Grischenko,95.95,275,155,255,685,105,M,Віктор Грищенко,1991,SBD,Single-ply,Juniors
DQ,Bogdan Vlasov,101.5,,,,,105,M,Богдан Власов,1992,SBD,Single-ply,Juniors
DQ,Oleksiy Panyok,102.95,265,,,,105,M,Олексій Паньок,,SBD,Single-ply,Juniors
DQ,Yevgen Vasilyev,103.35,,,,,105,M,Євген Васильєв,1993,SBD,Single-ply,Juniors
1,Mykhaylo Potapenko,119.4,350,260,310,920,120,M,Михайло Потапенко,1991,SBD,Single-ply,Juniors
2,Oleksandr Yaryta,113.3,240,152.5,232.5,625,120,M,Олександр Ярита,1994,SBD,Single-ply,Juniors
1,Igor Lotnik,120.45,290,210,277.5,777.5,120+,M,Ігор Лотнік,1990,SBD,Single-ply,Juniors
2,Igor Kazakov,127.2,302.5,212.5,262.5,777.5,120+,M,Ігор Казаков,1990,SBD,Single-ply,Juniors
3,Andriy Bezvushko,126.1,270,175,200,645,120+,M,Андрій Безвушко,1994,SBD,Single-ply,Juniors
1,Yuliya Chepelyuk,42.75,80,50,80,210,43,F,Юлія Чепелюк,1994,SBD,Single-ply,Juniors
1,Violeta Chebotar,45.85,135,77.5,117.5,330,47,F,Віолета Чеботар,1994,SBD,Single-ply,Juniors
2,Lyudmyla Bakal,46.75,107.5,75,102.5,285,47,F,Людмила Бакал,1994,SBD,Single-ply,Juniors
3,Maryana Kolyadenko,46.75,110,57.5,102.5,270,47,F,Мар'яна Коляденко,1991,SBD,Single-ply,Juniors
DQ,Khrystyna Bulana,45.6,97.5,,,,47,F,Христина Булана,1990,SBD,Single-ply,Juniors
1,Iryna Khlebodarova,51.45,155,87.5,150,392.5,52,F,Ірина Хлєбодарова,1990,SBD,Single-ply,Juniors
2,Yelizaveta Ryzhak,49.5,140,95,130,365,52,F,Єлізавета Рижак,1990,SBD,Single-ply,Juniors
3,Iryna Kurilova,49.9,102.5,47.5,107.5,257.5,52,F,Ірина Курілова,1991,SBD,Single-ply,Juniors
4,Alena Nadeevets,51.5,107.5,52.5,92.5,252.5,52,F,Альона Надеєвець,1992,SBD,Single-ply,Juniors
1,Varvara Khrystova,56.95,172.5,92.5,165,430,57,F,Варвара Христова,1990,SBD,Single-ply,Juniors
2,Natalya Malynovska,56.55,160,85,150,395,57,F,Наталя Малиновська,1993,SBD,Single-ply,Juniors
3,Natalya Piznyak,55.9,145,80,140,365,57,F,Наталя Пізняк,1992,SBD,Single-ply,Juniors
4,Alina Martynova,56.3,130,60,112.5,302.5,57,F,Аліна Мартинова,1994,SBD,Single-ply,Juniors
1,Vira Boboshko,61.95,170,102.5,165,437.5,63,F,Віра Бобошко,1993,SBD,Single-ply,Juniors
2,Anastasiya Zorina,59.7,165,90,150,405,63,F,Анастасія Зоріна,1992,SBD,Single-ply,Juniors
3,Anna Ryabka,60.7,120,60,122.5,302.5,63,F,Анна Рябка,1994,SBD,Single-ply,Juniors
4,Yuliya Skytska,62.4,120,60,122.5,302.5,63,F,Юлія Скицька,1991,SBD,Single-ply,Juniors
1,Inga Rozka,69,107.5,52.5,105,265,72,F,Інга Розка,1993,SBD,Single-ply,Juniors
