Place,Name,Sex,Event,Division,WeightClassKg,Equipment,BirthYear,State,BodyweightKg,Squat1Kg,Squat2Kg,Squat3Kg,Best3SquatKg,Bench1Kg,Bench2Kg,Bench3Kg,Best3BenchKg,Deadlift1Kg,Deadlift2Kg,Deadlift3Kg,Best3DeadliftKg,TotalKg,Age,BirthDate
1,Kayda Lopez,F,SBD,FR-T1,43,Raw,2003,WI,41,62.5,65,67.5,67.5,27.5,-30,-30,27.5,80,87.5,92.5,92.5,187.5,,
2,Carmen Hernandez,F,SBD,FR-T1,43,Raw,2003,WI,34.29,-45,-52.5,52.5,52.5,25,27.5,-30,27.5,77.5,85,95,95,175,,
1,Kera Minigh,F,SBD,FR-T1,47,Raw,2004,WI,43.3,65,75,87.5,87.5,32.5,-37.5,37.5,37.5,80,87.5,-100,87.5,212.5,,
2,Emma Forst,F,SBD,FR-T1,47,Raw,2004,WI,46.7,70,77.5,-82.5,77.5,40,-47.5,-47.5,40,75,82.5,-95,82.5,200,,
3,Emily Michalzik,F,SBD,FR-T1,47,Raw,2004,WI,46.4,45,52.5,57.5,57.5,25,27.5,-30,27.5,90,97.5,102.5,102.5,187.5,,
4,Anna Anderson,F,SBD,FR-T1,47,Raw,2003,WI,43.5,57.5,60,65,65,37.5,-40,-40,37.5,-67.5,67.5,72.5,72.5,175,,
1,Morgyn Hallum,F,SBD,FR-T1,52,Raw,2004,WI,51.4,85,87.5,92.5,92.5,42.5,45,47.5,47.5,110,-112.5,115,115,255,,
2,Rebecca Vanhoof,F,SBD,FR-T1,52,Raw,2004,WI,51.3,62.5,67.5,72.5,72.5,35,40,-42.5,40,92.5,95,100,100,212.5,,
3,Mercedes Hay,F,SBD,FR-T1,52,Raw,2004,WI,50.8,62.5,67.5,-70,67.5,35,-37.5,37.5,37.5,85,92.5,100,100,205,,
4,Madelynn Dutzle,F,SBD,FR-T1,52,Raw,2004,WI,51.9,70,75,-77.5,75,30,32.5,-35,32.5,87.5,-92.5,-92.5,87.5,195,,
DQ,Rylee Ladd,F,SBD,FR-T1,52,Raw,2004,WI,51.9,-65,-67.5,-67.5,,37.5,-40,-42.5,37.5,-100,102.5,-110,102.5,,,
1,Abby Jensen,F,SBD,FR-T1,57,Raw,2003,WI,55,102.5,110,115,115,42.5,50,-55,50,102.5,110,117.5,117.5,282.5,,
2,Ashley Stigler,F,SBD,FR-T1,57,Raw,2003,WI,55.4,85,95,-102.5,95,42.5,47.5,50,50,102.5,-115,115,115,260,,
3,Abby Jennerman,F,SBD,FR-T1,57,Raw,2004,WI,54.8,92.5,-102.5,-102.5,92.5,40,45,-47.5,45,105,-115,115,115,252.5,,
4,Skylar Zwiefelhofer,F,SBD,FR-T1,57,Raw,2003,WI,54.2,72.5,77.5,82.5,82.5,35,37.5,-40,37.5,90,-110,110,110,230,,
5,Isabella Harmer,F,SBD,FR-T1,57,Raw,2003,WI,55.6,-65,65,70,70,40,42.5,-47.5,42.5,-115,115,-125,115,227.5,,
6,Karly Porter,F,SBD,FR-T1,57,Raw,2003,WI,55,67.5,70,72.5,72.5,35,-37.5,-40,35,97.5,102.5,-105,102.5,210,,
7,Arizona Scharpf,F,SBD,FR-T1,57,Raw,2003,WI,55.9,67.5,75,-82.5,75,35,-37.5,-40,35,85,-95,95,95,205,,
8,Olivia Freiberg,F,SBD,FR-T1,57,Raw,2004,WI,56.1,62.5,-70,-75,62.5,32.5,37.5,42.5,42.5,82.5,90,97.5,97.5,202.5,,
1,Calley Olson,F,SBD,FR-T1,63,Raw,2004,WI,59.7,-92.5,92.5,-97.5,92.5,52.5,55,-57.5,55,137.5,145,150,150,297.5,,
2,Anna Strand,F,SBD,FR-T1,63,Raw,2004,WI,58.3,85,90,95,95,52.5,57.5,60,60,115,122.5,125,125,280,,
3,Alyson Fleming,F,SBD,FR-T1,63,Raw,2003,WI,60.8,85,92.5,102.5,102.5,45,47.5,52.5,52.5,-122.5,-122.5,122.5,122.5,277.5,,
4,Dyllan Powers,F,SBD,FR-T1,63,Raw,2004,WI,57.9,65,70,-75,70,45,47.5,50,50,107.5,115,120,120,240,,
5,Marista Fraley,F,SBD,FR-T1,63,Raw,2005,WI,61.1,-82.5,82.5,-87.5,82.5,45,-47.5,-47.5,45,105,107.5,-120,107.5,235,,
6,Ashley Patterson,F,SBD,FR-T1,63,Raw,2003,WI,58.7,70,77.5,-82.5,77.5,35,-40,-40,35,112.5,115,-117.5,115,227.5,,
7,Tavyn Jones,F,SBD,FR-T1,63,Raw,2003,WI,59.8,77.5,80,-82.5,80,35,37.5,40,40,90,-100,-100,90,210,,
1,Bailey Schlough,F,SBD,FR-T1,72,Raw,2003,WI,64.5,105,-110,-112.5,105,60,62.5,65,65,120,127.5,-140,127.5,297.5,,
2,Emily Brown,F,SBD,FR-T1,72,Raw,2004,WI,71.3,85,-97.5,102.5,102.5,52.5,57.5,-62.5,57.5,112.5,127.5,-137.5,127.5,287.5,,
3,Megan Waller,F,SBD,FR-T1,72,Raw,2003,WI,66,105,-107.5,-107.5,105,45,-50,-50,45,-112.5,112.5,-120,112.5,262.5,,
4,Mara Mulligan,F,SBD,FR-T1,72,Raw,2004,WI,64.2,75,80,-87.5,80,42.5,50,-55,50,107.5,115,122.5,122.5,252.5,,
1,Elizabeth Dimick,F,SBD,FR-T1,84,Raw,2003,WI,83.4,112.5,117.5,-122.5,117.5,52.5,55,57.5,57.5,127.5,135,140,140,315,,
2,Brianna Martin,F,SBD,FR-T1,84,Raw,2004,WI,73,92.5,97.5,-100,97.5,47.5,50,52.5,52.5,132.5,137.5,-142.5,137.5,287.5,,
3,Aria Fischer,F,SBD,FR-T1,84,Raw,2003,WI,75.7,72.5,90,102.5,102.5,45,47.5,-50,47.5,110,125,135,135,285,,
4,Marianna Chavez,F,SBD,FR-T1,84,Raw,2004,WI,83.9,90,100,107.5,107.5,45,50,52.5,52.5,97.5,107.5,117.5,117.5,277.5,,
5,Lailah John,F,SBD,FR-T1,84,Raw,2003,WI,81.3,92.5,100,-110,100,37.5,45,-50,45,120,130,-135,130,275,,
6,Caitlyn Keyes,F,SBD,FR-T1,84,Raw,2003,WI,75.3,92.5,100,-105,100,42.5,-47.5,47.5,47.5,102.5,117.5,-125,117.5,265,,
7,Mika Trottier,F,SBD,FR-T1,84,Raw,2004,WI,82.1,92.5,95,102.5,102.5,42.5,47.5,50,50,102.5,107.5,-115,107.5,260,,
8,Anika Brown,F,SBD,FR-T1,84,Raw,2003,WI,77.3,87.5,95,100,100,-42.5,-50,50,50,92.5,102.5,-112.5,102.5,252.5,,
9,Madilyn Bergh,F,SBD,FR-T1,84,Raw,2003,WI,78,92.5,97.5,-100,97.5,47.5,-50,-50,47.5,102.5,107.5,-120,107.5,252.5,,
10,Elizabeth Anderson,F,SBD,FR-T1,84,Raw,2004,WI,81.3,90,95,100,100,37.5,40,-45,40,100,107.5,-120,107.5,247.5,,
11,Sabin Steinhoff,F,SBD,FR-T1,84,Raw,2004,WI,76.8,85,-90,-90,85,40,-42.5,-42.5,40,107.5,115,-120,115,240,,
12,Mariah Palmer,F,SBD,FR-T1,84,Raw,2004,WI,75.2,82.5,85,-90,85,35,37.5,40,40,102.5,107.5,-127.5,107.5,232.5,,
13,Evelyn White,F,SBD,FR-T1,84,Raw,2003,WI,80,82.5,85,-87.5,85,35,37.5,40,40,102.5,105,107.5,107.5,232.5,,
DQ,Sydney Burgess,F,SBD,FR-T1,84,Raw,2004,WI,77.1,-97.5,-100,-100,,42.5,47.5,-55,47.5,97.5,102.5,110,110,,,
1,Alisa Tetzlaff,F,SBD,FR-T1,84+,Raw,2003,WI,107,142.5,150,-155,150,72.5,75,-80,75,147.5,160,165,165,390,,
2,Chloe Cooper,F,SBD,FR-T1,84+,Raw,2004,WI,89,130,140,142.5,142.5,57.5,62.5,-67.5,62.5,135,145,-157.5,145,350,,
3,Madison Engstrand,F,SBD,FR-T1,84+,Raw,2003,WI,101.4,102.5,107.5,112.5,112.5,47.5,52.5,-55,52.5,130,137.5,147.5,147.5,312.5,,
4,Mya Phillips,F,SBD,FR-T1,84+,Raw,2004,WI,103.5,110,115,120,120,42.5,-47.5,47.5,47.5,125,130,140,140,307.5,,
5,Marissa Loomis,F,SBD,FR-T1,84+,Raw,2003,WI,113.5,110,115,-117.5,115,45,-50,-50,45,120,-125,125,125,285,,
6,Cassidy Flintrop,F,SBD,FR-T1,84+,Raw,2003,WI,87.5,92.5,97.5,102.5,102.5,42.5,-47.5,47.5,47.5,125,130,-137.5,130,280,,
7,Liz Trams,F,SBD,FR-T1,84+,Raw,2004,WI,113.2,85,95,105,105,47.5,52.5,57.5,57.5,117.5,-127.5,-132.5,117.5,280,,
8,Sidni Hanna-Stokes,F,SBD,FR-T1,84+,Raw,2003,WI,92.9,82.5,105,-115,105,47.5,-52.5,-52.5,47.5,110,122.5,-142.5,122.5,275,,
9,Ashton Davis,F,SBD,FR-T1,84+,Raw,2003,WI,89.4,97.5,102.5,-107.5,102.5,40,42.5,-45,42.5,97.5,102.5,110,110,255,,
1,Jessica Mohan,F,SBD,FR-T2,47,Raw,2001,WI,47,67.5,75,77.5,77.5,40,45,47.5,47.5,82.5,90,95,95,220,,
2,Nanya Kue,F,SBD,FR-T2,47,Raw,2003,WI,46.3,52.5,57.5,-60,57.5,32.5,35,-37.5,35,90,95,-100,95,187.5,,
3,Gina Sfasciotti,F,SBD,FR-T2,47,Raw,2002,WI,45.9,60,65,-70,65,30,-32.5,32.5,32.5,77.5,80,85,85,182.5,,
4,Madelyn Leavitt,F,SBD,FR-T2,47,Raw,2003,WI,43.3,47.5,52.5,-57.5,52.5,27.5,30,-32.5,30,62.5,67.5,70,70,152.5,,
1,Vanessa Laundrie,F,SBD,FR-T2,52,Raw,2001,WI,52,92.5,95,100,100,40,45,47.5,47.5,102.5,105,107.5,107.5,255,,
2,Olivia Tomasi,F,SBD,FR-T2,52,Raw,2001,WI,49.85,82.5,90,-92.5,90,40,-45,45,45,105,-112.5,112.5,112.5,247.5,,
3,Maria Horvath,F,SBD,FR-T2,52,Raw,2002,WI,52,-85,85,-87.5,85,37.5,42.5,-45,42.5,95,100,107.5,107.5,235,,
4,Clare Hallum,F,SBD,FR-T2,52,Raw,2002,WI,49.8,72.5,80,-82.5,80,37.5,40,-42.5,40,92.5,100,102.5,102.5,222.5,,
5,Michaela Kramolis,F,SBD,FR-T2,52,Raw,2001,WI,50.6,65,75,-85,75,37.5,40,42.5,42.5,90,100,105,105,222.5,,
6,Laylue Kue,F,SBD,FR-T2,52,Raw,2001,WI,47.1,65,70,75,75,32.5,35,37.5,37.5,97.5,102.5,-110,102.5,215,,
7,Emma Gillespie,F,SBD,FR-T2,52,Raw,2002,WI,49.35,65,70,-75,70,32.5,35,-37.5,35,100,105,110,110,215,,
8,Peyton Meyers,F,SBD,FR-T2,52,Raw,2001,WI,51.2,70,75,-77.5,75,30,35,-37.5,35,100,105,-107.5,105,215,,
9,Hannah Halkowski,F,SBD,FR-T2,52,Raw,2002,WI,49.9,67.5,-70,70,70,32.5,-35,-35,32.5,95,-100,-100,95,197.5,,
10,Izabella Goland,F,SBD,FR-T2,52,Raw,2001,WI,49,65,72.5,-77.5,72.5,37.5,-40,-40,37.5,80,85,-90,85,195,,
11,Roshani Patel,F,SBD,FR-T2,52,Raw,2002,WI,50.5,55,-60,62.5,62.5,35,37.5,-40,37.5,92.5,-100,-100,92.5,192.5,,
DQ,Sophie Koronkowski,F,SBD,FR-T2,52,Raw,2003,WI,50.5,-75,-75,-75,,-40,-40,-40,,-82.5,-82.5,-82.5,,,,
DQ,Eliana Fall,F,SBD,FR-T2,52,Raw,2002,WI,51,70,72.5,75,75,-35,-35,-35,,85,90,-95,90,,,
1,Mari Stafslien,F,SBD,FR-T2,57,Raw,2002,WI,55.3,92.5,97.5,-102.5,97.5,52.5,55,-57.5,55,117.5,127.5,-132.5,127.5,280,,
2,Kaycee Schultz,F,SBD,FR-T2,57,Raw,2002,WI,56.6,82.5,90,95,95,37.5,40,-42.5,40,115,125,-130,125,260,,
3,Jesi Burds,F,SBD,FR-T2,57,Raw,2001,WI,56,-90,92.5,-100,92.5,40,45,-47.5,45,105,112.5,117.5,117.5,255,,
4,Zoey Heimmermann,F,SBD,FR-T2,57,Raw,2002,WI,53.7,85,-92.5,95,95,42.5,45,-50,45,97.5,105,110,110,250,,
5,Ashton Miller,F,SBD,FR-T2,57,Raw,2002,WI,54.9,85,90,92.5,92.5,45,-47.5,50,50,97.5,102.5,-105,102.5,245,,
6,Janelle Wolter,F,SBD,FR-T2,57,Raw,2002,WI,55.3,87.5,-92.5,92.5,92.5,42.5,47.5,-50,47.5,95,105,-112.5,105,245,,
7,Mattison Worsley,F,SBD,FR-T2,57,Raw,2001,WI,55.4,82.5,-87.5,-90,82.5,45,47.5,-50,47.5,115,-125,-130,115,245,,
8,Kyla Kubera,F,SBD,FR-T2,57,Raw,2003,WI,54.3,77.5,82.5,87.5,87.5,37.5,42.5,45,45,92.5,100,-107.5,100,232.5,,
9,Jayda Heilig,F,SBD,FR-T2,57,Raw,2003,WI,54.9,77.5,-85,-85,77.5,47.5,50,52.5,52.5,97.5,102.5,-107.5,102.5,232.5,,
10,Brynn Zwiefelhofer,F,SBD,FR-T2,57,Raw,2001,WI,55.5,70,-75,-80,70,32.5,37.5,40,40,107.5,120,-125,120,230,,
11,Autumn Hunter,F,SBD,FR-T2,57,Raw,2002,WI,53.8,62.5,-72.5,75,75,37.5,42.5,-47.5,42.5,87.5,102.5,107.5,107.5,225,,
12,Alyssa Rink,F,SBD,FR-T2,57,Raw,2002,WI,54.5,82.5,87.5,-95,87.5,40,45,-47.5,45,92.5,-100,-110,92.5,225,,
13,Maya Carviou,F,SBD,FR-T2,57,Raw,2002,WI,56.2,65,67.5,72.5,72.5,32.5,37.5,40,40,92.5,-110,-112.5,92.5,205,,
14,Anastasia Angelo,F,SBD,FR-T2,57,Raw,2001,WI,55.7,72.5,-80,-80,72.5,27.5,32.5,-40,32.5,97.5,-110,-117.5,97.5,202.5,,
15,Samantha Tealey,F,SBD,FR-T2,57,Raw,2003,WI,54.2,-67.5,-67.5,67.5,67.5,35,37.5,-40,37.5,92.5,-97.5,-97.5,92.5,197.5,,
1,Jordan Braund,F,SBD,FR-T2,63,Raw,2002,WI,61.9,115,127.5,-132.5,127.5,62.5,-70,-70,62.5,137.5,150,-152.5,150,340,,
2,Olivia Pappadopoulos,F,SBD,FR-T2,63,Raw,2001,WI,61.2,97.5,105,-107.5,105,57.5,62.5,-65,62.5,137.5,-150,-150,137.5,305,,
3,Megan Wesolek,F,SBD,FR-T2,63,Raw,2001,WI,58.7,-105,107.5,112.5,112.5,52.5,55,57.5,57.5,107.5,115,122.5,122.5,292.5,,
4,Anna Sackett,F,SBD,FR-T2,63,Raw,2001,WI,61.5,95,105,-112.5,105,55,62.5,-67.5,62.5,110,117.5,-122.5,117.5,285,,
5,Jamie Regnier,F,SBD,FR-T2,63,Raw,2001,WI,61.6,90,97.5,105,105,50,55,-57.5,55,107.5,117.5,-122.5,117.5,277.5,,
6,Anastasia McCourt,F,SBD,FR-T2,63,Raw,2001,WI,57.8,85,92.5,97.5,97.5,45,50,-55,50,112.5,122.5,-127.5,122.5,270,,
7,Taylor Jernell,F,SBD,FR-T2,63,Raw,2002,WI,61.7,-97.5,102.5,105,105,37.5,42.5,-45,42.5,102.5,115,-122.5,115,262.5,,
8,Miranda Swaziek,F,SBD,FR-T2,63,Raw,2001,WI,59.8,80,82.5,87.5,87.5,40,42.5,-45,42.5,105,112.5,120,120,250,,
9,Emily Freagon,F,SBD,FR-T2,63,Raw,2002,WI,59.4,75,80,85,85,42.5,45,-47.5,45,95,115,-117.5,115,245,,
10,Allyson Wolf,F,SBD,FR-T2,63,Raw,2002,WI,59.6,77.5,-85,85,85,40,45,-50,45,102.5,115,-117.5,115,245,,
11,Bailey Gilbertson,F,SBD,FR-T2,63,Raw,2003,WI,57.5,85,-90,-90,85,32.5,35,-37.5,35,115,-117.5,120,120,240,,
12,Maggie Amundson,F,SBD,FR-T2,63,Raw,2002,WI,57.8,-87.5,90,-100,90,42.5,45,-50,45,102.5,-112.5,-115,102.5,237.5,,
13,Lexi Kaczmarski,F,SBD,FR-T2,63,Raw,2003,WI,57.4,67.5,70,-75,70,37.5,40,42.5,42.5,97.5,100,102.5,102.5,215,,
14,Isabelle Varga,F,SBD,FR-T2,63,Raw,2001,WI,59.3,82.5,-90,-90,82.5,32.5,37.5,-40,37.5,87.5,95,-107.5,95,215,,
1,Elena Marquez,F,SBD,FR-T2,72,Raw,2001,WI,67.1,127.5,132.5,-137.5,132.5,55,57.5,-60,57.5,127.5,135,137.5,137.5,327.5,,
2,Abagayle Kasper,F,SBD,FR-T2,72,Raw,2001,WI,70.9,92.5,97.5,102.5,102.5,55,60,-62.5,60,142.5,152.5,160,160,322.5,,
3,Sarah Loether,F,SBD,FR-T2,72,Raw,2001,WI,65.9,85,100,102.5,102.5,52.5,-60,60,60,137.5,142.5,152.5,152.5,315,,
4,Skyler Ross,F,SBD,FR-T2,72,Raw,2001,WI,71.4,102.5,107.5,-115,107.5,50,55,-60,55,132.5,145,-162.5,145,307.5,,
5,Hannah Jensen,F,SBD,FR-T2,72,Raw,2001,WI,64.9,-107.5,107.5,-112.5,107.5,52.5,-55,-55,52.5,135,142.5,-145,142.5,302.5,,
6,Taylor Borchardt,F,SBD,FR-T2,72,Raw,2001,WI,65.9,100,110,115,115,42.5,47.5,-52.5,47.5,117.5,127.5,137.5,137.5,300,,
7,Amanda Nickolai,F,SBD,FR-T2,72,Raw,2002,WI,70,100,-110,-110,100,52.5,57.5,-62.5,57.5,125,135,-140,135,292.5,,
8,Elizabeth Meyer,F,SBD,FR-T2,72,Raw,2002,WI,64.5,-92.5,95,100,100,42.5,-47.5,47.5,47.5,125,132.5,137.5,137.5,285,,
9,Amanda Sahm,F,SBD,FR-T2,72,Raw,2001,WI,70.4,-105,105,-110,105,50,52.5,-55,52.5,115,125,-137.5,125,282.5,,
10,Helena Wehrs,F,SBD,FR-T2,72,Raw,2001,WI,65.4,92.5,-97.5,97.5,97.5,47.5,-52.5,-52.5,47.5,125,130,132.5,132.5,277.5,,
11,Alexis Snider,F,SBD,FR-T2,72,Raw,2001,WI,64.8,85,92.5,100,100,40,45,-50,45,115,127.5,-135,127.5,272.5,,
12,Elly Bjork,F,SBD,FR-T2,72,Raw,2001,WI,70.3,80,-85,85,85,47.5,52.5,57.5,57.5,117.5,122.5,127.5,127.5,270,,
13,Larissa Fossum,F,SBD,FR-T2,72,Raw,2002,WI,71.5,92.5,-97.5,-97.5,92.5,47.5,50,52.5,52.5,125,-132.5,-132.5,125,270,,
14,Danielle Wagner,F,SBD,FR-T2,72,Raw,2002,WI,64.2,100,-105,105,105,42.5,45,-50,45,107.5,112.5,117.5,117.5,267.5,,
15,Taylor Van De Hey,F,SBD,FR-T2,72,Raw,2002,WI,64.6,87.5,95,100,100,42.5,47.5,-50,47.5,120,-125,-127.5,120,267.5,,
16,Jacey Davis,F,SBD,FR-T2,72,Raw,2001,WI,65.8,87.5,95,102.5,102.5,47.5,-52.5,-52.5,47.5,110,117.5,-120,117.5,267.5,,
17,Madilyn Koerner,F,SBD,FR-T2,72,Raw,2001,WI,65.1,90,100,-107.5,100,52.5,-57.5,-57.5,52.5,105,110,112.5,112.5,265,,
18,Alyse Egan,F,SBD,FR-T2,72,Raw,2002,WI,66.6,87.5,95,-100,95,47.5,50,-52.5,50,120,-127.5,-127.5,120,265,,
19,Sara Clavette,F,SBD,FR-T2,72,Raw,2002,WI,64.1,87.5,97.5,105,105,40,-47.5,-50,40,100,107.5,117.5,117.5,262.5,,
20,Eva-Maria Antoni,F,SBD,FR-T2,72,Raw,2002,WI,69.4,80,90,-92.5,90,47.5,50,52.5,52.5,110,120,-130,120,262.5,,
21,Sofie Kailow,F,SBD,FR-T2,72,Raw,2001,WI,64.5,-92.5,92.5,-95,92.5,45,47.5,50,50,117.5,-120,-122.5,117.5,260,,
22,Samantha Morgen,F,SBD,FR-T2,72,Raw,2002,WI,69.2,85,-92.5,92.5,92.5,-40,40,42.5,42.5,125,-132.5,-132.5,125,260,,
23,Julia Grabowski,F,SBD,FR-T2,72,Raw,2001,WI,66.2,87.5,95,100,100,37.5,40,-42.5,40,110,115,-122.5,115,255,,
24,Kenlee Mathews,F,SBD,FR-T2,72,Raw,2002,WI,64.8,85,90,92.5,92.5,40,-45,-45,40,105,112.5,-122.5,112.5,245,,
25,Abigale Modesette,F,SBD,FR-T2,72,Raw,2001,WI,64.3,87.5,92.5,100,100,40,45,-50,45,85,-92.5,92.5,92.5,237.5,,
1,Stella Lobacz,F,SBD,FR-T2,84,Raw,2002,WI,81,155,162.5,-167.5,162.5,55,-60,60,60,165,172.5,180,180,402.5,,
2,Julia Murphy,F,SBD,FR-T2,84,Raw,2001,WI,79.9,142.5,-155,155,155,65,72.5,75,75,157.5,-162.5,170,170,400,,
3,Somer Nolte,F,SBD,FR-T2,84,Raw,2002,WI,75,127.5,137.5,-142.5,137.5,70,72.5,75,75,130,137.5,150,150,362.5,,
4,Brianne Wilson,F,SBD,FR-T2,84,Raw,2002,WI,76.1,125,135,147.5,147.5,57.5,62.5,65,65,112.5,120,-125,120,332.5,,
5,Orianna Horel,F,SBD,FR-T2,84,Raw,2001,WI,80.8,102.5,107.5,120,120,47.5,50,-52.5,50,137.5,-142.5,-142.5,137.5,307.5,,
6,Virginia McMillan,F,SBD,FR-T2,84,Raw,2001,WI,80.9,110,-117.5,117.5,117.5,52.5,57.5,62.5,62.5,107.5,117.5,-130,117.5,297.5,,
7,Alana Feser,F,SBD,FR-T2,84,Raw,2001,WI,79,100,110,-115,110,50,55,-60,55,112.5,130,-137.5,130,295,,
8,Sierra Smith,F,SBD,FR-T2,84,Raw,2003,WI,74.1,85,95,-105,95,47.5,50,55,55,122.5,132.5,137.5,137.5,287.5,,
9,Carrie Lefeber,F,SBD,FR-T2,84,Raw,2001,WI,77.1,95,100,105,105,37.5,40,-42.5,40,127.5,135,-140,135,280,,
10,Macie Schlegel,F,SBD,FR-T2,84,Raw,2002,WI,72.6,87.5,-97.5,97.5,97.5,40,45,47.5,47.5,117.5,125,130,130,275,,
11,Violet Plante,F,SBD,FR-T2,84,Raw,2001,WI,72.9,97.5,-102.5,102.5,102.5,37.5,40,-42.5,40,117.5,125,132.5,132.5,275,,
12,Hannah Felker,F,SBD,FR-T2,84,Raw,2001,WI,75.3,90,-105,-107.5,90,50,57.5,-60,57.5,102.5,127.5,-137.5,127.5,275,,
13,Nadia Meyerhofer,F,SBD,FR-T2,84,Raw,2001,WI,78,62.5,72.5,87.5,87.5,52.5,62.5,-65,62.5,107.5,122.5,125,125,275,,
14,Katherine Donovan,F,SBD,FR-T2,84,Raw,2001,WI,74.1,92.5,95,100,100,37.5,40,42.5,42.5,120,125,127.5,127.5,270,,
15,Paige Dvorak,F,SBD,FR-T2,84,Raw,2001,WI,80.5,107.5,-120,-120,107.5,47.5,-52.5,-52.5,47.5,115,-125,-127.5,115,270,,
16,Annabelle Wittrock,F,SBD,FR-T2,84,Raw,2002,WI,75.8,-85,85,-95,85,42.5,-45,45,45,110,117.5,127.5,127.5,257.5,,
17,Lydia Vanderheyden,F,SBD,FR-T2,84,Raw,2002,WI,77,80,87.5,92.5,92.5,47.5,-52.5,-52.5,47.5,97.5,107.5,-117.5,107.5,247.5,,
18,Audrey Ahlness,F,SBD,FR-T2,84,Raw,2001,WI,75.2,85,-87.5,-90,85,40,42.5,-45,42.5,110,117.5,-127.5,117.5,245,,
DQ,Emma Scott,F,SBD,FR-T2,84,Raw,2002,WI,81.1,92.5,-100,-100,92.5,-60,-60,-60,,-117.5,-117.5,-117.5,,,,
1,Sydney Krueger,F,SBD,FR-T2,84+,Raw,2002,WI,88.3,137.5,152.5,-167.5,152.5,60,65,-70,65,152.5,170,-182.5,170,387.5,,
2,Ariana Guerra,F,SBD,FR-T2,84+,Raw,2002,WI,117.6,147.5,152.5,-160,152.5,-62.5,62.5,-67.5,62.5,150,160,-165,160,375,,
3,Elvecia Najera,F,SBD,FR-T2,84+,Raw,2001,WI,130.6,130,-137.5,137.5,137.5,62.5,67.5,-70,67.5,147.5,157.5,-162.5,157.5,362.5,,
4,Coryn Davidson,F,SBD,FR-T2,84+,Raw,2001,WI,106.9,122.5,-135,135,135,57.5,60,-65,60,157.5,165,-195,165,360,,
5,Hailey Schwobe,F,SBD,FR-T2,84+,Raw,2002,WI,101.3,110,120,135,135,50,55,-62.5,55,137.5,150,-167.5,150,340,,
6,Alexis Lee,F,SBD,FR-T2,84+,Raw,2001,WI,108.6,130,135,140,140,55,-60,-60,55,140,145,-150,145,340,,
7,Sydney Regan,F,SBD,FR-T2,84+,Raw,2002,WI,109.4,-137.5,137.5,-147.5,137.5,57.5,60,-65,60,142.5,-150,-150,142.5,340,,
8,Natalie Phebus,F,SBD,FR-T2,84+,Raw,2001,WI,95.1,112.5,122.5,127.5,127.5,55,62.5,65,65,135,140,-145,140,332.5,,
9,Alexa Kuhn,F,SBD,FR-T2,84+,Raw,2002,WI,103.7,117.5,130,-137.5,130,57.5,-60,60,60,122.5,132.5,142.5,142.5,332.5,,
10,Olivia Kempfer,F,SBD,FR-T2,84+,Raw,2001,WI,109.5,102.5,112.5,120,120,45,50,52.5,52.5,120,122.5,132.5,132.5,305,,
11,Christina Scurto,F,SBD,FR-T2,84+,Raw,2002,WI,100.7,105,115,-130,115,60,65,67.5,67.5,-120,120,-130,120,302.5,,
12,Jenna Morris,F,SBD,FR-T2,84+,Raw,2003,WI,118.6,105,110,112.5,112.5,52.5,55,-57.5,55,127.5,132.5,135,135,302.5,,
13,Hope Jepson,F,SBD,FR-T2,84+,Raw,2002,WI,95,92.5,102.5,115,115,50,55,-60,55,107.5,-127.5,127.5,127.5,297.5,,
14,Alexandra Powell,F,SBD,FR-T2,84+,Raw,2001,WI,85.6,-102.5,102.5,112.5,112.5,57.5,-62.5,-62.5,57.5,115,-125,125,125,295,,
15,Adara Johnson,F,SBD,FR-T2,84+,Raw,2003,WI,126.2,100,107.5,-112.5,107.5,55,60,-62.5,60,105,112.5,117.5,117.5,285,,
16,Sydney Herrick,F,SBD,FR-T2,84+,Raw,2002,WI,113,102.5,-112.5,-112.5,102.5,45,50,52.5,52.5,115,122.5,127.5,127.5,282.5,,
17,Ava Rozumalski,F,SBD,FR-T2,84+,Raw,2002,WI,107.4,95,-100,100,100,55,62.5,65,65,102.5,107.5,115,115,280,,
18,Zoe Winchell,F,SBD,FR-T2,84+,Raw,2002,WI,117.9,100,107.5,-112.5,107.5,45,50,-52.5,50,112.5,-117.5,-117.5,112.5,270,,
19,Faith Jepson,F,SBD,FR-T2,84+,Raw,2002,WI,97.2,97.5,110,-120,110,42.5,47.5,-50,47.5,107.5,-127.5,-127.5,107.5,265,,
20,Rebecca Heiden,F,SBD,FR-T2,84+,Raw,2001,WI,96.8,85,95,97.5,97.5,45,50,-52.5,50,112.5,-122.5,-132.5,112.5,260,,
1,Ariel Moris,F,SBD,FR-T3,57,Raw,2001,WI,55.4,97.5,107.5,-112.5,107.5,57.5,62.5,-65,62.5,110,117.5,125,125,295,,
2,Rachel Nelson,F,SBD,FR-T3,57,Raw,2001,WI,55.4,72.5,-80,80,80,42.5,-47.5,-47.5,42.5,107.5,115,122.5,122.5,245,,
3,Katie Rothbauer,F,SBD,FR-T3,57,Raw,2001,WI,54.6,62.5,-65,65,65,37.5,-40,40,40,92.5,110,-125,110,215,,
4,Baylea Wilk,F,SBD,FR-T3,57,Raw,2000,WI,55.1,70,75,-80,75,32.5,35,-37.5,35,-102.5,-102.5,102.5,102.5,212.5,,
1,Payton Hanselman,F,SBD,FR-T3,63,Raw,2001,WI,59.3,115,122.5,-127.5,122.5,57.5,62.5,67.5,67.5,130,137.5,145,145,335,,
2,Morgan Butterfield,F,SBD,FR-T3,63,Raw,2000,WI,58.2,80,85,-90,85,47.5,50,-52.5,50,110,-122.5,122.5,122.5,257.5,,
3,Sabrina Calotescu,F,SBD,FR-T3,63,Raw,2000,WI,59.7,-97.5,97.5,100,100,37.5,40,-42.5,40,102.5,-107.5,107.5,107.5,247.5,,
4,Cynthia Feuerhammer,F,SBD,FR-T3,63,Raw,2001,WI,60.1,87.5,92.5,100,100,37.5,40,42.5,42.5,97.5,102.5,-115,102.5,245,,
1,Kaylee Patnode,F,SBD,FR-T3,72,Raw,2000,WI,66,-112.5,-112.5,112.5,112.5,47.5,52.5,55,55,127.5,135,-145,135,302.5,,
2,Aurora Waite,F,SBD,FR-T3,72,Raw,2000,WI,66.2,110,115,-120,115,47.5,52.5,-55,52.5,125,-137.5,-145,125,292.5,,
3,Hannah Cynor,F,SBD,FR-T3,72,Raw,2000,WI,65,90,95,-100,95,50,52.5,-55,52.5,125,-135,-135,125,272.5,,
4,Claire Moll,F,SBD,FR-T3,72,Raw,2001,WI,65.1,97.5,100,-105,100,52.5,57.5,-60,57.5,100,102.5,107.5,107.5,265,,
5,Aliya Brown,F,SBD,FR-T3,72,Raw,1999,WI,65.1,92.5,97.5,-107.5,97.5,55,-57.5,57.5,57.5,90,105,-107.5,105,260,,
6,Anna Hoerning,F,SBD,FR-T3,72,Raw,2000,WI,69.6,-82.5,82.5,-85,82.5,40,42.5,-47.5,42.5,125,132.5,-137.5,132.5,257.5,,
1,Brenna Zuehlke,F,SBD,FR-T3,84,Raw,2000,WI,73.7,120,130,135,135,62.5,65,67.5,67.5,135,147.5,-160,147.5,350,,
2,Hannah Caron,F,SBD,FR-T3,84,Raw,2000,WI,81.6,100,105,107.5,107.5,55,60,62.5,62.5,137.5,145,-152.5,145,315,,
3,Ella Monahan,F,SBD,FR-T3,84,Raw,2001,WI,75.3,102.5,107.5,112.5,112.5,47.5,52.5,-55,52.5,127.5,-142.5,142.5,142.5,307.5,,
4,DeAnna Leon,F,SBD,FR-T3,84,Raw,2000,WI,84,107.5,112.5,117.5,117.5,50,52.5,55,55,125,132.5,-140,132.5,305,,
5,Chloe Peterson,F,SBD,FR-T3,84,Raw,2000,WI,73.6,102.5,-107.5,107.5,107.5,47.5,50,-52.5,50,125,137.5,-140,137.5,295,,
6,Sydney Thomas,F,SBD,FR-T3,84,Raw,2000,WI,82,82.5,95,100,100,42.5,47.5,52.5,52.5,100,117.5,-127.5,117.5,270,,
7,Kaitlyn Wilson,F,SBD,FR-T3,84,Raw,2000,WI,73.3,82.5,90,-100,90,45,47.5,50,50,120,127.5,-130,127.5,267.5,,
DQ,Karissa Molina,F,SBD,FR-T3,84,Raw,2001,WI,76,-92.5,-92.5,-92.5,,32.5,-37.5,-37.5,32.5,102.5,107.5,-122.5,107.5,,,
1,Hailee Markey,F,SBD,FR-T3,84+,Raw,2000,WI,125.3,162.5,170,172.5,172.5,77.5,85,-95,85,170,185,192.5,192.5,450,,
2,Sophia Zakhar,F,SBD,FR-T3,84+,Raw,2000,WI,90,-142.5,142.5,147.5,147.5,60,65,70,70,132.5,140,145,145,362.5,,
3,Abbigayle Herman,F,SBD,FR-T3,84+,Raw,2000,WI,103.9,120,-130,130,130,57.5,62.5,65,65,137.5,147.5,-152.5,147.5,342.5,,
4,Evelyn Parrott,F,SBD,FR-T3,84+,Raw,2000,WI,87.9,-117.5,117.5,120,120,55,57.5,-60,57.5,-120,120,125,125,302.5,,
5,Hannah Chart,F,SBD,FR-T3,84+,Raw,2001,WI,120.7,122.5,127.5,-132.5,127.5,50,-52.5,-52.5,50,125,-130,-130,125,302.5,,
1,Abigail Ramsey,F,SBD,F-T1,47,Single-ply,2004,WI,46.3,80,-87.5,87.5,87.5,-27.5,27.5,35,35,65,75,85,85,207.5,,
1,Caralee Suchomel,F,SBD,F-T1,52,Single-ply,2003,WI,50.98,107.5,112.5,-117.5,112.5,70,-72.5,-72.5,70,125,132.5,-137.5,132.5,315,,
2,Tapenga Tegelman,F,SBD,F-T1,52,Single-ply,2003,WI,51.3,97.5,102.5,110,110,52.5,55,60,60,102.5,110,117.5,117.5,287.5,,
3,Abigail Schuerman,F,SBD,F-T1,52,Single-ply,2004,WI,51.3,85,95,102.5,102.5,40,45,47.5,47.5,82.5,90,100,100,250,,
1,Angelina Battige,F,SBD,F-T1,57,Single-ply,2004,WI,54.2,142.5,-152.5,152.5,152.5,82.5,87.5,90,90,165,-182.5,-182.5,165,407.5,,
2,Hailey Hessler,F,SBD,F-T1,57,Single-ply,2003,WI,56.1,112.5,-122.5,122.5,122.5,57.5,62.5,-65,62.5,-112.5,117.5,125,125,310,,
3,Victoria Pogorzelski,F,SBD,F-T1,57,Single-ply,2004,WI,54.5,97.5,105,-112.5,105,40,50,-55,50,112.5,130,137.5,137.5,292.5,,
4,Allison Lucier,F,SBD,F-T1,57,Single-ply,2003,WI,54.84,102.5,110,115,115,50,57.5,-60,57.5,105,110,120,120,292.5,,
1,Anna Zavala,F,SBD,F-T1,63,Single-ply,2004,WI,58.9,-105,107.5,120,120,57.5,65,70,70,107.5,120,125,125,315,,
2,Emma Mcfarland,F,SBD,F-T1,63,Single-ply,2003,WI,59.5,100,110,117.5,117.5,32.5,45,50,50,110,115,120,120,287.5,,
1,Anna Renner,F,SBD,F-T1,72,Single-ply,2003,WI,66.2,140,150,155,155,55,60,65,65,130,140,152.5,152.5,372.5,,
1,Abigail Kreger,F,SBD,F-T1,84,Single-ply,2004,WI,83.8,142.5,-150,-150,142.5,52.5,60,65,65,125,-137.5,-137.5,125,332.5,,
2,Alissa Saunders,F,SBD,F-T1,84,Single-ply,2003,WI,76.8,110,115,130,130,57.5,62.5,-70,62.5,120,127.5,132.5,132.5,325,,
3,Patricia Kerwin,F,SBD,F-T1,84,Single-ply,2004,WI,79.3,-105,105,115,115,45,47.5,55,55,110,117.5,-125,117.5,287.5,,
1,Kendra Krall,F,SBD,F-T1,84+,Single-ply,2003,WI,86.2,155,170,180,180,55,62.5,67.5,67.5,137.5,145,152.5,152.5,400,,
2,Zada Radcliffe,F,SBD,F-T1,84+,Single-ply,2003,WI,116.5,137.5,150,165,165,60,67.5,-72.5,67.5,110,122.5,127.5,127.5,360,,
3,Maddison Gister,F,SBD,F-T1,84+,Single-ply,2003,WI,121.9,122.5,137.5,142.5,142.5,45,57.5,65,65,125,-132.5,132.5,132.5,340,,
1,Natalie Weckesser,F,SBD,F-T2,52,Single-ply,2001,WI,51.57,92.5,-97.5,97.5,97.5,37.5,40,-42.5,40,100,105,-115,105,242.5,,
1,Samantha Benz,F,SBD,F-T2,57,Single-ply,2002,WI,54.6,100,110,-117.5,110,57.5,-62.5,-62.5,57.5,105,-110,-110,105,272.5,,
1,Britney Kopp,F,SBD,F-T2,63,Single-ply,2001,WI,62,155,162.5,-170,162.5,87.5,92.5,97.5,97.5,147.5,157.5,162.5,162.5,422.5,,
2,Machaela Exner,F,SBD,F-T2,63,Single-ply,2001,WI,59.3,150,160,165,165,80,85,90,90,150,160,-170,160,415,,
3,Lauren Freeck,F,SBD,F-T2,63,Single-ply,2001,WI,57.3,125,135,142.5,142.5,62.5,67.5,-70,67.5,147.5,157.5,-162.5,157.5,367.5,,
4,Kayelyn Hadley,F,SBD,F-T2,63,Single-ply,2002,WI,59.5,112.5,120,130,130,47.5,52.5,55,55,110,120,132.5,132.5,317.5,,
5,Riley Ganther,F,SBD,F-T2,63,Single-ply,2001,WI,58.8,105,115,120,120,42.5,47.5,52.5,52.5,120,125,-135,125,297.5,,
6,Haleigh Calaway,F,SBD,F-T2,63,Single-ply,2002,WI,59.6,110,120,-125,120,50,52.5,55,55,122.5,-135,-137.5,122.5,297.5,,
DQ,Melanie Johnson,F,SBD,F-T2,63,Single-ply,2001,WI,59.2,-100,-100,-100,,45,-47.5,-47.5,45,115,120,-132.5,120,,,
1,Abigail Flora,F,SBD,F-T2,72,Single-ply,2001,WI,63.7,160,-172.5,-172.5,160,-75,75,82.5,82.5,137.5,145,150,150,392.5,,
2,Erin Whipple,F,SBD,F-T2,72,Single-ply,2001,WI,68.9,152.5,160,165,165,60,-62.5,65,65,150,157.5,-167.5,157.5,387.5,,
3,Isabella Mullally,F,SBD,F-T2,72,Single-ply,2002,WI,71.3,142.5,-152.5,-152.5,142.5,82.5,87.5,-90,87.5,132.5,140,-145,140,370,,
4,Hailey De Guire,F,SBD,F-T2,72,Single-ply,2002,WI,71.1,135,145,-155,145,52.5,57.5,65,65,122.5,127.5,-132.5,127.5,337.5,,
5,Jasmine Popp,F,SBD,F-T2,72,Single-ply,2002,WI,71.4,-135,137.5,150,150,57.5,62.5,-70,62.5,107.5,115,125,125,337.5,,
1,Geri Fredrickson,F,SBD,F-T2,84,Single-ply,2001,WI,79.5,175,-187.5,-187.5,175,87.5,92.5,-95,92.5,150,157.5,-165,157.5,425,,
2,Madelynn Mcfarland,F,SBD,F-T2,84,Single-ply,2001,WI,80.3,157.5,165,177.5,177.5,67.5,70,72.5,72.5,140,147.5,-152.5,147.5,397.5,,
3,Delilah Burgos,F,SBD,F-T2,84,Single-ply,2002,WI,83.3,145,-155,155,155,82.5,-87.5,87.5,87.5,130,140,150,150,392.5,,
1,Danielle Eaglin,F,SBD,F-T2,84+,Single-ply,2001,WI,88.5,172.5,180,187.5,187.5,-87.5,95,105,105,170,-180,180,180,472.5,,
2,Maleah Polzin,F,SBD,F-T2,84+,Single-ply,2001,WI,85.7,115,-122.5,132.5,132.5,47.5,57.5,-62.5,57.5,120,130,-140,130,320,,
3,Tiffany Hatfield,F,SBD,F-T2,84+,Single-ply,2002,WI,135.9,125,137.5,-142.5,137.5,47.5,-52.5,52.5,52.5,125,-132.5,-142.5,125,315,,
1,Ashley Lee,F,SBD,F-T3,57,Single-ply,2001,WI,55.7,127.5,-137.5,137.5,137.5,72.5,77.5,-80,77.5,127.5,137.5,145,145,360,,
2,Jennifer Salazar,F,SBD,F-T3,57,Single-ply,2000,WI,55.2,-132.5,-132.5,132.5,132.5,70,-75,-75,70,137.5,147.5,-152.5,147.5,350,,
1,Grace Tollar,F,SBD,F-T3,63,Single-ply,2000,WI,62.5,125,-132.5,132.5,132.5,72.5,77.5,80,80,150,-157.5,-157.5,150,362.5,,
1,Courtney Corrente,F,SBD,F-T3,72,Single-ply,2000,WI,64.4,172.5,-182.5,-185,172.5,70,75,77.5,77.5,172.5,182.5,-187.5,182.5,432.5,,
2,Kennedy Ketzer,F,SBD,F-T3,72,Single-ply,2000,WI,71.9,157.5,167.5,175,175,82.5,87.5,92.5,92.5,142.5,150,155,155,422.5,,
3,Abigail Momberg,F,SBD,F-T3,72,Single-ply,2000,WI,69.4,125,135,142.5,142.5,77.5,82.5,85,85,137.5,145,150,150,377.5,,
4,Elizabeth Schuerman,F,SBD,F-T3,72,Single-ply,2000,WI,66.5,132.5,145,152.5,152.5,57.5,62.5,65,65,132.5,142.5,150,150,367.5,,
5,Kaileigh Nickel,F,SBD,F-T3,72,Single-ply,2000,WI,69.7,110,-115,-120,110,55,-60,60,60,125,132.5,137.5,137.5,307.5,,
1,Cloe Winters,F,SBD,F-T3,84,Single-ply,2000,WI,73.8,-155,155,-165,155,62.5,67.5,-72.5,67.5,150,155,-160,155,377.5,,
1,Bethany Skroch,F,SBD,F-T3,84+,Single-ply,2001,WI,115,167.5,175,180,180,82.5,87.5,92.5,92.5,127.5,132.5,142.5,142.5,415,,
1,Jacob Bartelt,M,SBD,MR-T1,53,Raw,2004,WI,52.1,-97.5,102.5,110,110,62.5,67.5,70,70,125,142.5,147.5,147.5,327.5,,
2,Ivan Vazquez,M,SBD,MR-T1,53,Raw,2003,WI,51.85,85,90,-97.5,90,50,55,-57.5,55,105,112.5,122.5,122.5,267.5,,
3,Noah Schmitz,M,SBD,MR-T1,53,Raw,2003,WI,49.95,92.5,102.5,-105,102.5,47.5,50,-52.5,50,97.5,107.5,112.5,112.5,265,,
4,Colin Stecker,M,SBD,MR-T1,53,Raw,2004,WI,49.25,85,90,-92.5,90,45,47.5,-50,47.5,107.5,112.5,-115,112.5,250,,
5,Riley Crum,M,SBD,MR-T1,53,Raw,2003,WI,51.45,82.5,90,92.5,92.5,50,55,57.5,57.5,77.5,95,100,100,250,,
6,Devin Balts,M,SBD,MR-T1,53,Raw,2004,WI,49.45,72.5,-80,80,80,42.5,45,47.5,47.5,92.5,97.5,102.5,102.5,230,,
7,Gavin Linjer,M,SBD,MR-T1,53,Raw,2004,WI,50.15,65,70,-72.5,70,-45,45,-50,45,105,110,-122.5,110,225,,
8,Aiden Fessey,M,SBD,MR-T1,53,Raw,2004,WI,50.65,72.5,75,82.5,82.5,37.5,42.5,45,45,82.5,-97.5,-97.5,82.5,210,,
1,Michael Sysavan,M,SBD,MR-T1,59,Raw,2004,WI,58.7,100,112.5,120,120,60,65,70,70,147.5,162.5,180,180,370,,
2,Brady Oleszak,M,SBD,MR-T1,59,Raw,2003,WI,59,110,117.5,-127.5,117.5,70,-75,-75,70,142.5,150,-152.5,150,337.5,,
3,Zander Barr,M,SBD,MR-T1,59,Raw,2004,WI,57.9,87.5,97.5,-100,97.5,55,60,-62.5,60,132.5,145,-150,145,302.5,,
4,Andrew Olsen,M,SBD,MR-T1,59,Raw,2003,WI,58.1,80,-90,-90,80,60,62.5,65,65,122.5,132.5,145,145,290,,
5,Carson Junemann,M,SBD,MR-T1,59,Raw,2003,WI,58.55,87.5,-102.5,-107.5,87.5,52.5,57.5,62.5,62.5,112.5,132.5,140,140,290,,
6,Calvin Brueggen,M,SBD,MR-T1,59,Raw,2004,WI,55.65,80,85,90,90,50,52.5,-55,52.5,112.5,117.5,-127.5,117.5,260,,
7,Truman Leisses,M,SBD,MR-T1,59,Raw,2003,WI,54.15,87.5,-92.5,-92.5,87.5,60,65,-70,65,90,105,-115,105,257.5,,
8,Joseph Javanovich,M,SBD,MR-T1,59,Raw,2003,WI,54.85,82.5,-85,87.5,87.5,40,42.5,-45,42.5,112.5,120,-130,120,250,,
1,Brady Flasch,M,SBD,MR-T1,66,Raw,2003,WI,65.85,142.5,155,-165,155,105,-112.5,-112.5,105,177.5,187.5,-210,187.5,447.5,,
2,Kyle Haas,M,SBD,MR-T1,66,Raw,2004,WI,64.65,137.5,150,-160,150,70,75,-82.5,75,170,180,-187.5,180,405,,
3,Austin Junemann,M,SBD,MR-T1,66,Raw,2004,WI,66,110,130,140,140,80,85,-87.5,85,147.5,160,162.5,162.5,387.5,,
4,Avery Kaanta,M,SBD,MR-T1,66,Raw,2004,WI,63.4,115,122.5,132.5,132.5,75,80,82.5,82.5,145,157.5,167.5,167.5,382.5,,
5,Vaughn Zwiefelhofer,M,SBD,MR-T1,66,Raw,2003,WI,60,102.5,110,117.5,117.5,55,60,62.5,62.5,137.5,155,-160,155,335,,
6,Brayan Dela Cruz,M,SBD,MR-T1,66,Raw,2003,WI,59.2,97.5,102.5,-105,102.5,72.5,-75,-75,72.5,122.5,-130,-130,122.5,297.5,,
1,Benjamin Wellhoefer,M,SBD,MR-T1,74,Raw,2003,WI,72.55,152.5,-160,-165,152.5,97.5,102.5,105,105,162.5,172.5,-185,172.5,430,,
2,Coltin Riffle,M,SBD,MR-T1,74,Raw,2003,WI,73.5,130,140,-145,140,97.5,100,102.5,102.5,175,-182.5,182.5,182.5,425,,
3,Alejandro Saldana,M,SBD,MR-T1,74,Raw,2003,WI,66.25,142.5,-150,155,155,92.5,97.5,102.5,102.5,150,-165,-165,150,407.5,,
DQ,Jimmy Ermer,M,SBD,MR-T1,74,Raw,2003,WI,67.1,-137.5,-137.5,-137.5,,70,-72.5,-72.5,70,185,-187.5,-187.5,185,,,
1,Major Gunderson-Morris,M,SBD,MR-T1,83,Raw,2003,WI,81.55,165,170,-172.5,170,-95,-95,95,95,220,-230,-230,220,485,,
2,Ryan Briggs,M,SBD,MR-T1,83,Raw,2003,WI,80,140,150,157.5,157.5,90,97.5,102.5,102.5,182.5,197.5,202.5,202.5,462.5,,
3,Bryce Henrichs,M,SBD,MR-T1,83,Raw,2003,WI,74.4,165,170,175,175,92.5,-97.5,-97.5,92.5,185,-200,-200,185,452.5,,
4,Dillon Lecy,M,SBD,MR-T1,83,Raw,2003,WI,74.8,-152.5,152.5,162.5,162.5,82.5,-90,-90,82.5,185,197.5,-205,197.5,442.5,,
1,Tanner Zepczyk,M,SBD,MR-T1,93,Raw,2003,WI,87.8,137.5,147.5,155,155,95,105,-112.5,105,180,192.5,202.5,202.5,462.5,,
1,Andrew Niemuth,M,SBD,MR-T1,105,Raw,2003,WI,98.55,-167.5,172.5,190,190,92.5,100,-107.5,100,212.5,222.5,-242.5,222.5,512.5,,
2,Jack Gehl,M,SBD,MR-T1,105,Raw,2004,WI,98.8,165,172.5,-182.5,172.5,72.5,77.5,80,80,187.5,202.5,215,215,467.5,,
1,Cameron Anderson,M,SBD,MR-T1,120,Raw,2003,WI,118.75,157.5,182.5,-205,182.5,90,102.5,-115,102.5,142.5,160,-190,160,445,,
DQ,Benjamin Prasko,M,SBD,MR-T1,120,Raw,2003,WI,108,207.5,215,-227.5,215,-87.5,-100,-100,,215,227.5,-240,227.5,,,
DQ,Calvin Mitch,M,SBD,MR-T1,120+,Raw,2003,WI,136.15,-165,167.5,172.5,172.5,87.5,92.5,95,95,-202.5,-202.5,-202.5,,,,
1,Dawson Fornander,M,SBD,MR-T2,53,Raw,2002,WI,51.25,102.5,107.5,115,115,55,60,-67.5,60,112.5,122.5,127.5,127.5,302.5,,
2,Jacob Matoushek,M,SBD,MR-T2,53,Raw,2002,WI,51,72.5,82.5,92.5,92.5,52.5,57.5,60,60,112.5,120,-132.5,120,272.5,,
3,Joseph Malski,M,SBD,MR-T2,53,Raw,2002,WI,49.65,70,75,80,80,52.5,57.5,60,60,102.5,-107.5,107.5,107.5,247.5,,
4,Evan Sibik,M,SBD,MR-T2,53,Raw,2003,WI,51.4,75,-82.5,90,90,42.5,47.5,-52.5,47.5,97.5,102.5,110,110,247.5,,
5,Remington Ladd,M,SBD,MR-T2,53,Raw,2002,WI,51.95,-67.5,-70,70,70,57.5,60,-65,60,100,102.5,112.5,112.5,242.5,,
1,Adedapo Adeboyejo,M,SBD,MR-T2,59,Raw,2002,WI,58.95,135,-152.5,-152.5,135,80,85,90,90,180,190,200,200,425,,
2,Jayson Schraufnagel,M,SBD,MR-T2,59,Raw,2001,WI,58.2,117.5,127.5,132.5,132.5,85,92.5,-95,92.5,162.5,170,-175,170,395,,
3,Blake Burlingame,M,SBD,MR-T2,59,Raw,2002,WI,58.75,100,105,-110,105,65,67.5,-70,67.5,155,-162.5,162.5,162.5,335,,
4,Bryce Ploeckelman,M,SBD,MR-T2,59,Raw,2002,WI,59,100,105,112.5,112.5,60,65,-70,65,137.5,-150,-150,137.5,315,,
5,Lane Lee,M,SBD,MR-T2,59,Raw,2002,WI,55.2,92.5,102.5,107.5,107.5,57.5,60,-62.5,60,137.5,-145,-145,137.5,305,,
6,Dawson Jenkin,M,SBD,MR-T2,59,Raw,2001,WI,53.55,90,105,-112.5,105,52.5,-57.5,57.5,57.5,110,127.5,137.5,137.5,300,,
7,John Wilke,M,SBD,MR-T2,59,Raw,2002,WI,54.6,85,95,105,105,52.5,62.5,65,65,-110,120,127.5,127.5,297.5,,
8,Jan Rieck-Blankenburg,M,SBD,MR-T2,59,Raw,2003,WI,54.95,85,95,105,105,52.5,60,-65,60,115,130,132.5,132.5,297.5,,
9,Cameron Berhow,M,SBD,MR-T2,59,Raw,2001,WI,58.35,95,100,-105,100,60,62.5,-67.5,62.5,132.5,-140,-140,132.5,295,,
10,Tyson Doucette,M,SBD,MR-T2,59,Raw,2002,WI,55.4,-90,90,97.5,97.5,57.5,62.5,-67.5,62.5,115,125,-130,125,285,,
11,William Head,M,SBD,MR-T2,59,Raw,2002,WI,58.5,87.5,92.5,-97.5,92.5,-60,60,-65,60,127.5,-130,130,130,282.5,,
12,Adam Vanderkin,M,SBD,MR-T2,59,Raw,2001,WI,55.55,85,97.5,-107.5,97.5,47.5,52.5,55,55,-115,115,-135,115,267.5,,
13,Alan Jimenez,M,SBD,MR-T2,59,Raw,2003,WI,54.15,92.5,-95,95,95,52.5,55,57.5,57.5,95,102.5,-105,102.5,255,,
14,Dominick Brunette,M,SBD,MR-T2,59,Raw,2003,WI,53.65,80,-82.5,-85,80,52.5,-55,55,55,92.5,97.5,110,110,245,,
15,Dylan Daly-Schreiner,M,SBD,MR-T2,59,Raw,2002,WI,56,72.5,-85,85,85,47.5,50,52.5,52.5,102.5,-112.5,-122.5,102.5,240,,
1,Jackson Jaeger,M,SBD,MR-T2,66,Raw,2001,WI,65.75,155,160,-170,160,95,100,-102.5,100,200,210,-222.5,210,470,,
2,Colton Steyer,M,SBD,MR-T2,66,Raw,2001,WI,65.25,160,-180,-180,160,105,115,-125,115,160,-190,192.5,192.5,467.5,,
3,Jaiden Minigh,M,SBD,MR-T2,66,Raw,2002,WI,65.2,152.5,157.5,162.5,162.5,77.5,82.5,-85,82.5,175,192.5,-205,192.5,437.5,,
4,Joshua Halverson,M,SBD,MR-T2,66,Raw,2002,WI,64.7,140,145,-150,145,65,77.5,82.5,82.5,182.5,-205,205,205,432.5,,
5,Teagan Guckenberg,M,SBD,MR-T2,66,Raw,2001,WI,63.4,127.5,140,145,145,-82.5,90,-97.5,90,165,175,-185,175,410,,
6,Jesse Bletsch,M,SBD,MR-T2,66,Raw,2001,WI,59.25,-115,115,125,125,92.5,97.5,100,100,167.5,182.5,-192.5,182.5,407.5,,
7,Sergio Jimenez,M,SBD,MR-T2,66,Raw,2001,WI,59.2,145,-155,155,155,80,87.5,-92.5,87.5,137.5,150,157.5,157.5,400,,
8,Cooper Kastenschmidt,M,SBD,MR-T2,66,Raw,2001,WI,64.6,132.5,137.5,-145,137.5,67.5,72.5,-75,72.5,172.5,182.5,-190,182.5,392.5,,
9,Brock Haseltine,M,SBD,MR-T2,66,Raw,2002,WI,64.35,-132.5,132.5,-137.5,132.5,-87.5,-92.5,92.5,92.5,142.5,155,165,165,390,,
10,Devin Lang,M,SBD,MR-T2,66,Raw,2001,WI,65.4,117.5,125,130,130,67.5,-72.5,72.5,72.5,180,-185,185,185,387.5,,
11,Sullivan Weiss,M,SBD,MR-T2,66,Raw,2002,WI,63.8,115,120,-125,120,82.5,85,-87.5,85,160,167.5,172.5,172.5,377.5,,
12,Declan Gubrud,M,SBD,MR-T2,66,Raw,2001,WI,64.85,130,137.5,-140,137.5,82.5,85,-87.5,85,142.5,147.5,152.5,152.5,375,,
13,Dominic Hall,M,SBD,MR-T2,66,Raw,2002,WI,59.75,112.5,117.5,-125,117.5,75,77.5,-82.5,77.5,157.5,167.5,-177.5,167.5,362.5,,
14,Sawyer Schnettler,M,SBD,MR-T2,66,Raw,2002,WI,59.4,100,-107.5,107.5,107.5,80,85,87.5,87.5,147.5,157.5,-160,157.5,352.5,,
15,Josiah Hanson,M,SBD,MR-T2,66,Raw,2001,WI,59.5,100,110,117.5,117.5,65,67.5,70,70,152.5,165,-167.5,165,352.5,,
16,Peter Decorah,M,SBD,MR-T2,66,Raw,2002,WI,63.1,-97.5,-110,112.5,112.5,67.5,72.5,-80,72.5,157.5,-177.5,-177.5,157.5,342.5,,
DQ,Jeff Schubring,M,SBD,MR-T2,66,Raw,2001,WI,65.85,-127.5,-135,-135,,82.5,-87.5,-87.5,82.5,142.5,-155,-155,142.5,,,
DQ,Markos Cash,M,SBD,MR-T2,66,Raw,2002,WI,65.9,132.5,142.5,-147.5,142.5,87.5,95,97.5,97.5,-175,-175,-175,,,,
1,Moises Medina,M,SBD,MR-T2,74,Raw,2002,WI,70.25,182.5,192.5,205,205,117.5,125,-130,125,200,215,230,230,560,,
2,Genesis Correa,M,SBD,MR-T2,74,Raw,2001,WI,72.75,180,190,200,200,107.5,112.5,-117.5,112.5,207.5,220,-230,220,532.5,,
3,Javon Matthews,M,SBD,MR-T2,74,Raw,2001,WI,72.06,205,-217.5,-217.5,205,97.5,107.5,112.5,112.5,192.5,202.5,212.5,212.5,530,,
4,Michael Fritz,M,SBD,MR-T2,74,Raw,2001,WI,72.95,157.5,165,175,175,107.5,120,-127.5,120,207.5,-217.5,217.5,217.5,512.5,,
5,Erik Rohloff,M,SBD,MR-T2,74,Raw,2001,WI,73.3,155,165,-170,165,92.5,-97.5,97.5,97.5,205,220,-225,220,482.5,,
6,Dylan Jackowski,M,SBD,MR-T2,74,Raw,2001,WI,73.2,147.5,-160,-165,147.5,102.5,117.5,-122.5,117.5,160,182.5,187.5,187.5,452.5,,
7,Ethan Kaanta,M,SBD,MR-T2,74,Raw,2001,WI,71.7,-162.5,162.5,170,170,92.5,95,97.5,97.5,175,-177.5,-177.5,175,442.5,,
8,Isaac Cephus,M,SBD,MR-T2,74,Raw,2001,WI,73,135,-147.5,152.5,152.5,97.5,107.5,-115,107.5,150,165,182.5,182.5,442.5,,
9,Braeden Bowman,M,SBD,MR-T2,74,Raw,2001,WI,72.8,147.5,155,-162.5,155,92.5,-95,95,95,182.5,-202.5,-202.5,182.5,432.5,,
10,Devin Bocook,M,SBD,MR-T2,74,Raw,2002,WI,72.4,142.5,150,-157.5,150,-107.5,107.5,-110,107.5,162.5,172.5,-182.5,172.5,430,,
11,Jacob Davies,M,SBD,MR-T2,74,Raw,2001,WI,72.6,132.5,142.5,147.5,147.5,85,90,92.5,92.5,175,182.5,190,190,430,,
12,Micah Alderden,M,SBD,MR-T2,74,Raw,2002,WI,70.75,150,157.5,167.5,167.5,75,-77.5,-77.5,75,165,177.5,182.5,182.5,425,,
13,Mason Close,M,SBD,MR-T2,74,Raw,2001,WI,72.75,142.5,-147.5,147.5,147.5,-72.5,77.5,-82.5,77.5,200,-215,-215,200,425,,
14,Isaac Marley,M,SBD,MR-T2,74,Raw,2001,WI,66.55,-132.5,132.5,-137.5,132.5,80,82.5,-85,82.5,-182.5,182.5,190,190,405,,
15,William Breunig,M,SBD,MR-T2,74,Raw,2002,WI,66.7,-130,-132.5,132.5,132.5,80,85,87.5,87.5,165,175,182.5,182.5,402.5,,
16,Logan Zyduck,M,SBD,MR-T2,74,Raw,2002,WI,67.05,137.5,150,-152.5,150,70,80,85,85,152.5,167.5,-175,167.5,402.5,,
17,Alex Sackett,M,SBD,MR-T2,74,Raw,2002,WI,69.5,145,-147.5,147.5,147.5,90,95,-100,95,145,157.5,160,160,402.5,,
18,Evan Bjorge,M,SBD,MR-T2,74,Raw,2002,WI,73.5,142.5,147.5,150,150,77.5,80,-82.5,80,170,,,170,400,,
19,Jack Bond,M,SBD,MR-T2,74,Raw,2001,WI,66.45,112.5,125,-135,125,77.5,82.5,87.5,87.5,145,152.5,165,165,377.5,,
20,Maysen Best,M,SBD,MR-T2,74,Raw,2002,WI,66.5,127.5,142.5,-147.5,142.5,77.5,85,-90,85,150,-172.5,-172.5,150,377.5,,
DQ,Ethan Hahlbeck,M,SBD,MR-T2,74,Raw,2002,WI,66.25,-165,-175,-175,,82.5,87.5,-92.5,87.5,145,155,160,160,,,
1,Garrett Eddy,M,SBD,MR-T2,83,Raw,2001,WI,77,167.5,180,182.5,182.5,110,117.5,122.5,122.5,187.5,205,212.5,212.5,517.5,,
2,Ben Stenberg,M,SBD,MR-T2,83,Raw,2001,WI,81,170,180,185,185,105,110,115,115,195,205,210,210,510,,
3,Dakota Lane,M,SBD,MR-T2,83,Raw,2001,WI,81.4,167.5,-180,-180,167.5,105,112.5,-117.5,112.5,207.5,220,-222.5,220,500,,
4,Andrew Wein,M,SBD,MR-T2,83,Raw,2001,WI,81.7,165,182.5,190,190,87.5,95,100,100,187.5,202.5,210,210,500,,
5,Jonathan Boehnlein,M,SBD,MR-T2,83,Raw,2001,WI,76.5,160,175,-180,175,100,105,-110,105,185,195,205,205,485,,
6,Thomas Van Eperen,M,SBD,MR-T2,83,Raw,2001,WI,79.2,165,175,-177.5,175,97.5,102.5,-105,102.5,205,-222.5,-222.5,205,482.5,,
7,Jackson Seidling,M,SBD,MR-T2,83,Raw,2001,WI,79.8,135,140,-145,140,92.5,97.5,-102.5,97.5,182.5,195,207.5,207.5,445,,
8,Sam Budig,M,SBD,MR-T2,83,Raw,2002,WI,74.7,130,140,147.5,147.5,92.5,97.5,-100,97.5,165,177.5,190,190,435,,
9,Dane Vanvonderen,M,SBD,MR-T2,83,Raw,2001,WI,74.55,137.5,-142.5,-150,137.5,85,-87.5,87.5,87.5,170,177.5,-182.5,177.5,402.5,,
1,Kaden Hansen,M,SBD,MR-T2,93,Raw,2001,WI,89,217.5,225,232.5,232.5,110,115,-117.5,115,237.5,-255,255,255,602.5,,
2,Alex Wallin,M,SBD,MR-T2,93,Raw,2001,WI,88.55,197.5,-205,-205,197.5,130,135,-142.5,135,-197.5,202.5,-225,202.5,535,,
3,Josh Lescohier,M,SBD,MR-T2,93,Raw,2002,WI,91.75,165,175,182.5,182.5,105,115,122.5,122.5,185,197.5,210,210,515,,
4,Tristan Johnson,M,SBD,MR-T2,93,Raw,2001,WI,85.05,152.5,157.5,165,165,107.5,115,-120,115,192.5,200,-210,200,480,,
5,Ricky Zielinski,M,SBD,MR-T2,93,Raw,2001,WI,86.8,152.5,162.5,170,170,95,102.5,107.5,107.5,190,202.5,-222.5,202.5,480,,
6,Eli Peapenburg,M,SBD,MR-T2,93,Raw,2001,WI,89.45,165,172.5,175,175,97.5,102.5,105,105,170,187.5,195,195,475,,
7,Jonathan Bryan,M,SBD,MR-T2,93,Raw,2001,WI,87.45,152.5,160,165,165,77.5,82.5,85,85,205,217.5,-220,217.5,467.5,,
8,Zac Holme,M,SBD,MR-T2,93,Raw,2001,WI,87.5,175,-182.5,-185,175,87.5,92.5,95,95,185,192.5,197.5,197.5,467.5,,
9,Andrew Winkers,M,SBD,MR-T2,93,Raw,2002,WI,90.4,147.5,152.5,160,160,-105,105,-110,105,195,202.5,-207.5,202.5,467.5,,
10,David Klein,M,SBD,MR-T2,93,Raw,2001,WI,83.15,165,175,177.5,177.5,97.5,102.5,107.5,107.5,165,-175,175,175,460,,
11,Nolan Nielsen,M,SBD,MR-T2,93,Raw,2001,WI,88.55,150,155,-160,155,95,100,-102.5,100,185,197.5,-205,197.5,452.5,,
12,Benjamin Kawczynski,M,SBD,MR-T2,93,Raw,2003,WI,86.7,152.5,-157.5,-157.5,152.5,95,100,105,105,177.5,-185,-185,177.5,435,,
1,Nicholas Hoffmann,M,SBD,MR-T2,105,Raw,2001,WI,104.6,210,217.5,222.5,222.5,137.5,140,142.5,142.5,235,245,-255,245,610,,
2,Aaron Gotham,M,SBD,MR-T2,105,Raw,2001,WI,99.3,215,222.5,-227.5,222.5,110,115,-120,115,210,222.5,227.5,227.5,565,,
3,Mac Strand,M,SBD,MR-T2,105,Raw,2002,WI,98.55,-192.5,202.5,212.5,212.5,97.5,102.5,105,105,212.5,225,230,230,547.5,,
4,Todd Hall,M,SBD,MR-T2,105,Raw,2001,WI,102.35,-190,-190,190,190,105,112.5,-117.5,112.5,212.5,227.5,-245,227.5,530,,
5,Ambrose Newbury,M,SBD,MR-T2,105,Raw,2002,WI,97.05,167.5,175,-182.5,175,117.5,-120,-120,117.5,200,215,227.5,227.5,520,,
6,Clayton Divelbiss,M,SBD,MR-T2,105,Raw,2002,WI,93.6,-192.5,192.5,197.5,197.5,-125,125,-127.5,125,-185,190,-195,190,512.5,,
7,Kaiden Sell,M,SBD,MR-T2,105,Raw,2001,WI,100,182.5,190,200,200,-95,102.5,-107.5,102.5,182.5,192.5,-205,192.5,495,,
8,Luke Holme,M,SBD,MR-T2,105,Raw,2001,WI,95.7,180,187.5,200,200,92.5,97.5,102.5,102.5,172.5,180,185,185,487.5,,
9,Jacob Crowson,M,SBD,MR-T2,105,Raw,2001,WI,103.2,177.5,192.5,-195,192.5,82.5,87.5,95,95,187.5,200,-212.5,200,487.5,,
10,Kadan Downing,M,SBD,MR-T2,105,Raw,2003,WI,96.2,165,-185,-197.5,165,107.5,115,-122.5,115,180,-187.5,197.5,197.5,477.5,,
11,Ethan Gulas,M,SBD,MR-T2,105,Raw,2001,WI,101.3,155,160,-172.5,160,92.5,102.5,107.5,107.5,177.5,187.5,197.5,197.5,465,,
DQ,Julian Goldstein,M,SBD,MR-T2,105,Raw,2002,WI,101.15,152.5,-160,-160,152.5,92.5,97.5,-100,97.5,-212.5,-212.5,-212.5,,,,
1,Michael Bidwell,M,SBD,MR-T2,120,Raw,2001,WI,113.95,227.5,-235,-235,227.5,112.5,125,-127.5,125,272.5,295,-307.5,295,647.5,,
2,Robert Conde,M,SBD,MR-T2,120,Raw,2002,WI,107,192.5,205,-215,205,-120,-120,120,120,212.5,-220,-220,212.5,537.5,,
3,Cole Cook,M,SBD,MR-T2,120,Raw,2002,WI,118.05,182.5,197.5,205,205,102.5,110,115,115,182.5,200,207.5,207.5,527.5,,
4,Jacob Wicklem,M,SBD,MR-T2,120,Raw,2002,WI,115.95,187.5,197.5,-205,197.5,107.5,-110,-110,107.5,212.5,217.5,-225,217.5,522.5,,
5,Daniel Li,M,SBD,MR-T2,120,Raw,2001,WI,105.3,170,185,197.5,197.5,95,105,110,110,187.5,212.5,-217.5,212.5,520,,
6,Connor Miller,M,SBD,MR-T2,120,Raw,2001,WI,111.45,177.5,185,190,190,105,110,115,115,197.5,-205,215,215,520,,
7,Cole Johnson,M,SBD,MR-T2,120,Raw,2001,WI,111.7,172.5,182.5,-190,182.5,102.5,105,107.5,107.5,205,230,-237.5,230,520,,
8,Bryan Mcclurg,M,SBD,MR-T2,120,Raw,2002,WI,118.5,185,210,227.5,227.5,82.5,92.5,-100,92.5,142.5,-200,200,200,520,,
9,Trevor Turner,M,SBD,MR-T2,120,Raw,2001,WI,110.45,167.5,172.5,-180,172.5,115,120,125,125,207.5,-215,-215,207.5,505,,
10,Alex Wirtz,M,SBD,MR-T2,120,Raw,2001,WI,109.6,180,192.5,-200,192.5,-102.5,-110,110,110,185,-197.5,-197.5,185,487.5,,
11,Kevin Lopez,M,SBD,MR-T2,120,Raw,2002,WI,114.15,145,167.5,-172.5,167.5,95,105,110,110,185,-205,205,205,482.5,,
12,Seth Angell,M,SBD,MR-T2,120,Raw,2002,WI,109.2,-185,190,195,195,92.5,100,105,105,-177.5,177.5,-185,177.5,477.5,,
13,Ian Schaal,M,SBD,MR-T2,120,Raw,2002,WI,108.2,-160,-162.5,162.5,162.5,-85,85,90,90,180,190,202.5,202.5,455,,
DQ,Jackson Wemette,M,SBD,MR-T2,120,Raw,2001,WI,108.2,-210,-210,-212.5,,-120,-125,127.5,127.5,212.5,220,227.5,227.5,,,
DQ,Carter Brantner,M,SBD,MR-T2,120,Raw,2001,WI,117.85,195,-215,-215,195,92.5,100,102.5,102.5,-192.5,-210,-222.5,,,,
1,Logan Cleary,M,SBD,MR-T2,120+,Raw,2002,WI,164.5,287.5,305,-327.5,305,180,190,195,195,265,290,292.5,292.5,792.5,,
2,Gavyn Anton,M,SBD,MR-T2,120+,Raw,2002,WI,135.45,205,215,220,220,160,165,170,170,205,212.5,217.5,217.5,607.5,,
3,Trevor Pye,M,SBD,MR-T2,120+,Raw,2001,WI,130.15,250,-265,-265,250,115,120,-125,120,225,-235,-237.5,225,595,,
4,Ryan Blokhuis,M,SBD,MR-T2,120+,Raw,2001,WI,140.3,210,227.5,-232.5,227.5,110,122.5,-130,122.5,210,225,237.5,237.5,587.5,,
5,Sean Curran,M,SBD,MR-T2,120+,Raw,2001,WI,121.05,202.5,-210,-210,202.5,92.5,-97.5,97.5,97.5,205,217.5,225,225,525,,
6,Benjamin Stoner,M,SBD,MR-T2,120+,Raw,2001,WI,168,-185,185,200,200,125,-127.5,-127.5,125,187.5,197.5,-205,197.5,522.5,,
7,Anders LeMire,M,SBD,MR-T2,120+,Raw,2001,WI,125.2,190,-197.5,197.5,197.5,115,-117.5,-117.5,115,190,200,205,205,517.5,,
8,James Scott,M,SBD,MR-T2,120+,Raw,2002,WI,171.9,160,175,190,190,95,100,105,105,205,-225,-232.5,205,500,,
9,Mark Weins,M,SBD,MR-T2,120+,Raw,2002,WI,129.8,177.5,185,190,190,90,-95,-95,90,-195,200,-210,200,480,,
10,Turner Norum,M,SBD,MR-T2,120+,Raw,2002,WI,141.85,155,172.5,187.5,187.5,92.5,100,-105,100,162.5,175,-177.5,175,462.5,,
1,Thomas Schell,M,SBD,MR-T3,59,Raw,2001,WI,55.4,125,-135,-135,125,87.5,92.5,-97.5,92.5,142.5,-157.5,165,165,382.5,,
2,Dalton Klukas,M,SBD,MR-T3,59,Raw,2000,WI,59,107.5,-115,117.5,117.5,92.5,97.5,100,100,130,137.5,147.5,147.5,365,,
3,Derrick Hess,M,SBD,MR-T3,59,Raw,2000,WI,55.75,112.5,115,-117.5,115,72.5,75,77.5,77.5,137.5,142.5,-150,142.5,335,,
4,Elvis Cormican,M,SBD,MR-T3,59,Raw,2000,WI,58.35,92.5,102.5,-110,102.5,75,80,-85,80,115,-132.5,-132.5,115,297.5,,
1,Adrian Herbst,M,SBD,MR-T3,66,Raw,2000,WI,65.65,115,127.5,-137.5,127.5,70,82.5,90,90,160,175,-182.5,175,392.5,,
2,Dylan Hanson,M,SBD,MR-T3,66,Raw,2001,WI,59.3,87.5,92.5,97.5,97.5,52.5,57.5,-62.5,57.5,-137.5,137.5,-150,137.5,292.5,,
1,Parker Leisses,M,SBD,MR-T3,74,Raw,2000,WI,72.55,145,155,-157.5,155,100,102.5,105,105,192.5,210,212.5,212.5,472.5,,
2,Alex Hahlbeck,M,SBD,MR-T3,74,Raw,2000,WI,72.75,137.5,142.5,-147.5,142.5,75,80,-82.5,80,177.5,182.5,-190,182.5,405,,
DQ,Joseph Rozivka,M,SBD,MR-T3,74,Raw,2000,WI,73.7,-150,-150,-150,,97.5,102.5,-110,102.5,160,-182.5,-182.5,160,,,
1,Nicholas Grewe,M,SBD,MR-T3,83,Raw,2000,WI,80.4,205,-222.5,-222.5,205,115,122.5,-132.5,122.5,210,227.5,237.5,237.5,565,,
2,Nathan Penix,M,SBD,MR-T3,83,Raw,2001,WI,80.65,182.5,195,-202.5,195,102.5,110,-117.5,110,175,185,-202.5,185,490,,
3,Ean Jereczek,M,SBD,MR-T3,83,Raw,2001,WI,74.25,155,165,172.5,172.5,110,-117.5,-117.5,110,195,205,-210,205,487.5,,
4,Logan Hayman,M,SBD,MR-T3,83,Raw,2001,WI,78,-175,-175,175,175,105,115,117.5,117.5,185,-190,-190,185,477.5,,
5,Trey Zwiefelhofer,M,SBD,MR-T3,83,Raw,2000,WI,77,147.5,152.5,157.5,157.5,97.5,100,-102.5,100,202.5,215,-227.5,215,472.5,,
6,Alex Turner,M,SBD,MR-T3,83,Raw,2000,WI,79.15,172.5,180,-185,180,102.5,-105,-105,102.5,170,182.5,185,185,467.5,,
7,Sam Varsho,M,SBD,MR-T3,83,Raw,2000,WI,80.95,152.5,165,-182.5,165,87.5,97.5,105,105,180,197.5,-205,197.5,467.5,,
8,Michael Szymanski,M,SBD,MR-T3,83,Raw,2000,WI,78.05,152.5,162.5,-170,162.5,87.5,92.5,97.5,97.5,177.5,190,195,195,455,,
9,Wyatt Nichols,M,SBD,MR-T3,83,Raw,2000,WI,81.6,150,155,-162.5,155,85,87.5,90,90,200,207.5,-212.5,207.5,452.5,,
DQ,Ethen Jewell,M,SBD,MR-T3,83,Raw,2000,WI,82.4,-185,-185,-190,,,,,,,,,,,,
1,Colton Gruse,M,SBD,MR-T3,93,Raw,2000,WI,92.75,210,-215,-215,210,122.5,-137.5,137.5,137.5,-210,210,215,215,562.5,,
2,Austin Koch,M,SBD,MR-T3,93,Raw,2000,WI,87.1,175,185,190,190,117.5,125,130,130,225,235,-245,235,555,,
3,Wyatt Carper,M,SBD,MR-T3,93,Raw,2000,WI,90.45,200,207.5,-212.5,207.5,105,110,-112.5,110,212.5,-222.5,-222.5,212.5,530,,
4,Keagen Berg,M,SBD,MR-T3,93,Raw,2000,WI,88.75,182.5,187.5,192.5,192.5,112.5,117.5,125,125,187.5,195,205,205,522.5,,
5,Tanner Carver,M,SBD,MR-T3,93,Raw,2000,WI,86.1,185,187.5,190,190,95,100,102.5,102.5,225,-230,-230,225,517.5,,
6,Seth Polaski,M,SBD,MR-T3,93,Raw,2001,WI,84.75,185,-197.5,197.5,197.5,102.5,107.5,110,110,187.5,197.5,205,205,512.5,,
7,Ethan McKellips,M,SBD,MR-T3,93,Raw,2000,WI,85.6,172.5,190,-197.5,190,95,102.5,-110,102.5,180,190,202.5,202.5,495,,
8,Connor McKellips,M,SBD,MR-T3,93,Raw,2000,WI,87.55,172.5,187.5,-200,187.5,92.5,102.5,105,105,180,190,200,200,492.5,,
9,Zachary Anderson,M,SBD,MR-T3,93,Raw,2000,WI,87,145,152.5,-160,152.5,115,120,125,125,165,177.5,192.5,192.5,470,,
DQ,Andrew Schaal,M,SBD,MR-T3,93,Raw,2000,WI,89.7,-145,-145,-145,,102.5,107.5,-112.5,107.5,205,225,-260,225,,,
1,Sean Lemkuil,M,SBD,MR-T3,105,Raw,2000,WI,99.85,185,197.5,210,210,107.5,112.5,117.5,117.5,200,212.5,220,220,547.5,,
2,Matthew Kukacka,M,SBD,MR-T3,105,Raw,2000,WI,103.85,167.5,180,187.5,187.5,97.5,105,-107.5,105,227.5,240,247.5,247.5,540,,
3,Ethan Hundt,M,SBD,MR-T3,105,Raw,2000,WI,94,192.5,200,207.5,207.5,102.5,110,112.5,112.5,-192.5,192.5,-195,192.5,512.5,,
4,Elijah Prill,M,SBD,MR-T3,105,Raw,2000,WI,97.35,167.5,182.5,190,190,92.5,-97.5,-97.5,92.5,197.5,212.5,-227.5,212.5,495,,
5,Nicholas Andersen,M,SBD,MR-T3,105,Raw,2001,WI,97.2,167.5,-175,-175,167.5,97.5,105,-107.5,105,182.5,192.5,-200,192.5,465,,
6,Stevn Dixon,M,SBD,MR-T3,105,Raw,2000,WI,98.6,142.5,150,155,155,70,85,-92.5,85,182.5,-227.5,-227.5,182.5,422.5,,
1,Carter Welch,M,SBD,MR-T3,120,Raw,2000,WI,119.35,252.5,265,275,275,145,157.5,165,165,257.5,270,280,280,720,,
2,Darien Crawford,M,SBD,MR-T3,120,Raw,2000,WI,119.85,212.5,-227.5,227.5,227.5,117.5,127.5,-135,127.5,202.5,217.5,227.5,227.5,582.5,,
3,Trent Zabel,M,SBD,MR-T3,120,Raw,1999,WI,107.4,167.5,177.5,-185,177.5,100,-107.5,107.5,107.5,222.5,235,-240,235,520,,
4,Justin Cieminski,M,SBD,MR-T3,120,Raw,2000,WI,108.8,-145,145,-157.5,145,125,135,-145,135,142.5,165,180,180,460,,
1,Jorge Montanez,M,SBD,MR-T3,120+,Raw,2001,WI,123.05,205,220,230,230,97.5,102.5,107.5,107.5,215,227.5,232.5,232.5,570,,
2,Alec Morris,M,SBD,MR-T3,120+,Raw,2000,WI,138.1,180,-190,190,190,125,132.5,-137.5,132.5,-215,220,230,230,552.5,,
3,Dylan Richer,M,SBD,MR-T3,120+,Raw,2000,WI,120.4,185,-190,-190,185,107.5,115,-120,115,180,187.5,190,190,490,,
DQ,Aidan Aragon,M,SBD,MR-T3,120+,Raw,2000,WI,128.7,-200,205,-212.5,205,90,-100,-100,90,-180,-185,-190,,,,
1,Brayden Londerville,M,SBD,M-T2,59,Single-ply,2002,WI,58.85,157.5,-167.5,-167.5,157.5,77.5,82.5,85,85,182.5,192.5,197.5,197.5,440,,
2,Dylan Gostomski,M,SBD,M-T2,59,Single-ply,2001,WI,58.5,150,160,-165,160,100,-105,-105,100,145,157.5,162.5,162.5,422.5,,
3,Tremane Beal,M,SBD,M-T2,59,Single-ply,2002,WI,55.4,122.5,-135,135,135,-82.5,82.5,-92.5,82.5,120,135,-145,135,352.5,,
1,Nicholas Johnson,M,SBD,M-T2,66,Single-ply,2001,WI,63.65,177.5,-187.5,187.5,187.5,85,92.5,97.5,97.5,190,200,-205,200,485,,
2,Logan Ladwig,M,SBD,M-T2,66,Single-ply,2001,WI,59.45,147.5,157.5,167.5,167.5,60,65,70,70,165,175,187.5,187.5,425,,
3,Forest Thoreson,M,SBD,M-T2,66,Single-ply,2001,WI,59.5,120,127.5,135,135,87.5,95,100,100,147.5,157.5,162.5,162.5,397.5,,
1,Dawson Stroik,M,SBD,M-T2,74,Single-ply,2001,WI,73.25,-250,-250,250,250,152.5,-160.5,-160.5,152.5,-227.5,227.5,-237.5,227.5,630,,
2,Evan Haugen,M,SBD,M-T2,74,Single-ply,2001,WI,72.45,175,185,-192.5,185,132.5,-140,-140,132.5,175,185,195,195,512.5,,
1,Shane Kierstyn,M,SBD,M-T2,93,Single-ply,2001,WI,88,227.5,235,240,240,157.5,-165,-165,157.5,262.5,272.5,285,285,682.5,,
2,Cory Wood,M,SBD,M-T2,93,Single-ply,2001,WI,88.85,222.5,230,235,235,102.5,-107.5,112.5,112.5,-220,220,225,225,572.5,,
1,Nicholas Purcell,M,SBD,M-T2,105,Single-ply,2001,WI,99.3,227.5,247.5,272.5,272.5,-137.5,137.5,145,145,227.5,250,-272.5,250,667.5,,
2,Alex Ochs,M,SBD,M-T2,105,Single-ply,2001,WI,104.45,-230,240,-252.5,240,160,175,182.5,182.5,212.5,222.5,-230,222.5,645,,
1,Blake Moseley,M,SBD,M-T2,120,Single-ply,2001,WI,106.25,-245,245,262.5,262.5,142.5,-147.5,-147.5,142.5,240,247.5,-255,247.5,652.5,,
2,Jaden Finley,M,SBD,M-T2,120,Single-ply,2001,WI,115.75,-210,-210,210,210,132.5,142.5,-150,142.5,255,-265,-265,255,607.5,,
1,Justin Rife,M,SBD,M-T3,59,Single-ply,2000,WI,58.3,137.5,-147.5,-157.5,137.5,-80,80,85,85,-170,170,-172.5,170,392.5,,
1,Peter Piparo,M,SBD,M-T3,74,Single-ply,2000,WI,69.95,190,197.5,205,205,107.5,112.5,115,115,205,-217.5,227.5,227.5,547.5,,
1,Nathaniel Ramsey,M,SBD,M-T3,83,Single-ply,2000,WI,77.8,202.5,-212.5,217.5,217.5,105,110,115,115,-205,205,215,215,547.5,,
1,Sam Bassan,M,SBD,M-T3,93,Single-ply,2001,WI,86.2,280,287.5,290,290,175,-182.5,182.5,182.5,272.5,277.5,-282.5,277.5,750,,
2,Dylan Wysocky,M,SBD,M-T3,93,Single-ply,2001,WI,88.65,-220,220,222.5,222.5,140,147.5,-150,147.5,210,220,-225,220,590,,
3,Case Riehl,M,SBD,M-T3,93,Single-ply,2000,WI,88.55,205,217.5,227.5,227.5,115,125,135,135,205,-217.5,-217.5,205,567.5,,
1,Devoni Albritton,M,SBD,M-T3,105,Single-ply,2001,WI,95,225,237.5,247.5,247.5,132.5,142.5,150,150,205,217.5,-270,217.5,615,,
DQ,Austin Payne,M,SBD,M-T3,105,Single-ply,2000,WI,102.15,237.5,250,255,255,-155,-155,-155,,260,-272.5,-272.5,260,,,
