Division,WeightClassKg,Place,Name,Team,BodyweightKg,Best3SquatKg,Best3BenchKg,Best3DeadliftKg,TotalKg,Equipment,Event,Sex
Boys,51.71,1,Micah Roberson,Mansfield Summit,46.49,77.11,40.82,86.18,204.12,Single-ply,SBD,M
Boys,55.79,1,Triston McDonald,Mansfield Timberview,55.34,122.47,74.84,129.27,326.59,Single-ply,SBD,M
Boys,55.79,2,Jonah Whitlock,Mansfield,55.11,111.13,56.7,115.67,283.5,Single-ply,SBD,M
Boys,59.87,1,Andrew Alcala,Mansfield Timberview,57.83,147.42,63.5,120.2,331.12,Single-ply,SBD,M
Boys,67.13,1,Tres Thomas,Mansfield Timberview,63.05,185.97,97.52,185.97,469.47,Single-ply,SBD,M
Boys,67.13,2,Joseph Terrance,Mansfield Timberview,66.22,179.17,113.4,170.1,462.66,Single-ply,SBD,M
Boys,67.13,3,De'Neric Pinson,Mansfield Lake Ridge,60.33,165.56,92.99,142.88,401.43,Single-ply,SBD,M
Boys,67.13,4,Jordan McKenzie,Midlothian,64.41,151.95,86.18,161.03,399.16,Single-ply,SBD,M
Boys,67.13,5,Edward Onwuka,Mansfield Timberview,67.13,147.42,97.52,147.42,392.36,Single-ply,SBD,M
Boys,67.13,6,Marquis Sanders,Mansfield Summit,63.5,145.15,81.65,147.42,374.21,Single-ply,SBD,M
Boys,67.13,7,Danny Sobrepena,Mansfield Lake Ridge,66.22,129.27,77.11,158.76,365.14,Single-ply,SBD,M
Boys,67.13,8,Cody Zell,Midlothian,65.32,136.08,68.04,142.88,347,Single-ply,SBD,M
Boys,67.13,9,Hayden Ivie,Mansfield,67.13,117.93,77.11,138.35,333.39,Single-ply,SBD,M
Boys,67.13,10,Kyler Manning,Mansfield Lake Ridge,66.9,108.86,68.04,108.86,285.76,Single-ply,SBD,M
Boys,67.13,DQ,Joseph Cartez,Mansfield Summit,66.68,149.69,,,,Single-ply,SBD,M
Boys,74.84,1,Xavier Tolliver,Mansfield Summit,73.94,181.44,104.33,195.04,480.81,Single-ply,SBD,M
Boys,74.84,2,Quinshone Bright,Cedar Hill,72.8,165.56,83.91,158.76,408.23,Single-ply,SBD,M
Boys,74.84,3,Brenden Allen,Mansfield Legacy,73.03,142.88,104.33,154.22,401.43,Single-ply,SBD,M
Boys,74.84,4,Joseph Neal,Mansfield Lake Ridge,69.4,122.47,65.77,142.88,331.12,Single-ply,SBD,M
Boys,74.84,5,Robert Oberreit,Mansfield Lake Ridge,70.53,70.31,58.97,106.59,235.87,Single-ply,SBD,M
Boys,74.84,DQ,Calvion Porter,Mansfield Summit,70.99,158.76,,,,Single-ply,SBD,M
Boys,82.1,1,Curtis Sanders,Cedar Hill,80.29,208.65,129.27,201.85,539.77,Single-ply,SBD,M
Boys,82.1,2,Samuel Adedire,Mansfield Summit,81.42,174.63,124.74,231.33,530.7,Single-ply,SBD,M
Boys,82.1,3,Kufre Upkong,Mansfield Summit,81.65,185.97,102.06,197.31,485.34,Single-ply,SBD,M
Boys,82.1,4,Kirk Lockhart,Cedar Hill,75.07,181.44,86.18,197.31,464.93,Single-ply,SBD,M
Boys,82.1,5,Dailyn Fuller,Cedar Hill,80.74,142.88,102.06,172.37,417.3,Single-ply,SBD,M
Boys,82.1,6,Chris Tryon,Midlothian,80.51,138.35,90.72,176.9,405.97,Single-ply,SBD,M
Boys,82.1,7,Amiri Cagnolatti,Mansfield Timberview,75.52,111.13,65.77,113.4,290.3,Single-ply,SBD,M
Boys,82.1,DQ,Justin O'Shields,Mansfield Legacy,81.42,167.83,,174.63,,Single-ply,SBD,M
Boys,89.81,1,Alec Omeke,Mansfield Timberview,89.36,167.83,131.54,204.12,503.49,Single-ply,SBD,M
Boys,89.81,2,Clay Robinon,Mansfield Legacy,87.32,170.1,120.2,208.65,498.95,Single-ply,SBD,M
Boys,89.81,3,Shayne Lawrence,Cedar Hill,83.46,181.44,99.79,176.9,458.13,Single-ply,SBD,M
Boys,89.81,4,Jason Karuma,Mansfield Timberview,86.64,176.9,86.18,195.04,458.13,Single-ply,SBD,M
Boys,89.81,5,Jason Pruitt,Cedar Hill,83.69,161.03,97.52,185.97,444.52,Single-ply,SBD,M
Boys,89.81,6,Tiger Barnes,Midlothian,82.78,154.22,97.52,188.24,439.98,Single-ply,SBD,M
Boys,89.81,7,Kaleb Tompkins,Midlothian,86.64,145.15,90.72,181.44,417.3,Single-ply,SBD,M
Boys,89.81,8,Asa Suggs,Cedar Hill,89.58,161.03,83.91,170.1,415.04,Single-ply,SBD,M
Boys,89.81,9,Trysten Smith,Duncanville,89.58,142.88,99.79,147.42,390.09,Single-ply,SBD,M
Boys,89.81,10,Fernando Romero,Mansfield Lake Ridge,87.09,90.72,61.23,136.08,288.03,Single-ply,SBD,M
Boys,99.79,1,Cody Pettit,Mansfield Summit,92.99,226.8,136.08,226.8,589.67,Single-ply,SBD,M
Boys,99.79,2,Devin Taylor,Cedar Hill,95.03,183.7,90.72,208.65,483.08,Single-ply,SBD,M
Boys,99.79,3,Xayvion Fuller,Duncanville,97.52,158.76,86.18,183.7,428.64,Single-ply,SBD,M
Boys,99.79,DQ,Alonzo Mendoza,Mansfield Lake Ridge,99.34,145.15,,,,Single-ply,SBD,M
Boys,109.77,1,Cameron Summerville,Mansfield Timberview,101.83,213.19,147.42,235.87,596.47,Single-ply,SBD,M
Boys,109.77,2,Prince Omorogbe,Mansfield Summit,101.6,229.06,138.35,226.8,594.21,Single-ply,SBD,M
Boys,109.77,3,Chris Boone,Duncanville,105.01,229.06,113.4,224.53,566.99,Single-ply,SBD,M
Boys,109.77,4,Tyriece Thomas,Cedar Hill,102.97,183.7,142.88,213.19,539.77,Single-ply,SBD,M
Boys,109.77,5,Jacob Carbjal,Midlothian,102.06,222.26,99.79,199.58,521.63,Single-ply,SBD,M
Boys,109.77,6,Curtis Schonhardt,Mansfield Summit,102.29,192.78,124.74,188.24,505.76,Single-ply,SBD,M
Boys,109.77,7,Charleston Craddock,Duncanville,103.87,204.12,102.06,192.78,498.95,Single-ply,SBD,M
Boys,109.77,8,Gedarius Cruz,Mansfield Timberview,106.82,158.76,104.33,181.44,444.52,Single-ply,SBD,M
Boys,109.77,9,Jalen Momoh,Mansfield Lake Ridge,102.06,167.83,99.79,174.63,442.25,Single-ply,SBD,M
Boys,109.77,10,Kamaurja Kenney,Duncanville,105.46,142.88,106.59,192.78,442.25,Single-ply,SBD,M
Boys,109.77,11,Hayden Fisher,Midlothian,101.15,136.08,90.72,145.15,371.95,Single-ply,SBD,M
Boys,109.77,12,Tyler Bird,Mansfield,100.02,117.93,79.38,124.74,322.05,Single-ply,SBD,M
Boys,124.74,1,Quanard Carter,Mansfield Summit,116.8,249.48,151.95,215.46,616.89,Single-ply,SBD,M
Boys,124.74,2,Blake Sheppard,Mansfield Timberview,112.49,213.19,149.69,215.46,578.33,Single-ply,SBD,M
Boys,124.74,3,Derrick Salter,Mansfield Summit,116.8,215.46,124.74,229.06,569.26,Single-ply,SBD,M
Boys,124.74,4,Avary Davis,Mansfield Summit,113.62,204.12,104.33,188.24,496.68,Single-ply,SBD,M
Boys,124.74,5,Dylan Cuffin,Midlothian,114.53,176.9,122.47,185.97,485.34,Single-ply,SBD,M
Boys,124.74,6,Marc Limon,Cedar Hill,116.8,195.04,102.06,142.88,439.98,Single-ply,SBD,M
Boys,124.74,7,Caleb Rogers,Mansfield Lake Ridge,119.29,158.76,88.45,167.83,415.04,Single-ply,SBD,M
Boys,124.74,8,Kody Lewis,Mansfield,113.4,142.88,81.65,185.97,410.5,Single-ply,SBD,M
Boys,124.74,9,Kemon Heavery,Duncanville,117.71,145.15,92.99,147.42,385.55,Single-ply,SBD,M
Boys,124.74,DQ,Kenneth Hutchison,Mansfield Lake Ridge,117.25,,,,,Single-ply,SBD,M
Boys,124.74+,1,Josh Gilliam,Mansfield Timberview,150.14,272.16,154.22,226.8,653.17,Single-ply,SBD,M
Boys,124.74+,2,Anthony Harris,Mansfield Timberview,170.1,208.65,106.59,204.12,519.36,Single-ply,SBD,M
Boys,124.74+,3,Jordan Phillips,Duncanville,153.99,206.38,115.67,195.04,517.1,Single-ply,SBD,M
Boys,124.74+,4,Charles Munoz,Duncanville,127.23,183.7,102.06,219.99,505.76,Single-ply,SBD,M
Boys,124.74+,5,Matthew Pierce,Mansfield Summit,126.1,192.78,106.59,197.31,496.68,Single-ply,SBD,M
Boys,124.74+,6,Marshall Hodges,Midlothian,129.27,170.1,133.81,172.37,476.27,Single-ply,SBD,M
Boys,124.74+,7,Xavier Ross,Cedar Hill,129.5,158.76,120.2,192.78,471.74,Single-ply,SBD,M
Boys,124.74+,8,Joshua Qualls,Duncanville,134.49,190.51,83.91,195.04,469.47,Single-ply,SBD,M
Boys,124.74+,9,Kendall Johnson,Duncanville,126.55,188.24,92.99,151.95,433.18,Single-ply,SBD,M
Boys,124.74+,10,Devin Thompson,Duncanville,129.05,185.97,83.91,145.15,415.04,Single-ply,SBD,M
Boys,124.74+,DQ,Joe Cisneros,Midlothian,132,185.97,131.54,,,Single-ply,SBD,M
