Division,WeightClassKg,Place,Name,Team,BodyweightKg,Best3SquatKg,Best3BenchKg,Best3DeadliftKg,TotalKg,Equipment,Event,Sex
Boys,55.79,1,Josh Bedolla,Elgin,54.88,142.88,92.99,165.56,401.43,Single-ply,SBD,M
Boys,55.79,2,Shawn Pittman,Thrall,53.52,111.13,61.23,122.47,294.84,Single-ply,SBD,M
Boys,59.87,1,Alfredo Moreno,Weimar,56.7,131.54,83.91,145.15,360.61,Single-ply,SBD,M
Boys,59.87,2,Dominique Ubias,Elgin,58.06,133.81,72.57,145.15,351.53,Single-ply,SBD,M
Boys,59.87,3,Justin Gonzalez,Bastrop,59.51,111.13,61.23,120.2,292.57,Single-ply,SBD,M
Boys,67.13,1,Daniel Iselt,Giddings,64.86,195.04,117.93,183.7,496.68,Single-ply,SBD,M
Boys,67.13,2,Brandon Batot,Bastrop,61.51,156.49,70.31,158.76,385.55,Single-ply,SBD,M
Boys,67.13,3,Jonas Tejeda,Elgin,62.6,113.4,77.11,147.42,337.93,Single-ply,SBD,M
Boys,67.13,4,Giovanni Soto,Elgin,64.86,129.27,65.77,142.88,337.93,Single-ply,SBD,M
Boys,67.13,5,Collin Payne,Bastrop,66.68,129.27,79.38,129.27,337.93,Single-ply,SBD,M
Boys,67.13,6,Colin Schuetze,Weimar,65.32,95.25,56.7,106.59,258.55,Single-ply,SBD,M
Boys,67.13,DQ,Jovani Trejo,Bellville,66.68,142.88,,142.88,,Single-ply,SBD,M
Boys,74.84,1,Alex Kyner,Thrall,71.67,195.04,131.54,204.12,530.7,Single-ply,SBD,M
Boys,74.84,2,Orlando Perez,Elgin,71.67,183.7,122.47,192.78,498.95,Single-ply,SBD,M
Boys,74.84,3,Alec Behrendt,Thrall,73.03,158.76,113.4,163.29,435.45,Single-ply,SBD,M
Boys,74.84,4,Dalton Thomas,Bastrop,69.58,165.56,83.91,158.76,408.23,Single-ply,SBD,M
Boys,74.84,5,Jt Marek,Bellville,68.49,158.76,97.52,147.42,403.7,Single-ply,SBD,M
Boys,74.84,6,Jaric Crider,Bellville,71.21,147.42,83.91,147.42,378.75,Single-ply,SBD,M
Boys,74.84,7,Cade Courtemanche,Smithville,74.39,142.88,90.72,140.61,374.21,Single-ply,SBD,M
Boys,82.1,8,Ben Carmean,Bellville,75.02,136.08,83.91,136.08,356.07,Single-ply,SBD,M
Boys,74.84,DQ,Joe Verdi,Bastrop,73.12,,102.06,172.37,,Single-ply,SBD,M
Boys,82.1,1,Christian Garcia,Bastrop,80.65,158.76,99.79,183.7,442.25,Single-ply,SBD,M
Boys,82.1,2,Daniel Anderson,Elgin,78.93,158.76,102.06,161.03,421.84,Single-ply,SBD,M
Boys,82.1,3,Chris Lewis,Smithville,79.38,170.1,79.38,154.22,403.7,Single-ply,SBD,M
Boys,82.1,4,Frank Trevino,Smithville,78.02,129.27,74.84,142.88,347,Single-ply,SBD,M
Boys,82.1,5,Clint Ables,Bellville,77.11,104.33,68.04,127.01,299.37,Single-ply,SBD,M
Boys,89.81,DQ,Jaedon McGee,Bastrop,82.19,,88.45,136.08,,Single-ply,SBD,M
Boys,82.1,DQ,Caleb Bower,Smithville,78.93,147.42,,158.76,,Single-ply,SBD,M
Boys,82.1,DQ,Drayton Chesser,Weimar,80.74,129.27,,142.88,,Single-ply,SBD,M
Boys,89.81,1,Noe Salazar,Bastrop,88.45,190.51,106.59,206.38,503.49,Single-ply,SBD,M
Boys,89.81,2,Cade Hurta,Smithville,87.09,183.7,117.93,181.44,483.08,Single-ply,SBD,M
Boys,89.81,3,A Rosales,Weimar,86.64,145.15,108.86,142.88,396.89,Single-ply,SBD,M
Boys,89.81,4,Fentrese Milligan,Elgin,84.82,151.95,83.91,158.76,394.63,Single-ply,SBD,M
Boys,89.81,5,Cameron Luna,Giddings,84.19,147.42,86.18,131.54,365.14,Single-ply,SBD,M
Boys,89.81,6,Sam Weiser,Bellville,83.46,136.08,86.18,140.61,362.87,Single-ply,SBD,M
Boys,89.81,DQ,Blake Strieder,Bellville,84.82,163.29,,151.95,,Single-ply,SBD,M
Boys,89.81,DQ,Duane Howard,Bastrop,83.64,,102.06,,,Single-ply,SBD,M
Boys,89.81,DQ,Jarrod Hinze,Weimar,83.01,,,104.33,,Single-ply,SBD,M
Boys,99.79,1,Matthew Sumbillo,Thrall,98.88,151.95,106.59,156.49,415.04,Single-ply,SBD,M
Boys,99.79,2,Lex Leibfried,Bellville,97.52,158.76,102.06,140.61,401.43,Single-ply,SBD,M
Boys,99.79,DQ,Ford Gassaway,Bastrop,98.97,,,,,Single-ply,SBD,M
Boys,109.77,1,Zachery Handrick,Giddings,108.86,210.92,142.88,204.12,557.92,Single-ply,SBD,M
Boys,109.77,2,Armando Sias,Smithville,103.42,195.04,145.15,185.97,526.17,Single-ply,SBD,M
Boys,109.77,3,Hunter Gordon,Elgin,105.23,174.63,111.13,195.04,480.81,Single-ply,SBD,M
Boys,109.77,4,Jose Nino,Weimar,106.14,154.22,108.86,176.9,439.98,Single-ply,SBD,M
Boys,109.77,5,Cameron King,Bastrop,101.97,167.83,81.65,154.22,403.7,Single-ply,SBD,M
Boys,109.77,6,Dante Maxwell,Thrall,101.6,142.88,111.13,127.01,381.02,Single-ply,SBD,M
Boys,109.77,DQ,Vincent Gallegos,Giddings,103.78,161.03,,,,Single-ply,SBD,M
Boys,109.77,DQ,Justen Williams,Bellville,102.97,158.76,,149.69,,Single-ply,SBD,M
Boys,109.77,DQ,Josh Ficklin,Elgin,109.32,,120.2,179.17,,Single-ply,SBD,M
Boys,124.74,1,Jesse Tamez,Elgin,110.13,226.8,106.59,183.7,517.1,Single-ply,SBD,M
Boys,124.74,2,Julian Namken,Giddings,118.3,158.76,113.4,163.29,435.45,Single-ply,SBD,M
Boys,124.74,3,Mickey Trevino,Smithville,111.58,161.03,106.59,158.76,426.38,Single-ply,SBD,M
Boys,124.74,4,Juan Ramirez,Giddings,119.84,154.22,99.79,163.29,417.3,Single-ply,SBD,M
Boys,124.74,5,Michael Sims,Weimar,112.04,124.74,68.04,156.49,349.27,Single-ply,SBD,M
Boys,124.74+,1,James Nino,Weimar,127.46,181.44,122.47,185.97,489.88,Single-ply,SBD,M
Boys,,NS,J. Rosales,Weimar,,,,,,Single-ply,SBD,M
Boys,,NS,Colton Carver,Thrall,,,,,,Single-ply,SBD,M
Boys,,NS,Jake Dawson,Smithville,,,,,,Single-ply,SBD,M
Boys,,NS,Curtis Sablatura,Smithville,,,,,,Single-ply,SBD,M
Boys,,NS,Chris Blaschke,Smithville,,,,,,Single-ply,SBD,M
Boys,,NS,Esidro Garza,Thrall,,,,,,Single-ply,SBD,M
Boys,,NS,Lane Saunders,Smithville,,,,,,Single-ply,SBD,M
Boys,,NS,Drew Jones,Elgin,,,,,,Single-ply,SBD,M
Boys,,NS,Cristian Zavalla,Giddings,,,,,,Single-ply,SBD,M
Boys,,NS,Shawn Goldstein,Giddings,,,,,,Single-ply,SBD,M
Boys,,NS,Kellen Carter,Giddings,,,,,,Single-ply,SBD,M
Boys,,NS,Joseph Mendoza,Giddings,,,,,,Single-ply,SBD,M
