Division,WeightClassKg,Place,Name,Team,BodyweightKg,Best3SquatKg,Best3BenchKg,Best3DeadliftKg,TotalKg,Equipment,Event,Sex
Boys,51.71,1,Enoch Solis,Edinburg Economedes,49.53,204.12,113.4,181.44,498.95,Single-ply,SBD,M
Boys,51.71,2,Esteban Urquieta,Corpus Christi Tuloso-Midway,50.26,190.51,92.99,197.31,480.81,Single-ply,SBD,M
Boys,51.71,3,Everardo Garcia,Roma,51.17,183.7,95.25,181.44,460.4,Single-ply,SBD,M
Boys,51.71,4,John Ortega,Mercedes,50.89,176.9,102.06,176.9,455.86,Single-ply,SBD,M
Boys,51.71,5,Mike Puente,PSJA Southwest,51.62,161.03,92.99,174.63,428.64,Single-ply,SBD,M
Boys,51.71,6,Damian Gonzalez,Roma,51.62,158.76,97.52,172.37,428.64,Single-ply,SBD,M
Boys,51.71,7,Chris Medina,Brownsville Hanna,51.17,161.03,88.45,165.56,415.04,Single-ply,SBD,M
Boys,51.71,8,Erik Estrella,Brownsville Lopez,50.62,163.29,81.65,163.29,408.23,Single-ply,SBD,M
Boys,51.71,9,Felipe Garza,McAllen,50.44,149.69,99.79,147.42,396.89,Single-ply,SBD,M
Boys,51.71,10,Fernando Gonzalez,McAllen Memorial,51.26,140.61,95.25,158.76,394.63,Single-ply,SBD,M
Boys,51.71,11,Isaac Moreno,Castroville Medina Valley,51.71,158.76,79.38,156.49,394.63,Single-ply,SBD,M
Boys,51.71,12,Luis Cavazos,Donna North,51.07,156.49,88.45,142.88,387.82,Single-ply,SBD,M
Boys,51.71,13,Rudy Sanchez,Somerset,51.44,129.27,83.91,174.63,387.82,Single-ply,SBD,M
Boys,51.71,14,Joe Gaytan,Donna,49.99,154.22,74.84,156.49,385.55,Single-ply,SBD,M
Boys,51.71,DQ,Tristan Villareal,Donna North,51.07,142.88,79.38,,,Single-ply,SBD,M
Boys,55.79,1,Jose Soto,Edinburg Economedes,55.43,215.46,120.2,190.51,526.17,Single-ply,SBD,M
Boys,55.79,2,Adrian Garcia,Edinburg Economedes,54.98,197.31,102.06,183.7,483.08,Single-ply,SBD,M
Boys,55.79,3,Kevin Trevino,McAllen Memorial,55.79,172.37,120.2,188.24,480.81,Single-ply,SBD,M
Boys,55.79,4,Bryan Loera,Brownsville Pace,55.07,174.63,113.4,185.97,474,Single-ply,SBD,M
Boys,55.79,5,Chase Chapa,Port Lavaca Calhoun,53.89,170.1,104.33,197.31,471.74,Single-ply,SBD,M
Boys,55.79,6,Marc Sedillo,San Benito,55.7,183.7,97.52,190.51,471.74,Single-ply,SBD,M
Boys,55.79,7,Javier Farias,Mission,54.7,176.9,77.11,199.58,453.59,Single-ply,SBD,M
Boys,55.79,8,Tyrone Irizarry,Brownsville Lopez,55.07,165.56,92.99,192.78,451.32,Single-ply,SBD,M
Boys,55.79,9,Jesus Puente,La Joya Palmview,55.52,174.63,102.06,172.37,449.06,Single-ply,SBD,M
Boys,55.79,10,Eric Camarillo,Edinburg Economedes,55.16,163.29,95.25,188.24,446.79,Single-ply,SBD,M
Boys,55.79,11,Fred Mares,Edinburg,54.16,151.95,95.25,183.7,430.91,Single-ply,SBD,M
Boys,55.79,12,Patricio Chavez,Mission Sharyland,54.52,174.63,81.65,174.63,430.91,Single-ply,SBD,M
Boys,55.79,13,Joe Barberena,PSJA North,54.79,174.63,95.25,161.03,430.91,Single-ply,SBD,M
Boys,55.79,DQ,Jeremiah Zelaya,Victoria East,55.07,213.19,102.06,,,Single-ply,SBD,M
Boys,55.79,NS,Mario Perez,Weslaco,,,,,,Single-ply,SBD,M
Boys,59.87,1,Jose Salinas,Brownsville Pace,58.88,222.26,111.13,215.46,548.85,Single-ply,SBD,M
Boys,59.87,2,Fabian Bazan,Castroville Medina Valley,59.87,206.38,117.93,215.46,539.77,Single-ply,SBD,M
Boys,59.87,3,AJ Trevino,Edinburg,59.06,192.78,136.08,181.44,510.29,Single-ply,SBD,M
Boys,59.87,4,Jakob Cortez,Port Lavaca Calhoun,59.33,208.65,97.52,195.04,501.22,Single-ply,SBD,M
Boys,59.87,5,Josh Gonzalez,Weslaco East,59.87,185.97,108.86,204.12,498.95,Single-ply,SBD,M
Boys,59.87,6,Justin Berner,Edinburg North,59.42,197.31,129.27,156.49,483.08,Single-ply,SBD,M
Boys,59.87,7,Josh Bazan,Castroville Medina Valley,59.51,190.51,102.06,183.7,476.27,Single-ply,SBD,M
Boys,59.87,8,Diego Morales,Castroville Medina Valley,59.42,181.44,102.06,179.17,462.66,Single-ply,SBD,M
Boys,59.87,DQ,Rolando Aguilar,Laredo United,59.87,,,,,Single-ply,SBD,M
Boys,59.87,DQ,San Juan Rodriguez,Edcouch-Elsa,58.42,174.63,,,,Single-ply,SBD,M
Boys,59.87,NS,Fernando Martinez,Weslaco,,,,,,Single-ply,SBD,M
Boys,59.87,NS,Alex Rivera,Brownsville Lopez,,,,,,Single-ply,SBD,M
Boys,59.87,DQ,Hugo Rodriguez,McAllen,59.06,195.04,106.59,,,Single-ply,SBD,M
Boys,67.13,1,Ricky Ortiz,Edcouch-Elsa,66.86,276.69,170.1,260.82,707.6,Single-ply,SBD,M
Boys,67.13,2,Julian Rico,Somerset,66.13,222.26,149.69,210.92,582.87,Single-ply,SBD,M
Boys,67.13,3,Hugo Gomez,Edinburg North,66.86,229.06,142.88,204.12,576.06,Single-ply,SBD,M
Boys,67.13,4,Jose Porras,Brownsville Hanna,66.86,217.72,117.93,235.87,571.53,Single-ply,SBD,M
Boys,67.13,5,Jose Serna,Weslaco East,66.68,219.99,129.27,213.19,562.45,Single-ply,SBD,M
Boys,67.13,6,Daniel Lozano,Weslaco,66.59,213.19,151.95,192.78,557.92,Single-ply,SBD,M
Boys,67.13,7,Javi Castro,Brownsville Lopez,66.5,224.53,120.2,208.65,553.38,Single-ply,SBD,M
Boys,67.13,8,Corbin Garza,Los Fresnos,65.32,204.12,129.27,210.92,544.31,Single-ply,SBD,M
Boys,67.13,9,Joel Huerta,San Antonio East Central,66.04,222.26,131.54,190.51,544.31,Single-ply,SBD,M
Boys,67.13,10,Dylan Bazarte,Mission Sharyland,65.32,208.65,108.86,213.19,530.7,Single-ply,SBD,M
Boys,67.13,11,Josh Valenzuela,Castroville Medina Valley,66.5,210.92,124.74,179.17,514.83,Single-ply,SBD,M
Boys,67.13,DQ,Leo Cuellar,Pharr Valley View,66.32,,,,,Single-ply,SBD,M
Boys,67.13,DQ,Mario Marquez,Mission,64.14,224.53,106.59,,,Single-ply,SBD,M
Boys,67.13,DQ,Mario Cabrera,Somerset,65.32,192.78,,,,Single-ply,SBD,M
Boys,74.84,1,Christian Gamez,Brownsville Lopez,73.39,272.16,167.83,210.92,650.91,Single-ply,SBD,M
Boys,74.84,2,Ozzy Garza,PSJA Southwest,74.12,240.4,154.22,242.67,637.3,Single-ply,SBD,M
Boys,74.84,3,Marcus Ysaguirre,Donna,72.3,258.55,136.08,235.87,630.49,Single-ply,SBD,M
Boys,74.84,4,Christian Avila,Weslaco East,74.66,249.48,131.54,247.21,628.23,Single-ply,SBD,M
Boys,74.84,5,Matthew Alvarado,Weslaco,74.57,240.4,142.88,231.33,614.62,Single-ply,SBD,M
Boys,74.84,6,Roman Garay,Brownsville Hanna,73.66,226.8,127.01,258.55,612.35,Single-ply,SBD,M
Boys,74.84,7,Coy Burrows,Sharyland Pioneer,74.21,242.67,154.22,215.46,612.35,Single-ply,SBD,M
Boys,74.84,8,Javier Pichardo,PSJA,74.84,226.8,131.54,240.4,598.74,Single-ply,SBD,M
Boys,74.84,9,Andrew Solis,Edinburg Vela,74.12,233.6,151.95,208.65,594.21,Single-ply,SBD,M
Boys,74.84,10,Robert Farias,Mission Sharyland,73.21,254.01,133.81,204.12,591.94,Single-ply,SBD,M
Boys,74.84,11,Noah Martinez,Victoria West,72.21,231.33,142.88,215.46,589.67,Single-ply,SBD,M
Boys,74.84,12,Fabian Rodriguez,McAllen Memorial,74.21,226.8,140.61,222.26,589.67,Single-ply,SBD,M
Boys,74.84,13,Anthony Elvir,Los Fresnos,74.3,215.46,145.15,229.06,589.67,Single-ply,SBD,M
Boys,82.1,1,Imanol Ordonez,Weslaco East,81.74,272.16,185.97,294.84,752.96,Single-ply,SBD,M
Boys,82.1,2,Leif Griffin,San Antonio Southwest,80.1,292.57,145.15,244.94,682.66,Single-ply,SBD,M
Boys,82.1,3,Cristian Maldonado,Los Fresnos,81.47,244.94,149.69,260.82,655.44,Single-ply,SBD,M
Boys,82.1,4,Christian Cortina,Donna North,80.92,244.94,136.08,244.94,625.96,Single-ply,SBD,M
Boys,82.1,5,Gavin Vara,Uvalde,79.2,242.67,120.2,251.74,614.62,Single-ply,SBD,M
Boys,82.1,6,Alter Arenas,PSJA North,78.93,244.94,136.08,231.33,612.35,Single-ply,SBD,M
Boys,82.1,7,Pablo Iracheta,Brownsville Pace,80.56,240.4,151.95,219.99,612.35,Single-ply,SBD,M
Boys,82.1,8,Alonso Requena,Los Fresnos,81.37,233.6,149.69,229.06,612.35,Single-ply,SBD,M
Boys,82.1,9,Sebastian Sanchez,Mission Sharyland,81.56,247.21,131.54,233.6,612.35,Single-ply,SBD,M
Boys,82.1,10,Jonathan Navarro,Edinburg Vela,78.56,229.06,151.95,219.99,601.01,Single-ply,SBD,M
Boys,82.1,11,Jacob Perez,Edcouch-Elsa,81.37,240.4,120.2,233.6,594.21,Single-ply,SBD,M
Boys,82.1,DQ,Damian Gutierrez,Roma,80.47,217.72,158.76,,,Single-ply,SBD,M
Boys,89.81,1,Obed Hernandez,Sharyland Pioneer,89.72,299.37,172.37,281.23,752.96,Single-ply,SBD,M
Boys,89.81,2,Mario Reyna,Edinburg Economedes,88.99,283.5,181.44,249.48,714.41,Single-ply,SBD,M
Boys,89.81,3,Jose Guzman,Donna,87.72,283.5,172.37,249.48,705.34,Single-ply,SBD,M
Boys,89.81,4,Damian Hinojosa,Corpus Christi Calallen,89.18,272.16,192.78,235.87,700.8,Single-ply,SBD,M
Boys,89.81,5,Brandon Esteves,Brownsville Hanna,88.9,265.35,158.76,272.16,696.26,Single-ply,SBD,M
Boys,89.81,6,Sylias Montgomery,Port Lavaca Calhoun,88.09,272.16,136.08,272.16,680.39,Single-ply,SBD,M
Boys,89.81,7,Edward Zaragoza,San Antonio Memorial,88.72,256.28,167.83,249.48,673.58,Single-ply,SBD,M
Boys,89.81,8,Jonathan Oviedo,Victoria East,88.27,285.76,167.83,217.72,671.32,Single-ply,SBD,M
Boys,89.81,9,Aaron Alvarez,Edinburg Vela,88.36,283.5,165.56,219.99,669.05,Single-ply,SBD,M
Boys,89.81,10,Devon Soto,Seguin,87.27,267.62,190.51,208.65,666.78,Single-ply,SBD,M
Boys,89.81,11,Sebastian Buitron,McAllen,89.54,272.16,136.08,256.28,664.51,Single-ply,SBD,M
Boys,89.81,12,Edward Kierstead,San Antonio Southwest,87.54,256.28,167.83,231.33,655.44,Single-ply,SBD,M
Boys,89.81,13,Robert Garza,Los Fresnos,87.91,249.48,147.42,256.28,653.17,Single-ply,SBD,M
Boys,89.81,14,Aaron Alvarez,PSJA North,85.64,258.55,154.22,231.33,644.1,Single-ply,SBD,M
Boys,89.81,15,Elias Torres,Somerset,88.27,258.55,167.83,208.65,635.03,Single-ply,SBD,M
Boys,89.81,16,Simon Fernandez,Pharr Valley View,88.54,251.74,145.15,238.14,635.03,Single-ply,SBD,M
Boys,89.81,17,Michael Gonzalez,Somerset,88.81,256.28,165.56,213.19,635.03,Single-ply,SBD,M
Boys,89.81,18,Larry Strickland,Weslaco,84.64,256.28,115.67,231.33,603.28,Single-ply,SBD,M
Boys,89.81,DQ,Matthew Ortiz,Los Fresnos,89.27,,,,,Single-ply,SBD,M
Boys,89.81,DQ,Fred Cardenas,Weslaco East,89.54,256.28,165.56,,,Single-ply,SBD,M
Boys,89.81,NS,Oscar Mendoza,La Joya Palmview,,,,,,Single-ply,SBD,M
Boys,89.81,NS,Jonathon Buentello,Brownsville Lopez,,,,,,Single-ply,SBD,M
Boys,89.81,DQ,Jaime Rios,Port Lavaca Calhoun,88.9,260.82,158.76,,,Single-ply,SBD,M
Boys,99.79,1,Joseph Bueno,Somerset,97.98,312.98,192.78,285.76,791.52,Single-ply,SBD,M
Boys,99.79,2,Nate Vallejo,Edcouch-Elsa,97.43,272.16,185.97,260.82,718.94,Single-ply,SBD,M
Boys,99.79,3,Ryan Perales,Donna,93.89,272.16,181.44,213.19,666.78,Single-ply,SBD,M
Boys,99.79,4,Frank Coronado,Edinburg,97.61,254.01,156.49,247.21,657.71,Single-ply,SBD,M
Boys,99.79,5,Jose Raya,Brownsville Hanna,98.88,276.69,149.69,231.33,657.71,Single-ply,SBD,M
Boys,99.79,6,Rogelio Rada,Donna,98.61,231.33,145.15,249.48,625.96,Single-ply,SBD,M
Boys,99.79,7,Matt Vela,Weslaco East,93.26,233.6,154.22,226.8,614.62,Single-ply,SBD,M
Boys,99.79,DQ,Antonio Banda,Donna,98.43,,,,,Single-ply,SBD,M
Boys,99.79,DQ,Juan Flores,PSJA,97.79,294.84,,,,Single-ply,SBD,M
Boys,99.79,DQ,Tony Gandaria,Donna North,96.07,240.4,167.83,,,Single-ply,SBD,M
Boys,99.79,DQ,Julian Hernandez,McAllen Memorial,92.99,,,,,Single-ply,SBD,M
Boys,99.79,NS,Eric Gutierrez,Mission,,,,,,Single-ply,SBD,M
Boys,109.77,1,Jacob Banda,Weslaco East,108.23,317.51,199.58,306.17,823.27,Single-ply,SBD,M
Boys,109.77,2,Cody Alvarado,Edcouch-Elsa,108.5,317.51,204.12,299.37,821,Single-ply,SBD,M
Boys,109.77,3,Lazaro Patlan,Edinburg,105.51,297.1,176.9,235.87,709.87,Single-ply,SBD,M
Boys,109.77,4,Aaron Vasquez,Victoria East,106.78,283.5,174.63,231.33,689.46,Single-ply,SBD,M
Boys,109.77,5,Shayne Hernandez,Edinburg,105.69,265.35,165.56,249.48,680.39,Single-ply,SBD,M
Boys,109.77,6,Fabian Martinez,Donna North,106.23,285.76,151.95,242.67,680.39,Single-ply,SBD,M
Boys,109.77,7,Enrique Guajardo,Pharr Valley View,106.87,274.42,154.22,251.74,680.39,Single-ply,SBD,M
Boys,109.77,8,Jonathan De Los Reyes,Brownsville Hanna,108.14,260.82,158.76,260.82,680.39,Single-ply,SBD,M
Boys,109.77,9,Spencer Payne,Castroville Medina Valley,108.14,272.16,170.1,238.14,680.39,Single-ply,SBD,M
Boys,109.77,10,Elijah Cortez-Hernandez,Uvalde,103.06,283.5,149.69,233.6,666.78,Single-ply,SBD,M
Boys,109.77,DQ,Daniel Domian,McAllen Memorial,106.23,260.82,179.17,,,Single-ply,SBD,M
Boys,109.77,DQ,Gabriel Salinas,Donna,106.87,,,,,Single-ply,SBD,M
Boys,124.74,1,Isai Martinez,Weslaco East,124.28,306.17,215.46,285.76,807.39,Single-ply,SBD,M
Boys,124.74,2,Juan Rivas,La Joya Palmview,122.92,333.39,215.46,256.28,805.13,Single-ply,SBD,M
Boys,124.74,3,Imanol Rodriguez,Edcouch-Elsa,121.47,306.17,204.12,244.94,755.23,Single-ply,SBD,M
Boys,124.74,4,Lorenzo Villarreal,Los Fresnos,121.02,285.76,195.04,272.16,752.96,Single-ply,SBD,M
Boys,124.74,5,Julio Hernandez,Brownsville Pace,123.01,306.17,176.9,267.62,750.7,Single-ply,SBD,M
Boys,124.74,6,Christopher Vargas,San Benito,122.11,288.03,172.37,251.74,712.14,Single-ply,SBD,M
Boys,124.74,7,Lee Roy Carrizalez,PSJA Memorial,122.74,306.17,158.76,247.21,712.14,Single-ply,SBD,M
Boys,124.74,8,Juan LeBron,Port Lavaca Calhoun,123.01,288.03,151.95,272.16,712.14,Single-ply,SBD,M
Boys,124.74,9,Adrian Fuentes,Weslaco,112.58,272.16,174.63,258.55,705.34,Single-ply,SBD,M
Boys,124.74,10,Steven Alvarez,Mission,122.02,285.76,172.37,244.94,703.07,Single-ply,SBD,M
Boys,124.74,11,Joshua Williams,Mission Sharyland,123.2,272.16,167.83,263.08,703.07,Single-ply,SBD,M
Boys,124.74,12,Noah Nelson,Victoria West,123.1,308.44,176.9,215.46,700.8,Single-ply,SBD,M
Boys,124.74,13,Sergio Reyna,McAllen Memorial,122.56,303.91,176.9,215.46,696.26,Single-ply,SBD,M
Boys,124.74,14,Francisco Uhl,San Antonio Southwest,114.12,240.4,188.24,249.48,678.12,Single-ply,SBD,M
Boys,124.74,NS,Javy Soriano,Los Fresnos,,,,,,Single-ply,SBD,M
Boys,124.74+,1,Sebastian Garcia,Brownsville Hanna,146.96,362.87,215.46,254.01,832.34,Single-ply,SBD,M
Boys,124.74+,2,Justin Garza,Brownsville Rivera,134.35,362.87,172.37,283.5,818.73,Single-ply,SBD,M
Boys,124.74+,3,Jose Chavez,La Joya,179.17,362.87,174.63,265.35,802.86,Single-ply,SBD,M
Boys,124.74+,4,Daniel Roque,Weslaco East,158.76,326.59,185.97,265.35,777.91,Single-ply,SBD,M
Boys,124.74+,5,Sam Perez,Weslaco,131,340.19,195.04,226.8,762.04,Single-ply,SBD,M
Boys,124.74+,6,Leo Madera,Port Lavaca Calhoun,145.69,317.51,176.9,254.01,748.43,Single-ply,SBD,M
Boys,124.74+,7,Zack Clemons,Mission,130.91,285.76,185.97,263.08,734.82,Single-ply,SBD,M
Boys,124.74+,8,Bryan Aguillon,McAllen Rowe,136.8,297.1,165.56,265.35,728.02,Single-ply,SBD,M
Boys,124.74+,9,Josue Vaquera,PSJA Memorial,148.87,292.57,174.63,258.55,725.75,Single-ply,SBD,M
Boys,124.74+,10,Joel Irachta,PSJA North,136.17,297.1,172.37,226.8,696.26,Single-ply,SBD,M
Boys,124.74+,DQ,Frank Saucedo,PSJA North,138.71,,,,,Single-ply,SBD,M
Boys,124.74+,NS,Joel Chapa,Brownsville Lopez,,,,,,Single-ply,SBD,M
