Division,WeightClassKg,Place,Name,Team,BodyweightKg,Best3SquatKg,Best3BenchKg,Best3DeadliftKg,TotalKg,Equipment,Event,Sex
Boys,67.13,1,Nicolas Wade,Dallas Highland Park,60.1,104.33,61.23,127.01,292.57,Single-ply,SBD,M
Boys,59.87,2,Jude Mitchell,Plano John Paul II,58.24,95.25,65.77,124.74,285.76,Single-ply,SBD,M
Boys,67.13,1,Nick Kennedy,Oakridge School,63.46,136.08,74.84,127.01,337.93,Single-ply,SBD,M
Boys,67.13,2,D. Brown,Lancaster,63.5,92.99,65.77,129.27,288.03,Single-ply,SBD,M
Boys,67.13,3,Braden Faulk,Dallas Highland Park,67.09,104.33,54.43,124.74,283.5,Single-ply,SBD,M
Boys,67.13,DQ,Alfred Lakendrick,Lancaster,62.01,106.59,,113.4,,Single-ply,SBD,M
Boys,74.84,1,Jared Link,Dallas Highland Park,70.17,120.2,63.5,156.49,340.19,Single-ply,SBD,M
Boys,74.84,2,Cade Wooten,Oakridge School,68.31,136.08,58.97,142.88,337.93,Single-ply,SBD,M
Boys,74.84,3,Matthew Minto-Sparks,Dallas Highland Park,74.03,113.4,68.04,136.08,317.51,Single-ply,SBD,M
Boys,74.84,4,Lee Gaines,Oakridge School,70.58,106.59,38.56,122.47,267.62,Single-ply,SBD,M
Boys,82.1,1,Hayden Schneiders,Dallas Highland Park,79.51,138.35,92.99,156.49,387.82,Single-ply,SBD,M
Boys,82.1,2,Andrew White,Oakridge School,75.57,97.52,61.23,127.01,285.76,Single-ply,SBD,M
Boys,82.1,3,Marco Reyes,Quinlan Ford,81.69,61.23,52.16,90.72,204.12,Single-ply,SBD,M
Boys,89.81,1,Noor Wafayee,Oakridge School,87.04,127.01,79.38,147.42,353.8,Single-ply,SBD,M
Boys,89.81,2,Nick Tran,Oakridge School,88.18,81.65,56.7,113.4,251.74,Single-ply,SBD,M
Boys,99.79,1,Trevor Dyson,Lancaster,93.94,133.81,102.06,165.56,401.43,Single-ply,SBD,M
Boys,99.79,2,Brian Taylor,Lancaster,97.3,138.35,92.99,165.56,396.89,Single-ply,SBD,M
Boys,99.79,3,Javier Ultera,Quinlan Ford,93.21,90.72,70.31,117.93,278.96,Single-ply,SBD,M
Boys,99.79,4,Jonathan Bates,Plano John Paul II,95.62,124.74,72.57,72.57,269.89,Single-ply,SBD,M
Boys,109.77,1,Jack Sides,Dallas Highland Park,103.6,145.15,90.72,151.95,387.82,Single-ply,SBD,M
Boys,109.77,2,David Valadez,Dallas Highland Park,103.28,102.06,79.38,102.06,283.5,Single-ply,SBD,M
Boys,124.74+,1,Raiquan Bennett,Lancaster,124.96,145.15,102.06,136.08,383.29,Single-ply,SBD,M
Boys,,NS,Tommy Angeloni,Plano John Paul II,,,,,,Single-ply,SBD,M
Boys,,NS,Josh McAdoo,Plano John Paul II,,,,,,Single-ply,SBD,M
Boys,,NS,Preston Prevost,Plano John Paul II,,,,,,Single-ply,SBD,M
