Division,WeightClassKg,Place,Name,Team,BodyweightKg,Best3SquatKg,Best3BenchKg,Best3DeadliftKg,TotalKg,Equipment,Event,Sex
Boys,51.71,1,Crisoforo Ayala,Pasadena Rayburn,49.35,102.06,65.77,124.74,292.57,Single-ply,SBD,M
Boys,51.71,2,Jacory Bellemy,Houston Madison,51.07,108.86,45.36,111.13,265.35,Single-ply,SBD,M
Boys,51.71,3,Elishah Simpson,Beaumont Ozen,49.62,79.38,54.43,102.06,235.87,Single-ply,SBD,M
Boys,51.71,DQ,Eddie Taylor,La Porte,51.07,,,,,Single-ply,SBD,M
Boys,59.87,1,Dominic Monsivaiz,Dickinson,55.88,158.76,86.18,,244.94,Single-ply,SB,M
Boys,55.79,2,Taylor Riley,La Porte,54.52,136.08,83.91,147.42,367.41,Single-ply,SBD,M
Boys,55.79,3,Blake Gamez,La Porte,54.61,136.08,83.91,145.15,365.14,Single-ply,SBD,M
Boys,59.87,4,Eric Flores,Katy Mayde Creek,55.97,124.74,79.38,151.95,356.07,Single-ply,SBD,M
Boys,55.79,NS,Brandon Jordan,Dickinson,,,,,,Single-ply,SBD,M
Boys,59.87,1,Cecilio Hernandez,Dickinson,59.42,179.17,102.06,183.7,464.93,Single-ply,SBD,M
Boys,67.13,2,Donovan Lee,Katy Mayde Creek,59.96,151.95,102.06,195.04,449.06,Single-ply,SBD,M
Boys,67.13,3,Brandon Martinez,Dickinson,60.06,136.08,83.91,158.76,378.75,Single-ply,SBD,M
Boys,59.87,4,Chien Pjhan,Dickinson,56.88,145.15,68.04,161.03,374.21,Single-ply,SBD,M
Boys,67.13,1,Alec DeLeon,Dickinson,65.95,217.72,124.74,206.38,548.85,Single-ply,SBD,M
Boys,67.13,2,Roy Lewis,Houston Westbury,66.5,170.1,88.45,183.7,442.25,Single-ply,SBD,M
Boys,67.13,3,Chris Patton,Katy Mayde Creek,66.13,163.29,86.18,174.63,424.11,Single-ply,SBD,M
Boys,67.13,4,Gilberto Pelligruard,Pasadena Rayburn,62.32,163.29,83.91,167.83,415.04,Single-ply,SBD,M
Boys,67.13,5,Ricky Delcedra,Dickinson,65.14,142.88,83.91,147.42,374.21,Single-ply,SBD,M
Boys,67.13,6,Jacob Mears,Beaumont Ozen,66.13,108.86,86.18,149.69,344.73,Single-ply,SBD,M
Boys,67.13,7,Tyvarian Lane,Stafford,61.14,124.74,81.65,129.27,335.66,Single-ply,SBD,M
Boys,67.13,8,Jamal Franklyn,Houston Madison,66.68,102.06,72.57,147.42,322.05,Single-ply,SBD,M
Boys,67.13,9,Rickie Griffin,Houston Westbury,62.05,106.59,65.77,145.15,317.51,Single-ply,SBD,M
Boys,67.13,DQ,Gerald Berry,Beaumont Ozen,66.13,,,,,Single-ply,SBD,M
Boys,74.84,1,Calvin Laskey,Katy Mayde Creek,74.57,215.46,136.08,249.48,601.01,Single-ply,SBD,M
Boys,74.84,2,Trey Vaughans,Dickinson,73.21,192.78,142.88,195.04,530.7,Single-ply,SBD,M
Boys,74.84,3,Victor De La Garza,Brookshire Royal,71.85,204.12,108.86,181.44,494.42,Single-ply,SBD,M
Boys,74.84,4,Kevin Busby,La Porte,74.75,181.44,90.72,181.44,453.59,Single-ply,SBD,M
Boys,74.84,5,Bryston Braziel,Stafford,67.59,188.24,90.72,163.29,442.25,Single-ply,SBD,M
Boys,74.84,6,Kalique Ferguson,Beaumont Ozen,73.84,142.88,106.59,181.44,430.91,Single-ply,SBD,M
Boys,74.84,7,Lane Pfieffer,La Porte,72.39,154.22,106.59,158.76,419.57,Single-ply,SBD,M
Boys,74.84,8,Markell Perry,Beaumont Ozen,74.12,140.61,95.25,174.63,410.5,Single-ply,SBD,M
Boys,74.84,9,Marquis Butler,Houston Madison,69.85,138.35,83.91,142.88,365.14,Single-ply,SBD,M
Boys,82.1,10,Dylan Martin,Houston Madison,74.93,102.06,65.77,142.88,310.71,Single-ply,SBD,M
Boys,74.84,NS,Roderick Harris,Houston Westbury,,,,,,Single-ply,SBD,M
Boys,74.84,DQ,Cameron Simms,Houston Madison,74.84,,,,,Single-ply,SBD,M
Boys,74.84,DQ,Dornell Murell,Houston Madison,74.84,,,,,Single-ply,SBD,M
Boys,82.1,DQ,Dezman Simpson,Beaumont Ozen,75.02,,,,,Single-ply,SBD,M
Boys,74.84,DQ,Sean Castillo,La Porte,74.3,,,,,Single-ply,SBD,M
Boys,82.1,1,Thomas Bridges,Dickinson,79.92,226.8,158.76,215.46,601.01,Single-ply,SBD,M
Boys,82.1,2,Reese Thompson,La Porte,81.28,170.1,120.2,188.24,478.54,Single-ply,SBD,M
Boys,82.1,3,Zech Bowen,La Porte,81.37,185.97,106.59,174.63,467.2,Single-ply,SBD,M
Boys,82.1,4,David Mejia,Pasadena Rayburn,76.29,142.88,70.31,174.63,387.82,Single-ply,SBD,M
Boys,82.1,5,Jonathan Franklin,Houston Westbury,80.83,133.81,90.72,158.76,383.29,Single-ply,SBD,M
Boys,82.1,DQ,Ethan Holmes,Houston Madison,82.1,,,,,Single-ply,SBD,M
Boys,82.1,NS,Richard Gomez,Houston Westbury,,,,,,Single-ply,SBD,M
Boys,89.81,1,Jordan Daigle,Beaumont Ozen,85.28,185.97,124.74,233.6,544.31,Single-ply,SBD,M
Boys,89.81,2,Darrell Fobbs,Brookshire Royal,88.81,195.04,99.79,222.26,517.1,Single-ply,SBD,M
Boys,89.81,3,James Jacobs,La Porte,89.72,188.24,120.2,190.51,498.95,Single-ply,SBD,M
Boys,89.81,4,Jalen Brown,Katy Mayde Creek,86.55,158.76,117.93,195.04,471.74,Single-ply,SBD,M
Boys,89.81,5,Jason Forsberg,Dickinson,85.73,149.69,113.4,176.9,439.98,Single-ply,SBD,M
Boys,89.81,6,Trevor Anderson,Dickinson,88.36,136.08,83.91,170.1,390.09,Single-ply,SBD,M
Boys,89.81,7,Richard Ward,Houston Madison,88.81,151.95,83.91,154.22,390.09,Single-ply,SBD,M
Boys,89.81,8,Dallas Garret,Houston Westbury,86.36,151.95,74.84,158.76,385.55,Single-ply,SBD,M
Boys,89.81,NS,Germain Zuniga,Pasadena Rayburn,,,,,,Single-ply,SBD,M
Boys,99.79,1,Elton Woodard,Stafford,95.25,188.24,120.2,185.97,494.42,Single-ply,SBD,M
Boys,99.79,2,Josh DeLeon,La Porte,97.25,188.24,117.93,188.24,494.42,Single-ply,SBD,M
Boys,99.79,3,Diundre Washington,Beaumont Ozen,92.99,181.44,120.2,185.97,487.61,Single-ply,SBD,M
Boys,99.79,4,Steven Messenger,Pasadena Rayburn,91.53,167.83,104.33,210.92,483.08,Single-ply,SBD,M
Boys,99.79,5,Jaron Dykstra,La Porte,93.26,165.56,115.67,190.51,471.74,Single-ply,SBD,M
Boys,99.79,6,Jason Herington,La Porte,90.9,165.56,102.06,183.7,451.32,Single-ply,SBD,M
Boys,99.79,7,Tristan Anderson,Dickinson,94.8,165.56,88.45,190.51,444.52,Single-ply,SBD,M
Boys,99.79,8,Izaah Washington,La Porte,99.25,145.15,102.06,170.1,417.3,Single-ply,SBD,M
Boys,99.79,DQ,Tahg Gilliard,Houston Westbury,94.53,142.88,,,,Single-ply,SBD,M
Boys,109.77,1,Kaylond North,Dickinson,106.14,306.17,136.08,272.16,714.41,Single-ply,SBD,M
Boys,109.77,2,Anietie Etuk,Dickinson,109.41,260.82,142.88,258.55,662.24,Single-ply,SBD,M
Boys,109.77,3,Trey Taylor,Brookshire Royal,107.68,240.4,161.03,219.99,621.42,Single-ply,SBD,M
Boys,109.77,4,Malcolm Pringle,Houston Westbury,104.51,206.38,131.54,238.14,576.06,Single-ply,SBD,M
Boys,109.77,5,Clayton Calhoun,La Porte,108.95,215.46,127.01,199.58,542.04,Single-ply,SBD,M
Boys,109.77,6,Micahel Juarez,Pasadena Rayburn,103.15,195.04,129.27,183.7,508.02,Single-ply,SBD,M
Boys,109.77,7,Demarco Williams,Beaumont Ozen,100.52,170.1,113.4,208.65,492.15,Single-ply,SBD,M
Boys,109.77,8,Livan Lopez,Dickinson,104.05,183.7,106.59,192.78,483.08,Single-ply,SBD,M
Boys,109.77,9,Tyler Boudreaux,La Porte,104.96,181.44,120.2,174.63,476.27,Single-ply,SBD,M
Boys,109.77,10,Shaun Calais,Houston Westbury,108.05,120.2,92.99,163.29,376.48,Single-ply,SBD,M
Boys,109.77,11,Arthur Harmon,Beaumont Ozen,106.23,127.01,81.65,154.22,362.87,Single-ply,SBD,M
Boys,109.77,12,Ikemba Anyanu,Houston Westbury,108.23,138.35,65.77,147.42,351.53,Single-ply,SBD,M
Boys,109.77,DQ,Remington Felder,Katy Mayde Creek,101.42,174.63,86.18,,,Single-ply,SBD,M
Boys,124.74,1,Ernesto Reales,Dickinson,120.84,294.84,158.76,226.8,680.39,Single-ply,SBD,M
Boys,124.74,2,Javier Vega,Pasadena Rayburn,122.74,260.82,142.88,240.4,644.1,Single-ply,SBD,M
Boys,124.74,3,Denaus Ferguson,La Porte,118.48,242.67,151.95,233.6,628.23,Single-ply,SBD,M
Boys,124.74,4,Eduardo Moran,Katy Mayde Creek,114.67,256.28,140.61,226.8,623.69,Single-ply,SBD,M
Boys,124.74,5,Oshaun Lewis,Houston Westbury,120.29,213.19,147.42,231.33,591.94,Single-ply,SBD,M
Boys,124.74,6,Jared Reedy,Dickinson,110.5,240.4,129.27,217.72,587.4,Single-ply,SBD,M
Boys,124.74,7,Markel Bright,La Porte,120.93,226.8,136.08,210.92,573.79,Single-ply,SBD,M
Boys,124.74+,8,Alex Hernandez,Pasadena Rayburn,124.92,208.65,113.4,199.58,521.63,Single-ply,SBD,M
Boys,124.74,9,Isaac Pena,Pasadena Rayburn,114.94,167.83,97.52,183.7,449.06,Single-ply,SBD,M
Boys,124.74,10,Deshondrick Selman,Beaumont Ozen,112.58,99.79,74.84,163.29,337.93,Single-ply,SBD,M
Boys,124.74,11,Anthonie Newman,Houston Madison,110.4,106.59,70.31,138.35,315.25,Single-ply,SBD,M
Boys,124.74,NS,James Brock,Katy Mayde Creek,,,,,,Single-ply,SBD,M
Boys,124.74,DQ,James Bock,Katy Mayde Creek,117.39,199.58,129.27,,,Single-ply,SBD,M
Boys,124.74,DQ,Josh Uluocha,Stafford,112.67,190.51,,,,Single-ply,SBD,M
Boys,124.74+,1,William Simpson,Houston Madison,148.32,331.12,204.12,235.87,771.11,Single-ply,SBD,M
Boys,124.74+,2,Chance Harmanson,Dickinson,137.53,319.78,158.76,249.48,728.02,Single-ply,SBD,M
Boys,124.74+,3,Alonzo Crittendon,Dickinson,143.24,322.05,140.61,249.48,712.14,Single-ply,SBD,M
Boys,124.74+,4,John Vasquez,Dickinson,139.98,226.8,129.27,183.7,539.77,Single-ply,SBD,M
Boys,124.74+,5,Luis Atilano,La Porte,125.01,204.12,124.74,199.58,528.44,Single-ply,SBD,M
Boys,124.74+,6,Bryan Hayes,La Porte,135.99,181.44,124.74,181.44,487.61,Single-ply,SBD,M
Boys,124.74+,7,Jonathan Pecina,Houston Westbury,125.74,179.17,104.33,190.51,474,Single-ply,SBD,M
Boys,124.74+,8,Kevin Maddox,Houston Madison,152.59,170.1,95.25,170.1,435.45,Single-ply,SBD,M
Boys,124.74+,9,Trevion Benoit,Houston Madison,135.99,149.69,106.59,170.1,426.38,Single-ply,SBD,M
Boys,124.74+,10,Kevin Pena,Pasadena Rayburn,132.09,140.61,104.33,163.29,408.23,Single-ply,SBD,M
Boys,124.74+,DQ,Darin Slater,Dickinson,153.04,,,,,Single-ply,SBD,M
Boys,124.74+,DQ,Christian Benavidas,Pasadena Rayburn,127.46,192.78,,,,Single-ply,SBD,M
