Place,Name,Division,BodyweightKg,Squat1Kg,Squat2Kg,Squat3Kg,Best3SquatKg,Bench1Kg,Bench2Kg,Bench3Kg,Best3BenchKg,Deadlift1Kg,Deadlift2Kg,Deadlift3Kg,Best3DeadliftKg,TotalKg,WeightClassKg,Sex,CyrillicName,BirthYear,Equipment,Tested,Event
1,Katerina Zolotarova,T1,49.5,80,90,100,100,35,-40,40,40,80,85,87.5,87.5,227.5,52,F,Катерина Золотарьова,1998,Wraps,Yes,SBD
1,Irina Gurska,J,53.5,-90,-90,90,90,40,42.5,45,45,90,95,100,100,235,56,F,Ірина Гурська,1992,Wraps,Yes,SBD
1,Katerina Starcheus,O,53.6,75,82.5,-87.5,82.5,-50,55,-60,55,100,110,120,120,257.5,56,F,Катерина Старчеус,1989,Wraps,Yes,SBD
2,Natalya Pogrebna,O,54,-75,75,-90,75,50,60,62.5,62.5,105,115,-120,115,252.5,56,F,Наталя Погребна,1988,Wraps,Yes,SBD
1,Olga Vlasenko,T2,56.9,-60,60,80,80,37.5,45,-47.5,45,60,80,90,90,215,60,F,Ольга Власенко,1996,Wraps,Yes,SBD
1,Irina Mazur,O,67.5,-80,80,-92.5,80,45,50,-52.5,50,90,-100,-100,90,220,67.5,F,Ірина Мазур,1968,Wraps,Yes,SBD
1,Irina Mazur,M2,67.5,-80,80,-92.5,80,45,50,-52.5,50,90,-100,-100,90,220,67.5,F,Ірина Мазур,1968,Wraps,Yes,SBD
DQ,Dmitro Pirnach,T1,59,-135,-135,-135,,,,,,-125,125,132.5,132.5,,60,M,Дмитро Пірнач,1998,Wraps,Yes,SBD
DQ,Miroslav Vernigora,T2,57.9,-130,-140,-140,,,,,,,,,,,60,M,Мирослав Вернигора,1996,Wraps,Yes,SBD
1,Artem Kurochkin,J,59.7,140,-155,155,155,80,85,-90,85,160,170,175,175,415,60,M,Артем Курочкін,1991,Wraps,Yes,SBD
1,Valeriy Rud',O,58.7,-160,160,-170,160,110,-120,120,120,160,165,-180,165,445,60,M,Валерій Рудь,1987,Wraps,Yes,SBD
2,Artem Kurochkin,O,59.7,140,-155,155,155,80,85,-90,85,160,170,175,175,415,60,M,Артем Курочкін,1991,Wraps,Yes,SBD
3,Anton Rukavitsya,O,60,100,105,-115,105,60,65,72.5,72.5,110,120,130,130,307.5,60,M,Антон Рукавиця,1987,Wraps,Yes,SBD
1,Evgen Samoylenko,T2,65.8,-160,160,170,170,95,100,-102.5,100,170,182.5,187.5,187.5,457.5,67.5,M,Євген Самойленко,1995,Wraps,Yes,SBD
1,Evgen Samoylenko,O,65.8,-160,160,170,170,95,100,-102.5,100,170,182.5,187.5,187.5,457.5,67.5,M,Євген Самойленко,1995,Wraps,Yes,SBD
2,Volodymyr Batrak,O,67.4,140,-150,-150,140,95,105,-110,105,185,200,-202.5,200,445,67.5,M,Володимир Батрак,1977,Wraps,Yes,SBD
DQ,Mykola Martynenko,O,65.4,-150,-150,-150,,,,,,,,,,,67.5,M,Микола Мартиненко,1990,Wraps,Yes,SBD
1,Mykola Davydenko,T1,68.8,90,130,150,150,75,85,-95,85,130,165,185,185,420,75,M,Микола Давиденко,1998,Wraps,Yes,SBD
2,Oleksandr Galchenko,T1,72,90,120,130,130,85,90,-95,90,100,140,-155,140,360,75,M,Олександр Гальченко,1998,Wraps,Yes,SBD
1,Artem Dem'yanenko,T2,74,180,195,205,205,125,135,-140,135,185,195,-205,195,535,75,M,Артем Дем'яненко,1996,Wraps,Yes,SBD
2,Andriy Kuzmuk,T2,74.4,140,150,-160,150,100,105,-107.5,105,-180,180,-185,180,435,75,M,Андрій Кузьмук,1997,Wraps,Yes,SBD
3,Maksim Kuts,T2,73.6,140,150,160,160,90,95,-100,95,145,150,-160,150,405,75,M,Максим Куц,1997,Wraps,Yes,SBD
1,Artem Levchenko,J,69,140,150,-155,150,-115,115,-120,115,170,180,185,185,450,75,M,Артем Левченко,1991,Wraps,Yes,SBD
2,Oleksiy Usenko,J,73.9,145,155,-165,155,80,-85,85,85,155,165,175,175,415,75,M,Олексій Усенко,1993,Wraps,Yes,SBD
1,Artem Dem'yanenko,O,74,180,195,205,205,125,135,-140,135,185,195,-205,195,535,75,M,Артем Дем'яненко,1996,Wraps,Yes,SBD
1,Vitaliy Primachenko,T2,80.5,160,170,-185,170,135,140,145,145,180,190,205,205,520,82.5,M,Віталій Примаченко,1995,Wraps,Yes,SBD
2,Nishant Kumar,T2,76.7,120,130,140,140,-105,105,110,110,125,130,140,140,390,82.5,M,Нішант Кумар,1997,Wraps,Yes,SBD
1,Vladyslav Fedorenko,J,81.2,-200,200,-220,200,100,115,125,125,170,190,202.5,202.5,527.5,82.5,M,Владислав Федоренко,1993,Wraps,Yes,SBD
1,Kostyantin Chernov,O,81.1,230,-245,-245,230,155,-162.5,162.5,162.5,220,235,242.5,242.5,635,82.5,M,Костянтин Чернов,1984,Wraps,Yes,SBD
2,Oleksiy Perebatinskiy,O,82.4,200,210,220,220,140,150,-155,150,220,240,-247.5,240,610,82.5,M,Олексій Перебатинський,1989,Wraps,Yes,SBD
3,Rafael Avdolyan,O,80.5,-150,150,160,160,105,110,-115,110,192,200,-205,200,470,82.5,M,Рафаель Авдолян,1984,Wraps,Yes,SBD
1,Yuriy Starkov,M6,81.2,130,140,145,145,100,105,110,110,180,190,200,200,455,82.5,M,Юрій Старков,1947,Wraps,Yes,SBD
DQ,Oleksiy Serdyukov,T1,88.6,-110,-120,-120,,95,100,-110,100,140,-150,150,150,,90,M,Олексій Сердюков,1998,Wraps,Yes,SBD
1,Vladislav Mazur,T2,85.1,-160,-160,160,160,110,115,-120,115,210,220,230,230,505,90,M,Владислав Мазур,1995,Wraps,Yes,SBD
2,Bogdan Degtyarenko,T2,83.5,150,170,-180,170,80,85,,85,-160,160,,160,415,90,M,Богдан Дегтяренко,1996,Wraps,Yes,SBD
1,Artem Shitiy,J,88.7,-250,250,270,270,170,177.5,180,180,245,252.5,257.5,257.5,707.5,90,M,Артем Шитий,1992,Wraps,Yes,SBD
1,Artem Shitiy,O,88.7,-250,250,270,270,170,177.5,180,180,245,252.5,257.5,257.5,707.5,90,M,Артем Шитий,1992,Wraps,Yes,SBD
2,Oleksandr Martyanov,O,83.2,180,190,200,200,-140,140,-150,140,220,225,-230,225,565,90,M,Олександр Марть'янов,1990,Wraps,Yes,SBD
3,Volodimir Voronov,O,84,190,200,-220,200,-140,-145,150,150,200,210,215,215,565,90,M,Володимир Воронов,1983,Wraps,Yes,SBD
1,Andriy Tarnovskiy,M1,87.2,-190,190,-210,190,130,140,-150,140,190,200,-210,200,530,90,M,Андрій Тарновський,1973,Wraps,Yes,SBD
1,Andriy Muravskyy,T1,91.2,-170,170,-200,170,105,115,120,120,170,190,-200,190,480,100,M,Андрій Муравський,1998,Wraps,Yes,SBD
1,Vladislav Gurtovenko,T2,97.8,240,250,260,260,140,150,-155,150,205,215,-225,215,625,100,M,Владислав Гуртовенко,1995,Wraps,Yes,SBD
1,Bogdan Luk'yanenko,J,98.3,230,-245,-250,230,120,130,140,140,230,245,-255,245,615,100,M,Богдан Лук'яненко,1993,Wraps,Yes,SBD
2,Kostyantin Gerasimenko,J,93.2,165,180,200,200,130,140,-145,140,-180,180,-190,180,520,100,M,Костянтин Герасименко,1991,Wraps,Yes,SBD
1,Vladislav Gurtovenko,O,97.8,240,250,260,260,140,150,-155,150,205,215,-225,215,625,100,M,Владислав Гуртовенко,1995,Wraps,Yes,SBD
2,Mikhaylo Starovoyt,O,98.2,200,210,220,220,157.5,165,170,170,220,235,-247.5,235,625,100,M,Михайло Старовойт,1989,Wraps,Yes,SBD
3,Bogdan Luk'yanenko,O,98.3,230,-245,-250,230,120,130,140,140,230,245,-255,245,615,100,M,Богдан Лук'яненко,1993,Wraps,Yes,SBD
4,Anton Savchenko,O,91.5,170,195,210,210,145,155,-157.5,155,210,220,-230,220,585,100,M,Антон Савченко,1992,Wraps,Yes,SBD
5,Andriy Muravskyy,O,91.2,-170,170,-200,170,105,115,120,120,170,190,-200,190,480,100,M,Андрій Муравський,1998,Wraps,Yes,SBD
6,Oleksandr Sukhanov,O,97.2,100,140,170,170,100,-135,-135,100,140,170,190,190,460,100,M,Олександр Суханов,1988,Wraps,Yes,SBD
DQ,Viktor Rublyov,O,93,-205,-205,-210,,,,,,,,,,,100,M,Віктор Рубльов,1975,Wraps,Yes,SBD
1,Mikola Tukhtaev,M3,92,-130,130,140,140,130,-140,-140,130,130,150,160,160,430,100,M,Микола Тухтаєв,1964,Wraps,Yes,SBD
1,Viktor Stefanov,M6,99.6,140,-150,150,150,-90,-90,90,90,135,140,150,150,390,100,M,Віктор Стефанов,1948,Wraps,Yes,SBD
1,Igor Zaychuk,O,103,-220,-230,230,230,-160,160,-165,160,240,250,-260,250,640,110,M,Ігор Зайчук,1989,Wraps,Yes,SBD
2,Evgen Shapinskiy,O,106.3,200,-210,215,215,150,-160,-160,150,220,230,-245,230,595,110,M,Євген Шапінський,1978,Wraps,Yes,SBD
1,Artem Pustovit,O,124,280,-300,300,300,175,-190,190,190,250,-260,,250,740,125,M,Артем Пустовіт,1985,Wraps,Yes,SBD
DQ,Oksana Prikhodko,J,55,115,-125,-125,115,-75,-75,-75,,,,,,,56,F,Оксана Приходько,1991,Wraps,No,SBD
1,Marina Tekuchova,J,65,-75,80,85,85,47.5,52.5,55,55,75,85,90,90,230,67.5,F,Марина Текучева,1994,Wraps,No,SBD
1,Viktor Petrenko,J,73.4,-170,170,190,190,120,-125,-125,120,175,185,195,195,505,75,M,Віктор Петренко,1992,Wraps,No,SBD
1,Arkadiy Shalokha,O,80,300,312.5,-320,312.5,175,185,190,190,275,285,-297.5,285,787.5,82.5,M,Аркадий Шалоха,1983,Wraps,No,SBD
1,Yevgen Nastenko,J,86.5,230,240,250,250,150,160,-165,160,230,250,260,260,670,90,M,Євген Настенко,1991,Wraps,No,SBD
2,Oleksandr Slavutskyy,J,88.5,210,220,225,225,140,147.5,150,150,225,242.5,257.5,257.5,632.5,90,M,Олександр Славутський,1991,Wraps,No,SBD
1,Yevgen Leushyn,O,85.6,-250,-250,250,250,160,-170,-170,160,270,-300,-300,270,680,90,M,Євген Леушин,1988,Wraps,No,SBD
2,Yevgen Nastenko,O,86.5,230,240,250,250,150,160,-165,160,230,250,260,260,670,90,M,Євген Настенко,1991,Wraps,No,SBD
3,Andriy Lesin,O,89,200,-220,220,220,-155,155,165,165,200,225,-230,225,610,90,M,Андрій Лесін,1987,Wraps,No,SBD
4,Radion Shovkun,O,88.5,200,220,-235,220,120,130,135,135,220,245,-265,245,600,90,M,Радіон Шовкун,1981,Wraps,No,SBD
1,Artem Dmitruk,J,97.3,220,240,-250,240,170,180,-190,180,250,-265,270,270,690,100,M,Артем Дмитрук,1993,Wraps,No,SBD
2,Artem Pedorenko,J,97,-180,190,-210,190,120,-135,-135,120,160,180,-200,180,490,100,M,Артем Педоренко,1997,Wraps,No,SBD
1,Mikhaylo Zhelyazkov,O,97,320,-330,330,330,180,-190,-190,180,320,331,335,335,845,100,M,Михайло Желязков,1980,Wraps,No,SBD
1,Denis Naumov,J,109,260,-275,-275,260,200,-220,-220,200,255,270,285,285,745,110,M,Денис Наумов,1991,Wraps,No,SBD
2,Artur Derkach,J,104.5,250,260,-267.5,260,-205,-205,205,205,255,265,-275,265,730,110,M,Артур Деркач,1991,Wraps,No,SBD
1,Denis Naumov,O,109,260,-275,-275,260,200,-220,-220,200,255,270,285,285,745,110,M,Денис Наумов,1991,Wraps,No,SBD
2,Oleksandr Chernish,O,103,260,-275,280,280,165,175,180,180,260,270,280,280,740,110,M,Олександр Черниш,1988,Wraps,No,SBD
1,Oleksandr Ponomar,O,119.6,-270,270,280,280,150,160,165,165,270,280,290,290,735,125,M,Олександр Пономар,1981,Wraps,No,SBD
1,Pavlo Ischenko,J,89.5,-280,280,290,290,150,170,180,180,230,250,-260,250,720,90,M,Павло Іщенко,1991,Multi-ply,No,SBD
1,Ilona Andrienko,T2,44,,,,,35,-40,-40,35,,,,,35,44,F,Ілона Андрієнко,1995,Raw,Yes,B
2,Olga Andrienko,T2,44,,,,,35,-40,-40,35,,,,,35,44,F,Ольга Андрієнко,1996,Raw,Yes,B
1,Katerina Perminova,J,43.5,,,,,30,-35,35,35,,,,,35,44,F,Катерина Пермінова,1990,Raw,Yes,B
1,Nika Urbanska,J,51.1,,,,,-55,55,-57.5,55,,,,,55,52,F,Ніка Урбанська,1993,Raw,Yes,B
1,Tetyana Muzichenko,O,50.9,,,,,45,-50,-50,45,,,,,45,52,F,Тетяна Музиченко,1988,Raw,Yes,B
2,Zhanna Romanovska,O,50.8,,,,,-42.5,-42.5,42.5,42.5,,,,,42.5,52,F,Жанна Романовська,1978,Raw,Yes,B
DQ,Natalya Zhygalkina,J,54.5,,,,,-52.5,-52.5,-52.5,,,,,,,56,F,Наталія Жигалкіна,1991,Raw,Yes,B
1,Natalya Pogrebna,O,54,,,,,50,60,62.5,62.5,,,,,62.5,56,F,Наталя Погребна,1988,Raw,Yes,B
2,Valentina Shovkun,O,54,,,,,47.5,50,52.5,52.5,,,,,52.5,56,F,Валентина Шовкун,1990,Raw,Yes,B
DQ,Anastasiya Chaykovska,O,54.6,,,,,-52.5,-52.5,-52.5,,,,,,,56,F,Анастасія Чайковська,1989,Raw,Yes,B
1,Olga Vlasenko,T2,56.9,,,,,37.5,45,-47.5,45,,,,,45,60,F,Ольга Власенко,1996,Raw,Yes,B
1,Kateryna Khomenko,J,59.6,,,,,-35,35,-40,35,,,,,35,60,F,Катерина Хоменко,1997,Raw,Yes,B
1,Anna Dudaeva,O,58.3,,,,,-57.5,-60,60,60,,,,,60,60,F,Анна Дудаєва,1990,Raw,Yes,B
1,Oleksandra Nikolaeva,J,67.5,,,,,-40,40,50,50,,,,,50,67.5,F,Олександра Ніколаєва,1991,Raw,Yes,B
1,Yulia Shenkarenko,O,63.1,,,,,80,90,92.5,92.5,,,,,92.5,67.5,F,Юлія Шенкаренко,1986,Raw,Yes,B
2,Nina Kobzeva,O,66.1,,,,,47.5,-50,50,50,,,,,50,67.5,F,Ніна Кобзєва,1987,Raw,Yes,B
1,Alena Makarevich,O,68.6,,,,,50,60,-65,60,,,,,60,75,F,Альона Макаревич,1988,Raw,Yes,B
1,Yaroslav Kichuk,T,51.7,,,,,37.5,-40,42.5,42.5,,,,,42.5,52,M,Ярослав Кічук,2002,Raw,Yes,B
1,Adrian Kalmuk,T1,54.5,,,,,67.5,70,75,75,,,,,75,56,M,Адріан Кальмук,1999,Raw,Yes,B
DQ,Maksim Omelyanchenko,T1,58.4,,,,,-95,-100,-100,,,,,,,60,M,Максим Омельянченко,1998,Raw,Yes,B
1,Oleksandr Onischenko,T2,60,,,,,65,-70,-70,65,,,,,65,60,M,Олександр Оніщенко,1996,Raw,Yes,B
1,Artem Kurochkin,J,59.7,,,,,80,85,-90,85,,,,,85,60,M,Артем Курочкін,1991,Raw,Yes,B
1,Oleksandr Beznoschenko,T1,65.5,,,,,90,95,102.5,102.5,,,,,102.5,67.5,M,Олександр Безнощенко,1998,Raw,Yes,B
2,Denis Ponomarev,T1,66.8,,,,,60,70,80,80,,,,,80,67.5,M,Денис Пономарьов,1998,Raw,Yes,B
1,Ivan Galich,J,67.5,,,,,107.5,112.5,-120,112.5,,,,,112.5,67.5,M,Іван Галич,1994,Raw,Yes,B
1,Danilo Vigovskiy,O,67,,,,,-125,125,-135,125,,,,,125,67.5,M,Данило Виговський,1989,Raw,Yes,B
2,Dmitro Zabitskiy,O,65.8,,,,,107.5,120,-125,120,,,,,120,67.5,M,Дмитро Забіцький,1989,Raw,Yes,B
1,Ivan Feschenko,T1,74.9,,,,,90,95,97.5,97.5,,,,,97.5,75,M,Іван Фещенко,1999,Raw,Yes,B
2,Mykola Davydenko,T1,68.8,,,,,75,85,-95,85,,,,,85,75,M,Микола Давиденко,1998,Raw,Yes,B
1,Oleg Dulkin,T2,75,,,,,122.5,-130,,122.5,,,,,122.5,75,M,Олег Дулькін,1996,Raw,Yes,B
1,Oleksandr Ermakov,J,75,,,,,130,135,145,145,,,,,145,75,M,Олександр Єрмаков,1991,Raw,Yes,B
2,Roman Shulyakovskiy,J,75,,,,,130,140,-145,140,,,,,140,75,M,Роман Шуляковський,1991,Raw,Yes,B
3,Vladislav Skurativskiy,J,73,,,,,120,125,130,130,,,,,130,75,M,Владислав Скуратівський,1993,Raw,Yes,B
4,Sergiy Vaschishin,J,74.4,,,,,-130,130,-135,130,,,,,130,75,M,Сергій Ващишин,1993,Raw,Yes,B
5,Oleksiy Parnak,J,72.2,,,,,-120,120,-130,120,,,,,120,75,M,Олексій Парнак,1993,Raw,Yes,B
6,Stanislav Balushka,J,74,,,,,80,90,-105,90,,,,,90,75,M,Станіслав Балушка,1992,Raw,Yes,B
1,Evgen Benedik,O,71,,,,,-137.5,-145,145,145,,,,,145,75,M,Євген Бенедик,1985,Raw,Yes,B
1,Kyrylo Sharoyko,T1,77.8,,,,,100,105,110,110,,,,,110,82.5,M,Кирило Шаройко,1998,Raw,Yes,B
DQ,Mykola Pasko,T2,76.5,,,,,-120,-120,-120,,,,,,,82.5,M,Микола Пасько,1995,Raw,Yes,B
1,Volodimir Novikov,J,79.4,,,,,145,155,-160,155,,,,,155,82.5,M,Володимир Новіков,1990,Raw,Yes,B
DQ,Oleksandr Domrachov,J,79.8,,,,,-135,-135,,,,,,,,82.5,M,Олександр Домрачов,1993,Raw,Yes,B
1,Ivan Velikodniy,O,82.3,,,,,170,175,182.5,182.5,,,,,182.5,82.5,M,Іван Велікодний,1987,Raw,Yes,B
2,Dmitro Markov,O,79.3,,,,,160,170,-180,170,,,,,170,82.5,M,Дмитро Марков,1984,Raw,Yes,B
3,Volodymyr Lagoda,O,81.5,,,,,145,150,157.5,157.5,,,,,157.5,82.5,M,Володимир Лагода,1968,Raw,Yes,B
4,Andriy Katanov,O,80.8,,,,,135,140,145,145,,,,,145,82.5,M,Андрій Катанов,1985,Raw,Yes,B
5,Oleksandr Bratolyubov,O,82.2,,,,,120,125,130,130,,,,,130,82.5,M,Олександр Братолюбов,1986,Raw,Yes,B
6,Dmitro Ogarkov,O,81.5,,,,,115,122.5,-127.5,122.5,,,,,122.5,82.5,M,Дмитро Огарков,1988,Raw,Yes,B
7,Oleksandr Denisyuk,O,81.5,,,,,-115,115,-120,115,,,,,115,82.5,M,Олександр Денисюк,1989,Raw,Yes,B
1,Volodymyr Lagoda,M2,81.5,,,,,145,150,157.5,157.5,,,,,157.5,82.5,M,Володимир Лагода,1968,Raw,Yes,B
1,Oleksandr Ostrovskiy,M5,76.6,,,,,90,100,105,105,,,,,105,82.5,M,Олександр Островський,1953,Raw,Yes,B
2,Vasil Korolchuk,M5,82,,,,,90,-95,-95,90,,,,,90,82.5,M,Василь Корольчук,1952,Raw,Yes,B
1,Yuriy Starkov,M6,81.2,,,,,100,105,110,110,,,,,110,82.5,M,Юрій Старков,1947,Raw,Yes,B
2,Vasil Turbal,M6,80.5,,,,,85,90,-95,90,,,,,90,82.5,M,Василь Турбал,1948,Raw,Yes,B
1,Oleksiy Serdyukov,T1,88.6,,,,,95,100,-110,100,,,,,100,90,M,Олексій Сердюков,1998,Raw,Yes,B
1,Dmitro Storozhenko,T2,83.9,,,,,145,150,155,155,,,,,155,90,M,Дмитро Стороженко,1994,Raw,Yes,B
2,Andriy Yakubovskiy,T2,86.7,,,,,140,150,-160,150,,,,,150,90,M,Андрій Якубовський,1995,Raw,Yes,B
1,Oleksandr Kovalenko,J,83.6,,,,,187.5,192.5,-195,192.5,,,,,192.5,90,M,Олександр Коваленко,1991,Raw,Yes,B
2,Artem Shitiy,J,88.7,,,,,170,177.5,180,180,,,,,180,90,M,Артем Шитий,1992,Raw,Yes,B
3,Vitaliy Druz,J,88.8,,,,,140,-150,-150,140,,,,,140,90,M,Віталій Друзь,1991,Raw,Yes,B
4,Viktor Martinenko,J,87.5,,,,,-135,135,-140,135,,,,,135,90,M,Віктор Мартиненко,1993,Raw,Yes,B
1,Oleksandr Kovalenko,O,83.6,,,,,187.5,192.5,-195,192.5,,,,,192.5,90,M,Олександр Коваленко,1991,Raw,Yes,B
2,Artem Shitiy,O,88.7,,,,,170,177.5,180,180,,,,,180,90,M,Артем Шитий,1992,Raw,Yes,B
3,Igor Danilov,O,87.8,,,,,155,165,-175,165,,,,,165,90,M,Игорь Данилов,1985,Raw,Yes,B
4,Oleksiy Shneydman,O,88.9,,,,,160,165,-170,165,,,,,165,90,M,Олексій Шнейдман,1989,Raw,Yes,B
5,Oleksiy Korenkov,O,85.4,,,,,140,150,152.5,152.5,,,,,152.5,90,M,Олексій Кореньков,1980,Raw,Yes,B
6,Sergiy Garaschuk,O,88,,,,,100,-132.5,-132.5,100,,,,,100,90,M,Сергій Гаращук,1983,Raw,Yes,B
DQ,Ivan Kozyr,O,86.8,,,,,-160,-160,-160,,,,,,,90,M,Иван Козырь,1986,Raw,Yes,B
1,Andriy Tarnovskiy,M1,87.2,,,,,130,140,-150,140,,,,,140,90,M,Андрій Тарновський,1973,Raw,Yes,B
1,Vadim Tischenko,T2,91.2,,,,,120,147.5,150,150,,,,,150,100,M,Вадим Тищенко,1996,Raw,Yes,B
2,Vladislav Gurtovenko,T2,97.8,,,,,140,150,-155,150,,,,,150,100,M,Владислав Гуртовенко,1995,Raw,Yes,B
1,Ruslan Bashtannik,J,96.6,,,,,-170,182.5,190,190,,,,,190,100,M,Руслан Баштанник,1991,Raw,Yes,B
2,Vladislav Potseluyko,J,97.2,,,,,165,170,-175,170,,,,,170,100,M,Владислав Поцелуйко,1991,Raw,Yes,B
3,Volodimir Miroshnichenko,J,95.9,,,,,-155,155,160,160,,,,,160,100,M,Володимир Мірошниченко,1990,Raw,Yes,B
4,Anton Savchenko,J,91.5,,,,,145,155,-157.5,155,,,,,155,100,M,Антон Савченко,1992,Raw,Yes,B
1,Sergiy Dromov,O,98,,,,,170,-177.5,-177.5,170,,,,,170,100,M,Сергій Дрьомов,1968,Raw,Yes,B
2,Mikhaylo Starovoyt,O,98.2,,,,,157.5,165,170,170,,,,,170,100,M,Михайло Старовойт,1989,Raw,Yes,B
3,Yuriy Voloshin,O,98.7,,,,,155,165,-170,165,,,,,165,100,M,Юрій Волошин,1975,Raw,Yes,B
4,Anton Savchenko,O,91.5,,,,,145,155,-157.5,155,,,,,155,100,M,Антон Савченко,1992,Raw,Yes,B
5,Sergiy Yuriychuk,O,94,,,,,-155,155,-162.5,155,,,,,155,100,M,Сергій Юрійчук,1987,Raw,Yes,B
6,Igor Zelenskyy,O,95.2,,,,,145,155,-160,155,,,,,155,100,M,Ігор Зеленський,1987,Raw,Yes,B
7,Andriy Udod,O,99.9,,,,,140,150,-155,150,,,,,150,100,M,Андрій Удод,1985,Raw,Yes,B
8,Sergiy Mozgovyy,O,96.7,,,,,-140,140,-155,140,,,,,140,100,M,Сергій Мозговий,1983,Raw,Yes,B
9,Oleksandr Sukhanov,O,97.2,,,,,100,-135,-135,100,,,,,100,100,M,Олександр Суханов,1988,Raw,Yes,B
1,Valeriy Telyuk,M1,98.1,,,,,160,-165,-165,160,,,,,160,100,M,Валерій Телюк,1969,Raw,Yes,B
1,Sergiy Dromov,M2,98,,,,,170,-177.5,-177.5,170,,,,,170,100,M,Сергій Дрьомов,1968,Raw,Yes,B
1,Mikola Tukhtaev,M3,92,,,,,130,-140,-140,130,,,,,130,100,M,Микола Тухтаєв,1964,Raw,Yes,B
2,Vitaliy Filonenko,M3,97.8,,,,,-125,127.5,-140,127.5,,,,,127.5,100,M,Віталій Філоненко,1964,Raw,Yes,B
1,Dmitro Brodskiy,J,109.2,,,,,150,160,170,170,,,,,170,110,M,Дмитро Бродський,1993,Raw,Yes,B
2,Dmitro Ivanov,J,106.2,,,,,-140,140,-150,140,,,,,140,110,M,Дмитро Іванов,1994,Raw,Yes,B
DQ,Karim Buzina,J,103,,,,,-140,-160,-160,,,,,,,110,M,Карім Бузина,1994,Raw,Yes,B
1,V'yacheslav Valkovich,O,108.7,,,,,160,170,-175,170,,,,,170,110,M,В'ячеслав Валькович,1986,Raw,Yes,B
2,Igor Zaychuk,O,103,,,,,-160,160,-165,160,,,,,160,110,M,Ігор Зайчук,1989,Raw,Yes,B
3,Mikola Makarevich,O,106.9,,,,,150,-160,160,160,,,,,160,110,M,Микола Макаревич,1989,Raw,Yes,B
4,Mikhaylo Schegolev,O,110,,,,,-135,140,150,150,,,,,150,110,M,Михайло Щеголєв,1986,Raw,Yes,B
5,Dmitro Ivanov,O,106.2,,,,,-140,140,-150,140,,,,,140,110,M,Дмитро Іванов,1994,Raw,Yes,B
1,Dmytro Gosman,J,113,,,,,185,187.5,190,190,,,,,190,125,M,Дмитро Госман,1993,Raw,Yes,B
2,Mikola Dokuchaev,J,118.3,,,,,175,185,-192.5,185,,,,,185,125,M,Микола Докучаєв,1993,Raw,Yes,B
1,Sergiy Filonenko,O,122.6,,,,,190,200,202.5,202.5,,,,,202.5,125,M,Сергій Філоненко,1965,Raw,Yes,B
2,Mikola Dokuchaev,O,118.3,,,,,175,185,-192.5,185,,,,,185,125,M,Микола Докучаєв,1993,Raw,Yes,B
1,Sergiy Filonenko,M2,122.6,,,,,190,200,202.5,202.5,,,,,202.5,125,M,Сергій Філоненко,1965,Raw,Yes,B
1,Oksana Prikhodko,J,55,,,,,67.5,72.5,75,75,,,,,75,56,F,Оксана Приходько,1991,Raw,No,B
DQ,Katerina Shovkova,J,54.5,,,,,-70,-70,-75,,,,,,,56,F,Катерина Шовкова,1993,Raw,No,B
1,Marina Tekuchova,J,65,,,,,50,-55,55,55,,,,,55,67.5,F,Марина Текучева,1994,Raw,No,B
DQ,Maryna Soltanova,O,66.7,,,,,-90,-97.5,-97.5,,,,,,,67.5,F,Марина Солтанова,1985,Raw,No,B
1,Artem Tarasenko,O,77.3,,,,,135,145,-155,145,,,,,145,82.5,M,Артем Тарасенко,1982,Raw,No,B
1,Nikita Kornev,J,88.1,,,,,142.5,150,-152.5,150,,,,,150,90,M,Никита Корнев,1997,Raw,No,B
1,Oleksandr Porkhun,J,94.5,,,,,-162.5,170,-177.5,170,,,,,170,100,M,Олександр Порхун,1997,Raw,No,B
1,Denis Bunchuk,O,91.7,,,,,200,210,220,220,,,,,220,100,M,Денис Бунчук,1989,Raw,No,B
1,Oleksiy Mesyats,J,105.4,,,,,160,175,-182.5,175,,,,,175,110,M,Олексій Месяц,1991,Raw,No,B
2,Kostyantin Limanskiy,J,105,,,,,165,-175,-182.5,165,,,,,165,110,M,Костянтин Лиманський,1994,Raw,No,B
DQ,Maksim Adamenko,J,103.5,,,,,-155,-155,-175,,,,,,,110,M,Максим Адаменко,1995,Raw,No,B
1,Oleksandr Chernish,O,103,,,,,165,175,180,180,,,,,180,110,M,Олександр Черниш,1988,Raw,No,B
2,Oleksiy Mesyats,O,105.4,,,,,160,175,-182.5,175,,,,,175,110,M,Олексій Месяц,1991,Raw,No,B
1,Oleksandr Savokh,O,122.9,,,,,175,185,195,195,,,,,195,125,M,Олександр Савох,1987,Raw,No,B
1,Glib Leschenko,T1,72,,,,,-135,135,-150,135,,,,,135,75,M,Гліб Лещенко,1997,Multi-ply,Yes,B
1,Volodymyr Pinchuk,T1,82.3,,,,,140,-147.5,147.5,147.5,,,,,147.5,82.5,M,Володимир Пінчук,1999,Multi-ply,Yes,B
1,Mikhaylo Ryabinin,T2,80.8,,,,,-127.5,127.5,135,135,,,,,135,82.5,M,Михайло Рябінін,1994,Multi-ply,Yes,B
1,Kostyantin Chernov,O,81.1,,,,,240,-250,-250,240,,,,,240,82.5,M,Костянтин Чернов,1984,Multi-ply,Yes,B
1,Vyacheslav Bordiyanu,O,85.7,,,,,170,-180,-180,170,,,,,170,90,M,Вячеслав Бордіяну,1983,Multi-ply,Yes,B
1,Artem Sydorchuk,J,95.5,,,,,180,190,-200,190,,,,,190,100,M,Артем Сидорчук,1991,Multi-ply,Yes,B
1,Artem Sydorchuk,O,95.5,,,,,180,190,-200,190,,,,,190,100,M,Артем Сидорчук,1991,Multi-ply,Yes,B
2,Denis Mazur,O,90.8,,,,,155,165,-175,165,,,,,165,100,M,Денис Мазур,1985,Multi-ply,Yes,B
1,Ivan Misyura,T1,119.2,,,,,150,160,-172.5,160,,,,,160,125,M,Іван Місюра,1998,Multi-ply,Yes,B
1,Dmytro Gosman,J,113,,,,,225,230,235,235,,,,,235,125,M,Дмитро Госман,1993,Multi-ply,Yes,B
1,Yevgen Savchenko,O,107,,,,,-300,300,320,320,,,,,320,110,M,Євген Савченко,1989,Multi-ply,No,B
1,Yuliya Raduka,O,50,,,,,,,,,95,105,-107.5,105,105,52,F,Юлія Радука,1990,Raw,Yes,D
1,Olena Pilipchuk,T2,52.9,,,,,,,,,80,87.5,-95,87.5,87.5,56,F,Олена Пилипчук,1997,Raw,Yes,D
1,Natalya Pogrebna,O,54,,,,,,,,,105,115,-120,115,115,56,F,Наталя Погребна,1988,Raw,Yes,D
1,Dmitro Pirnach,T1,59,,,,,,,,,-125,125,132.5,132.5,132.5,60,M,Дмитро Пірнач,1998,Raw,Yes,D
1,Artem Kurochkin,J,59.7,,,,,,,,,160,170,175,175,175,60,M,Артем Курочкін,1991,Raw,Yes,D
1,Artem Kurochkin,O,59.7,,,,,,,,,160,170,175,175,175,60,M,Артем Курочкін,1991,Raw,Yes,D
1,Dmitro Shapoval,T1,65.8,,,,,,,,,180,-190,-200,180,180,67.5,M,Дмитро Шаповал,1999,Raw,Yes,D
2,Nazar Sokol,T1,67.5,,,,,,,,,110,125,135,135,135,67.5,M,Назар Сокол,1998,Raw,Yes,D
1,Evgen Samoylenko,T2,65.8,,,,,,,,,170,182.5,187.5,187.5,187.5,67.5,M,Євген Самойленко,1995,Raw,Yes,D
2,Aleksandr Rubanskiy,T2,62.4,,,,,,,,,170,180,185,185,185,67.5,M,Олександр Рубанський,1996,Raw,Yes,D
1,Vladislav Deriy,J,66.4,,,,,,,,,-200,200,220,220,220,67.5,M,Владислав Дерій,1992,Raw,Yes,D
1,Volodymyr Batrak,O,67.4,,,,,,,,,185,200,-202.5,200,200,67.5,M,Володимир Батрак,1977,Raw,Yes,D
1,Mykola Davydenko,T1,68.8,,,,,,,,,130,165,185,185,185,75,M,Микола Давиденко,1998,Raw,Yes,D
2,Dmitriy Valchevskiy,T1,73.4,,,,,,,,,120,130,-147.5,130,130,75,M,Дмитро Вальчевський,1998,Raw,Yes,D
1,Andriy Kuzmuk,T2,74.4,,,,,,,,,-180,180,-185,180,180,75,M,Андрій Кузьмук,1997,Raw,Yes,D
1,Oleksandr Golyadinets,T2,80.9,,,,,,,,,200,210,-220,210,210,82.5,M,Олександр Голядинець,1995,Raw,Yes,D
1,Roman Medvedchuk,O,81,,,,,,,,,220,240,252.5,252.5,252.5,82.5,M,Роман Медведчук,1981,Raw,Yes,D
2,Dmytro Vorobey,O,80.5,,,,,,,,,220,235,-245.5,235,235,82.5,M,Дмитро Воробей,1988,Raw,Yes,D
3,Oleksandr Avakumov,O,78.8,,,,,,,,,215,227.5,-230,227.5,227.5,82.5,M,Олександр Авакумов,1983,Raw,Yes,D
4,Oleksandr Golyadinets,O,80.9,,,,,,,,,200,210,-220,210,210,82.5,M,Олександр Голядинець,1995,Raw,Yes,D
5,Rafael Avdolyan,O,80.5,,,,,,,,,192,200,-205,200,200,82.5,M,Рафаель Авдолян,1984,Raw,Yes,D
1,Yuriy Starkov,M6,81.2,,,,,,,,,180,190,200,200,200,82.5,M,Юрій Старков,1947,Raw,Yes,D
1,Oleksiy Serdyukov,T1,88.6,,,,,,,,,140,-150,150,150,150,90,M,Олексій Сердюков,1998,Raw,Yes,D
1,Vadim Perev'yazko,T2,88.1,,,,,,,,,200,215,222.5,222.5,222.5,90,M,Вадим Перев'язко,1995,Raw,Yes,D
1,Eduard Marchenko,J,85.4,,,,,,,,,250,270,-290,270,270,90,M,Эдуард Марченко,1992,Raw,Yes,D
1,Zakhar Scherbakov,O,87.5,,,,,,,,,260,-265,-265,260,260,90,M,Захар Щербаков,1987,Raw,Yes,D
2,Volodymyr Getman,O,88,,,,,,,,,230,240,252.5,252.5,252.5,90,M,Володимир Гетьман,1989,Raw,Yes,D
3,Sergiy Zrazhevskyy,O,84.4,,,,,,,,,-250,250,-255,250,250,90,M,Сергій Зражевський,1990,Raw,Yes,D
4,Sergiy Melnik,O,87,,,,,,,,,200,222.5,-227.5,222.5,222.5,90,M,Сергій Мельник,1989,Raw,Yes,D
1,Aleksandr Melenivskiy,T2,98,,,,,,,,,190,205,215,215,215,100,M,Олександр Меленівський,1995,Raw,Yes,D
1,Oleg Ovsyanik,J,93.8,,,,,,,,,230,-250,250,250,250,100,M,Олег Овсяник,1991,Raw,Yes,D
2,Mikola Kucher,J,97,,,,,,,,,220,227.5,247.5,247.5,247.5,100,M,Микола Кучер,1994,Raw,Yes,D
3,Anton Savchenko,J,91.5,,,,,,,,,210,220,-230,220,220,100,M,Антон Савченко,1992,Raw,Yes,D
1,Oleg Ovsyanik,O,93.8,,,,,,,,,230,-250,250,250,250,100,M,Олег Овсяник,1991,Raw,Yes,D
2,Vadim Omelchuk,O,95.4,,,,,,,,,225,235,245,245,245,100,M,Вадим Омельчук,1989,Raw,Yes,D
3,Oleksandr Shevtsov,O,96.8,,,,,,,,,230,-250,-250,230,230,100,M,Олександр Шевцов,1985,Raw,Yes,D
4,Anton Savchenko,O,91.5,,,,,,,,,210,220,-230,220,220,100,M,Антон Савченко,1992,Raw,Yes,D
1,Viktor Stefanov,M6,99.6,,,,,,,,,135,140,150,150,150,100,M,Віктор Стефанов,1948,Raw,Yes,D
1,Vitaliy Visochin,J,101,,,,,,,,,230,240,252.5,252.5,252.5,110,M,Віталій Височин,1991,Raw,Yes,D
1,Vitaliy Visochin,O,101,,,,,,,,,230,240,252.5,252.5,252.5,110,M,Віталій Височин,1991,Raw,Yes,D
2,Igor Zaychuk,O,103,,,,,,,,,240,250,-260,250,250,110,M,Ігор Зайчук,1989,Raw,Yes,D
DQ,Katerina Shovkova,J,54.5,,,,,,,,,-70,,,,,56,F,Катерина Шовкова,1993,Raw,No,D
1,Marina Tekuchova,J,65,,,,,,,,,75,85,90,90,90,67.5,F,Марина Текучева,1994,Raw,No,D
1,Ihor Hamarnik,O,75,,,,,,,,,200,210,220,220,220,75,M,Ігор Гамарник,1988,Raw,No,D
1,Vladislav Scherbak,J,87,,,,,,,,,220,232.5,-237.5,232.5,232.5,90,M,Владислав Щербак,1993,Raw,No,D
1,Vladislav Scherbak,O,87,,,,,,,,,220,232.5,-237.5,232.5,232.5,90,M,Владислав Щербак,1993,Raw,No,D
1,Mikhaylo Zhelyazkov,O,97,,,,,,,,,320,331,335,335,335,100,M,Михайло Желязков,1980,Raw,No,D
1,Artur Derkach,J,104.5,,,,,,,,,255,265,-275,265,265,110,M,Артур Деркач,1991,Raw,No,D
2,Oleksiy Mesyats,J,105.4,,,,,,,,,230,245,255,255,255,110,M,Олексій Месяц,1991,Raw,No,D
3,Valentin Kazmirenko,J,108,,,,,,,,,222.5,232.5,237.5,237.5,237.5,110,M,Валентин Казьміренко,1991,Raw,No,D
1,Oleksandr Chernish,O,103,,,,,,,,,260,270,280,280,280,110,M,Олександр Черниш,1988,Raw,No,D
2,Oleksiy Mesyats,O,105.4,,,,,,,,,230,245,255,255,255,110,M,Олексій Месяц,1991,Raw,No,D
1,Oleksandr Ponomar,O,119.6,,,,,,,,,270,280,290,290,290,125,M,Олександр Пономар,1981,Raw,No,D
