Place,WeightClassKg,Name,State,Sex,BodyweightKg,Best3SquatKg,Best3BenchKg,Best3DeadliftKg,TotalKg,Division,Event,Equipment
1,90,Tyler Bennett,IA,M,88.72,,180,,180,jr,B,Raw
1,82.5,Matt Fehl,MO,M,81.19,,155,,155,sm2,B,Raw
1,125,Matthew Jones,KS,M,122.38,,187.5,,187.5,smp,B,Raw
1,67.5,Peter McCarthy,IA,M,67.18,,135,,135,pure,B,Raw
1,110,Brian Phillips,IA,M,102.06,,150,,150,m1,B,Raw
1,67.5,Blake Washington,IA,M,66.09,,110,,110,jr,B,Raw
1,100,Phil Poppino,IA,M,97.98,,135,,135,m4,B,Raw
1,67.5,Benji Crutchfield,IA,M,64.5,,100,,100,hs,B,Raw
DQ,67.5,Nathan Varner,IA,M,66.5,,,,,jr,B,Raw
1,110,Jason Weitz,IA,M,109.09,,215,,215,pure,B,Single-ply
1,110,Jeff Hansen,IA,M,106.87,,205,,205,m2,B,Single-ply
DQ,67.5,Brian Albert,IA,M,66.68,,,,,mp,B,Single-ply
1,140,Robert Magers,IA,M,134.35,310,230,250,790,mp,SBD,Single-ply
1,82.5,Colton Magers,IA,M,79.61,255,110,235,600,teen,SBD,Single-ply
1,110,Joey Gazzo,IA,M,105.96,215,102.5,255,572.5,m2,SBD,Single-ply
1,110,Joey Gazzo,IA,M,105.96,215,102.5,255,572.5,pure,SBD,Single-ply
1,110,Storm Draayer,MN,M,100.88,137.5,100,165,402.5,hs,SBD,Single-ply
1,90,Toby Arnold,IL,M,86,120,82.5,145,347.5,hs,SBD,Single-ply
1,90,Toby Arnold,IL,M,86,120,82.5,145,347.5,teen,SBD,Single-ply
1,140,Jacob Adams,IA,M,139.71,,,295,295,jr,D,Raw
1,67.5,Denny Lawrence,IA,M,66.95,,112.5,227.5,340,m2,BD,Raw
1,56,Eric Green,IA,M,54.25,,95,147.5,242.5,m1,BD,Raw
1,56,Eric Green,IA,M,54.25,,95,147.5,242.5,open,BD,Raw
1,75,Cody Anderson,MO,M,70.58,,87.5,165,252.5,hs,BD,Raw
1,75,Cody Anderson,MO,M,70.58,,87.5,165,252.5,teen,BD,Raw
1,100,Joe Meyers,IA,M,94.07,,122.5,170,292.5,m1,BD,Raw
1,100,Tray Binkley,IA,M,93.17,,107.5,160,267.5,hs,BD,Raw
2,75,Roman Phillips,IA,M,69.13,,75,147.5,222.5,hs,BD,Raw
1,90,Cristian Panagua,IA,M,86.23,,80,180,260,hs,BD,Raw
3,75,Mark Kendal,IA,M,68.36,,75,120,195,hs,BD,Raw
1,67.5,Nicholas Walsh,IA,M,67.18,,70,115,185,hs,BD,Raw
1,90,Sara Michener,IA,F,84.96,,77.5,167.5,245,open,BD,Raw
1,90+,Rachel Betts,IA,F,140.79,,55,117.5,172.5,sm1,BD,Raw
1,75,Samii James,MO,F,68.76,,40,75,115,hs,BD,Raw
1,75,Samii James,MO,F,68.76,,40,75,115,teen,BD,Raw
1,100,Kevin Alvarez,IA,M,99.38,277.5,170,295,742.5,jr,SBD,Wraps
1,67.5,Kyle Keough,IA,M,66.77,202.5,137.5,260,600,open,SBD,Wraps
1,90,John Even,IA,M,88.59,245,167.5,245,657.5,jr,SBD,Wraps
1,90,John Even,IA,M,88.59,245,167.5,245,657.5,nov,SBD,Wraps
1,90,John Even,IA,M,88.59,245,167.5,245,657.5,open,SBD,Wraps
1,75,Nathan Poage,IA,M,72.8,207.5,117.5,250,575,jr,SBD,Wraps
2,90,Brandon Blanchart,IA,M,88.13,205,162.5,235,602.5,jr,SBD,Wraps
1,100,Paul Brooke,IA,M,98.97,182.5,160,292.5,635,m1,SBD,Wraps
1,100,Paul Brooke,IA,M,98.97,182.5,160,292.5,635,mp,SBD,Wraps
1,100,Paul Brooke,IA,M,98.97,182.5,160,292.5,635,pure,SBD,Wraps
1,67.5,Denny Lawrence,IA,M,66.95,172.5,112.5,227.5,512.5,mp,SBD,Wraps
1,75,Tyler Kite,IA,M,68.54,190,85,227.5,502.5,pure,SBD,Wraps
1,75,Tyler Kite,IA,M,68.54,190,85,227.5,502.5,sm1,SBD,Wraps
2,100,John Greise,IA,M,97.34,225,162.5,215,602.5,mp,SBD,Wraps
1,82.5,Zack Lund,IA,M,78.43,197.5,127.5,215,540,hs,SBD,Wraps
1,110,Kyle Kolb,IA,M,108.5,217.5,142.5,272.5,632.5,jr,SBD,Wraps
1,125,Bill Bowen,IA,M,123.51,255,142.5,257.5,655,int,SBD,Wraps
1,125,Kaden Margan,IA,M,114.53,240,132.5,257.5,630,jr,SBD,Wraps
1,140+,Scott Crawford,TN,M,145.51,230,192.5,272.5,695,int,SBD,Wraps
1,67.5,Nicholas Hardy,IL,M,66.22,147.5,102.5,220,470,int,SBD,Wraps
1,67.5,Nicholas Hardy,IL,M,66.22,147.5,102.5,220,470,p+f,SBD,Wraps
1,82.5,Thomas Turner,IA,M,81.33,200,117.5,202.5,520,m1,SBD,Wraps
1,82.5,Thomas Turner,IA,M,81.33,200,117.5,202.5,520,open,SBD,Wraps
3,90,Seth Thompson,IA,M,87.23,187.5,120,230,537.5,jr,SBD,Wraps
1,82.5,Alex DiRienzo,IA,M,77.7,165,120,220,505,pure,SBD,Wraps
1,100,Patrick Parry,IA,M,90.76,195,140,210,545,sm2,SBD,Wraps
1,82.5,Grant Voshell,IA,M,80.47,182.5,120,210,512.5,jr,SBD,Wraps
1,90,Travis Jewett,IA,M,88.59,185,125,215,525,sm1,SBD,Wraps
1,90,Garrett Hohbach,IA,M,85.68,192.5,125,197.5,515,teen,SBD,Wraps
1,110,Josh Crawford,IA,M,108.18,200,145,230,575,nov,SBD,Wraps
2,125,Cutler Albright,IA,M,122.2,227.5,132.5,247.5,607.5,jr,SBD,Wraps
2,90,Aaron Hornbrook,IA,M,88.54,197.5,125,197.5,520,nov,SBD,Wraps
2,90,Aaron Hornbrook,IA,M,88.54,197.5,125,197.5,520,open,SBD,Wraps
1,67.5,David Galligan,IA,M,65.82,155,82.5,195,432.5,hs,SBD,Wraps
1,67.5,Mike Mason,IA,M,66.81,137.5,110,182.5,430,jr,SBD,Wraps
3,90,Mike Mason,IA,M,66.81,137.5,110,182.5,430,nov,SBD,Wraps
2,67.5,Mike Mason,IA,M,66.81,137.5,110,182.5,430,open,SBD,Wraps
1,110,Christian Draayer,MN,M,110,190,135,227.5,552.5,m1,SBD,Wraps
2,82.5,Logan Joseph,IL,M,80.38,160,107.5,205,472.5,pure,SBD,Wraps
2,82.5,Bryant Medhus,IA,M,76.84,165,95,187.5,447.5,open,SBD,Wraps
1,75,Dillon Hain,IA,M,71.35,147.5,90,172.5,410,teen,SBD,Wraps
2,67.5,Benji Crutchfield,IA,M,64.5,135,100,147.5,382.5,hs,SBD,Wraps
2,100,Zachary Chaib,IL,M,93.67,160,122.5,182.5,465,nov,SBD,Wraps
1,100,Brian Dillman,IA,M,97.02,155,122.5,195,472.5,nov,SBD,Wraps
1,100,Travis Hohbach,IA,M,92.67,157.5,100,185,442.5,hs,SBD,Wraps
2,100,Joe Meyers,IA,M,94.07,140,122.5,170,432.5,m1,SBD,Wraps
1,75,David Bland,IA,M,74.48,135,85,155,375,m2,SBD,Wraps
2,75,Dalton Whitted,IL,M,72.94,125,65,170,360,teen,SBD,Wraps
4,90,Christopher Coffman,IA,M,88.09,110,75,182.5,367.5,nov,SBD,Wraps
2,82.5,James Riley,KS,M,76.48,112.5,70,122.5,305,hs,SBD,Wraps
3,82.5,James Riley,KS,M,76.48,112.5,70,122.5,305,pure,SBD,Wraps
1,75,Cody Johanson,IA,M,72.53,105,55,132.5,292.5,nov,SBD,Wraps
3,75,Travis Stepler,IA,M,72.26,105,57.5,122.5,285,teen,SBD,Wraps
1,52,Caden Hale,IA,M,44.23,62.5,35,82.5,180,nov,SBD,Wraps
1,48,Janis Finkelman,IA,F,46.27,85,55,137.5,277.5,open,SBD,Wraps
1,90+,Alicia Riley,KS,F,99.16,175,82.5,175,432.5,jr,SBD,Wraps
1,90+,Alicia Riley,KS,F,99.16,175,82.5,175,432.5,pure,SBD,Wraps
1,90,Sara Michener,IA,F,84.96,120,77.5,167.5,365,open,SBD,Wraps
2,82.5,Steph Bohlmann,IA,F,77.88,115,52.5,147.5,315,open,SBD,Wraps
1,67.5,Tori Aletheia,IA,F,65.73,92.5,65,120,277.5,int,SBD,Wraps
1,75,Ashley Gleckler,IA,F,71.62,87.5,45,122.5,255,nov,SBD,Wraps
1,52,Kanner Bauer,IA,F,35.52,55,30,55,140,youth,SBD,Wraps
1,60,Kate O'Conner,IA,F,57.52,57.5,37.5,87.5,182.5,m1,SBD,Wraps
1,67.5,Kadie Bauer,IA,F,63,55,35,102.5,192.5,teen,SBD,Wraps
1,100,Paul Brooke,IA,M,98.97,,160,292.5,452.5,m1,BD,Raw
1,100,Paul Brooke,IA,M,98.97,,160,292.5,452.5,mp,BD,Raw
1,100,Paul Brooke,IA,M,98.97,,160,292.5,452.5,open,BD,Raw
1,100,Paul Brooke,IA,M,98.97,,160,292.5,452.5,pure,BD,Raw
1,82.5,Louie Ligouri,NE,M,80.97,,137.5,245,382.5,m3,BD,Raw
1,67.5,Denny Lawrence,IA,M,66.95,,112.5,227.5,340,mp,BD,Raw
1,67.5,Peter McCarthy,IA,M,67.18,,135,195,330,pure,BD,Raw
2,100,Patrick Morris,IA,M,99.97,,140,232.5,372.5,open,BD,Raw
1,82.5,Alex Melton,IA,M,81.69,,115,182.5,297.5,hs,BD,Raw
