Division,WeightClassKg,Place,Name,Team,BodyweightKg,Best3SquatKg,Best3BenchKg,Best3DeadliftKg,TotalKg,Equipment,Event,Sex
Boys,51.71,1,Jason Ayers,Lampasas,51.53,151.95,81.65,179.17,412.77,Single-ply,SBD,M
Boys,51.71,2,Brian Elliston,Brady,50.89,111.13,52.16,142.88,306.17,Single-ply,SBD,M
Boys,51.71,3,Preston Fox,Lampasas,48.26,108.86,68.04,117.93,294.84,Single-ply,SBD,M
Boys,51.71,4,Javan Lopez,Lake Worth,47.72,99.79,52.16,95.25,247.21,Single-ply,SBD,M
Boys,51.71,5,Mason Johnson,Gatesville,45.45,99.79,49.9,92.99,242.67,Single-ply,SBD,M
Boys,51.71,6,John Francis,Tolar,45.45,72.57,49.9,81.65,204.12,Single-ply,SBD,M
Boys,55.79,1,Martin Palomino,Lake Worth,55.25,131.54,70.31,138.35,340.19,Single-ply,SBD,M
Boys,55.79,2,Jace Duncan,Mineral Wells,51.8,113.4,72.57,145.15,331.12,Single-ply,SBD,M
Boys,55.79,3,Travis Potter,Gatesville,52.8,136.08,54.43,140.61,331.12,Single-ply,SBD,M
Boys,55.79,DQ,Alex Reyes,Castleberry,55.52,104.33,65.77,,,Single-ply,SBD,M
Boys,59.87,1,Anthony Montes,Lampasas,58.69,158.76,99.79,172.37,430.91,Single-ply,SBD,M
Boys,59.87,2,Keith Ray,Stephenville,59.42,163.29,88.45,163.29,415.04,Single-ply,SBD,M
Boys,59.87,3,Jonah Maston,Santo,59.33,145.15,77.11,151.95,374.21,Single-ply,SBD,M
Boys,59.87,4,Cesar Galvan,Dublin,57.24,133.81,81.65,156.49,371.95,Single-ply,SBD,M
Boys,59.87,5,Dillon Graves,Glen Rose,59.51,124.74,83.91,156.49,365.14,Single-ply,SBD,M
Boys,59.87,6,Cesar Montano,Stephenville,58.6,140.61,86.18,127.01,353.8,Single-ply,SBD,M
Boys,59.87,7,Lorenzo Novoa,Lake Worth,59.6,127.01,77.11,140.61,344.73,Single-ply,SBD,M
Boys,59.87,DQ,Aubry Milwee,Sidney,57.15,,,,,Single-ply,SBD,M
Boys,67.13,1,Cesar Herrera,Glen Rose,65.77,215.46,120.2,213.19,548.85,Single-ply,SBD,M
Boys,67.13,2,Jayton Trammell,Santo,66.86,199.58,102.06,208.65,510.29,Single-ply,SBD,M
Boys,67.13,3,Chance Alvarez,Gatesville,67.13,176.9,108.86,197.31,483.08,Single-ply,SBD,M
Boys,67.13,4,Ryan Martinez,Tolar,66.5,161.03,120.2,174.63,455.86,Single-ply,SBD,M
Boys,67.13,5,Ethan Oakes,Lampasas,65.68,156.49,104.33,161.03,421.84,Single-ply,SBD,M
Boys,67.13,6,Hayden Monk,Stephenville,66.32,158.76,81.65,172.37,412.77,Single-ply,SBD,M
Boys,67.13,7,Avery Carrell,Castleberry,65.41,142.88,97.52,165.56,405.97,Single-ply,SBD,M
Boys,67.13,8,Kevin Wylie,Lampasas,66.13,154.22,74.84,147.42,376.48,Single-ply,SBD,M
Boys,67.13,9,Bowen Johnson,Coleman,65.32,133.81,81.65,149.69,365.14,Single-ply,SBD,M
Boys,67.13,10,Daniel Rodriguez #5,Dublin,60.69,127.01,81.65,140.61,349.27,Single-ply,SBD,M
Boys,67.13,11,Alex Mekeska,Lampasas,65.59,122.47,74.84,129.27,326.59,Single-ply,SBD,M
Boys,67.13,12,Marc Anthony Lopez,Gustine,63.68,97.52,81.65,136.08,315.25,Single-ply,SBD,M
Boys,67.13,13,Weston Halcom,Glen Rose,65.41,113.4,74.84,117.93,306.17,Single-ply,SBD,M
Boys,67.13,14,Joseph Brannon,Stephenville,62.19,104.33,70.31,129.27,303.91,Single-ply,SBD,M
Boys,67.13,15,Ashton Belk,Ballinger,60.96,97.52,56.7,115.67,269.89,Single-ply,SBD,M
Boys,67.13,16,Bryce McEndree,Salado,65.95,151.95,95.25,,247.21,Single-ply,SB,M
Boys,67.13,DQ,Jared Singleton,Mineral Wells,65.5,,,,,Single-ply,SBD,M
Boys,74.84,1,Jacob Riley,Dublin,74.84,181.44,102.06,242.67,526.17,Single-ply,SBD,M
Boys,74.84,2,Adrian Pena,Ballinger,71.85,183.7,111.13,183.7,478.54,Single-ply,SBD,M
Boys,74.84,3,Noah Maston,Santo,73.57,188.24,99.79,181.44,469.47,Single-ply,SBD,M
Boys,74.84,4,Brandon McEndree,Salado,72.21,167.83,88.45,170.1,426.38,Single-ply,SBD,M
Boys,74.84,5,Bailey Robertson,Lake Worth,74.84,161.03,88.45,161.03,410.5,Single-ply,SBD,M
Boys,74.84,6,Vincent Leon,Lampasas,73.84,142.88,63.5,170.1,376.48,Single-ply,SBD,M
Boys,74.84,7,AJ Escamilla,Gustine,69.58,142.88,63.5,167.83,374.21,Single-ply,SBD,M
Boys,74.84,8,Jonathan McCombs,Lake Worth,72.67,136.08,72.57,142.88,351.53,Single-ply,SBD,M
Boys,82.1,1,Nacho Rios,Comanche,80.56,210.92,147.42,210.92,569.26,Single-ply,SBD,M
Boys,82.1,2,Griffin Balthrop,Castleberry,82.1,185.97,131.54,233.6,551.11,Single-ply,SBD,M
Boys,82.1,3,Michael Nguyen,Lampasas,79.65,204.12,102.06,215.46,521.63,Single-ply,SBD,M
Boys,82.1,4,Imanol Martinez,Brady,80.01,215.46,99.79,199.58,514.83,Single-ply,SBD,M
Boys,82.1,5,Cole Schkade,Santo,81.65,192.78,104.33,192.78,489.88,Single-ply,SBD,M
Boys,82.1,6,Joe Torres,Brady,81.56,204.12,111.13,172.37,487.61,Single-ply,SBD,M
Boys,82.1,7,Ryan Goodwin,Mineral Wells,80.74,188.24,97.52,181.44,467.2,Single-ply,SBD,M
Boys,82.1,8,Matthew Ortiz,Castleberry,79.83,174.63,95.25,190.51,460.4,Single-ply,SBD,M
Boys,82.1,9,Issic DelaCruzq,Stephenville,80.1,170.1,104.33,185.97,460.4,Single-ply,SBD,M
Boys,82.1,10,Tate Swearengin,Glen Rose,80.83,151.95,127.01,181.44,460.4,Single-ply,SBD,M
Boys,82.1,11,Matthew Hamilton,Comanche,79.11,158.76,90.72,181.44,430.91,Single-ply,SBD,M
Boys,82.1,12,Steven Pearce,Castleberry,78.93,145.15,81.65,188.24,415.04,Single-ply,SBD,M
Boys,82.1,13,Caleb Ornales,Ballinger,75.57,142.88,68.04,127.01,337.93,Single-ply,SBD,M
Boys,82.1,14,Carl Golightly,Stephenville,81.56,108.86,70.31,117.93,297.1,Single-ply,SBD,M
Boys,82.1,DQ,Lance Spakes,Salado,77.84,210.92,,,,Single-ply,SBD,M
Boys,82.1,DQ,Jared Stone,Mineral Wells,77.75,158.76,,,,Single-ply,SBD,M
Boys,82.1,DQ,Cristian Vazquez,Dublin,75.84,,,,,Single-ply,SBD,M
Boys,89.81,1,Ragan Wood,Stephenville,89.63,272.16,151.95,229.06,653.17,Single-ply,SBD,M
Boys,89.81,2,Abel Barboza,Castleberry,87.45,244.94,136.08,244.94,625.96,Single-ply,SBD,M
Boys,89.81,3,Jace Hankins,Lampasas,84.64,210.92,136.08,222.26,569.26,Single-ply,SBD,M
Boys,89.81,4,Emiliano Jimenez,Comanche,85,181.44,127.01,204.12,512.56,Single-ply,SBD,M
Boys,89.81,5,Jeremy Ansley,Lake Worth,88.36,183.7,99.79,172.37,455.86,Single-ply,SBD,M
Boys,89.81,6,Jayton Hallmark,Brock,87.63,165.56,88.45,188.24,442.25,Single-ply,SBD,M
Boys,89.81,7,Timothy Landers,Castleberry,85.82,147.42,90.72,201.85,439.98,Single-ply,SBD,M
Boys,89.81,8,Hunter Wheeler,Ballinger,83.55,170.1,92.99,174.63,437.72,Single-ply,SBD,M
Boys,89.81,9,Ethan Norris,Stephenville,86.82,165.56,88.45,176.9,430.91,Single-ply,SBD,M
Boys,89.81,10,Brandon Lancaster,Ballinger,87.45,158.76,83.91,165.56,408.23,Single-ply,SBD,M
Boys,89.81,11,Cesar Macias,Stephenville,88.36,151.95,70.31,181.44,403.7,Single-ply,SBD,M
Boys,89.81,12,Wyatt Porter,Stephenville,88.63,61.23,,,61.23,Single-ply,S,M
Boys,99.79,1,Braxton Barrios,Glen Rose,95.62,244.94,147.42,226.8,619.15,Single-ply,SBD,M
Boys,99.79,2,Javier Hernandez,Brady,95.53,222.26,145.15,233.6,601.01,Single-ply,SBD,M
Boys,99.79,3,Miguel Monjaras,Castleberry,90.81,195.04,138.35,231.33,564.72,Single-ply,SBD,M
Boys,99.79,4,Mason Chapa,Castleberry,93.53,199.58,117.93,219.99,537.51,Single-ply,SBD,M
Boys,99.79,5,Nathan Martin,Stephenville,93.26,199.58,122.47,195.04,517.1,Single-ply,SBD,M
Boys,99.79,6,Yuri White,Glen Rose,94.53,181.44,115.67,217.72,514.83,Single-ply,SBD,M
Boys,99.79,7,David Garcia,Mineral Wells,99.06,204.12,111.13,190.51,505.76,Single-ply,SBD,M
Boys,99.79,8,Tre Rose,Brock,98.16,206.38,108.86,181.44,496.68,Single-ply,SBD,M
Boys,99.79,9,Nick Lara,Glen Rose,97.98,163.29,117.93,188.24,469.47,Single-ply,SBD,M
Boys,99.79,10,Sage Boleman,Brock,95.98,176.9,108.86,181.44,467.2,Single-ply,SBD,M
Boys,99.79,11,Juan Castillo,Salado,96.07,165.56,92.99,176.9,435.45,Single-ply,SBD,M
Boys,99.79,12,Adolph Medina,Ballinger,94.26,158.76,92.99,167.83,419.57,Single-ply,SBD,M
Boys,99.79,13,Jeremy Rodgers,Lampasas,94.62,154.22,81.65,181.44,417.3,Single-ply,SBD,M
Boys,99.79,14,Jacob Snoddy,Gatesville,98.79,149.69,97.52,127.01,374.21,Single-ply,SBD,M
Boys,99.79,15,Connor Laughrin,Gatesville,89.9,142.88,86.18,142.88,371.95,Single-ply,SBD,M
Boys,99.79,DQ,Jason Escobedo,Lake Worth,94.08,201.85,131.54,,,Single-ply,SBD,M
Boys,109.77,1,Brandon Taylor,Gatesville,109.41,265.35,147.42,265.35,678.12,Single-ply,SBD,M
Boys,109.77,2,Austin Coker,Santo,107.23,265.35,147.42,229.06,641.83,Single-ply,SBD,M
Boys,109.77,3,Jacob Boyd,Mineral Wells,107.5,238.14,172.37,226.8,637.3,Single-ply,SBD,M
Boys,109.77,4,Frederico Arvizu,Castleberry,109.77,249.48,133.81,238.14,621.42,Single-ply,SBD,M
Boys,109.77,5,Matt Willis,Glen Rose,108.86,217.72,129.27,244.94,591.94,Single-ply,SBD,M
Boys,109.77,6,Sam Jackson,Gatesville,100.97,229.06,145.15,210.92,585.13,Single-ply,SBD,M
Boys,109.77,7,Tyvonn Robinson,Stephenville,104.14,201.85,131.54,197.31,530.7,Single-ply,SBD,M
Boys,109.77,8,Bradley Aaron,Mineral Wells,107.41,215.46,131.54,165.56,512.56,Single-ply,SBD,M
Boys,109.77,9,Anthony Coker,Santo,103.24,195.04,102.06,199.58,496.68,Single-ply,SBD,M
Boys,109.77,10,Jaxon Tucker,Brady,105.23,190.51,115.67,190.51,496.68,Single-ply,SBD,M
Boys,109.77,11,Trace Coe,Mineral Wells,103.96,188.24,122.47,181.44,492.15,Single-ply,SBD,M
Boys,109.77,12,Jacob Poston,Stephenville,108.77,183.7,111.13,163.29,458.13,Single-ply,SBD,M
Boys,109.77,DQ,Divad Briones,Ballinger,107.68,201.85,138.35,,,Single-ply,SBD,M
Boys,124.74,1,Pedro Bernal,Comanche,121.29,260.82,158.76,249.48,669.05,Single-ply,SBD,M
Boys,124.74,2,Chris Bullington,Gatesville,114.03,265.35,163.29,213.19,641.83,Single-ply,SBD,M
Boys,124.74,3,Ethan Price,Dublin,112.94,242.67,167.83,210.92,621.42,Single-ply,SBD,M
Boys,124.74,4,Jace King,Ballinger,119.84,254.01,142.88,219.99,616.89,Single-ply,SBD,M
Boys,124.74,5,Aaron Hite,Mineral Wells,111.67,238.14,124.74,215.46,578.33,Single-ply,SBD,M
Boys,124.74,6,Alexis Jimenez,Lake Worth,113.58,201.85,145.15,197.31,544.31,Single-ply,SBD,M
Boys,124.74,7,Leo Garcia,Gustine,113.13,215.46,90.72,176.9,483.08,Single-ply,SBD,M
Boys,124.74,8,Cameron Urteaga,Stephenville,117.57,188.24,102.06,185.97,476.27,Single-ply,SBD,M
Boys,124.74,9,Zac Cody,Stephenville,120.7,158.76,102.06,170.1,430.91,Single-ply,SBD,M
Boys,124.74,DQ,Austin Northcutt,Stephenville,122.65,,,,,Single-ply,SBD,M
Boys,124.74,DQ,Josh King #1,Lake Worth,121.2,240.4,,,,Single-ply,SBD,M
Boys,124.74,DQ,Bailey Adair,Gatesville,117.75,297.1,,,,Single-ply,SBD,M
Boys,124.74+,1,Jonah Bassa,Salado,146.6,260.82,136.08,233.6,630.49,Single-ply,SBD,M
Boys,124.74+,2,Chris Nix,Lampasas,133.54,208.65,138.35,215.46,562.45,Single-ply,SBD,M
Boys,124.74+,3,John Brunner,Brock,126.55,172.37,102.06,151.95,426.38,Single-ply,SBD,M
