Division,WeightClassKg,Place,Name,Team,BodyweightKg,Best3SquatKg,Best3BenchKg,Best3DeadliftKg,TotalKg,Equipment,Event,Sex
Boys,51.71,1,Haif Martinez,Lewisville The Colony,51.62,154.22,88.45,188.24,430.91,Single-ply,SBD,M
Boys,55.79,2,JT White,Cedar Hill,51.85,149.69,77.11,176.9,403.7,Single-ply,SBD,M
Boys,51.71,3,Shafiq Asmaty,Kennedale,50.53,97.52,56.7,102.06,256.28,Single-ply,SBD,M
Boys,51.71,4,Kamron Hook,Midlothian,51.17,95.25,68.04,111.13,274.42,Single-ply,SBD,M
Boys,55.79,5,Tyler Walker,Red Oak,51.89,90.72,49.9,113.4,254.01,Single-ply,SBD,M
Boys,51.71,6,Mason Mott,Midlothian,50.62,90.72,52.16,102.06,244.94,Single-ply,SBD,M
Boys,51.71,7,Matt Lowe,Carrollton Ranchview,51.17,83.91,45.36,97.52,226.8,Single-ply,SBD,M
Boys,59.87,1,Zach Fain,Cedar Hill,55.97,199.58,108.86,204.12,512.56,Single-ply,SBD,M
Boys,55.79,2,Derrick Dawn,Cedar Hill,55.7,167.83,115.67,195.04,478.54,Single-ply,SBD,M
Boys,55.79,3,Carlos Bravo,Lewisville The Colony,54.79,176.9,99.79,176.9,453.59,Single-ply,SBD,M
Boys,55.79,4,Blake Mirowitz,Red Oak,55.7,163.29,86.18,185.97,435.45,Single-ply,SBD,M
Boys,59.87,5,Damian Bissant,Cedar Hill,56.02,149.69,70.31,154.22,374.21,Single-ply,SBD,M
Boys,55.79,6,Kevin Huynh,Kennedale,54.88,138.35,70.31,161.03,369.68,Single-ply,SBD,M
Boys,55.79,7,Connor Buttgen,Midlothian,55.43,129.27,63.5,140.61,333.39,Single-ply,SBD,M
Boys,55.79,8,Jared Hamilton,Cedar Hill,52.62,113.4,63.5,142.88,319.78,Single-ply,SBD,M
Boys,55.79,9,Ashton Williams,Everman,54.16,113.4,61.23,142.88,317.51,Single-ply,SBD,M
Boys,55.79,10,Michael Vera,Carrollton Ranchview,53.71,97.52,47.63,111.13,256.28,Single-ply,SBD,M
Boys,59.87,1,Clarington Lightfoot,Everman,59.87,226.8,120.2,215.46,562.45,Single-ply,SBD,M
Boys,59.87,2,Richard Hernandez,Lewisville The Colony,59.51,217.72,133.81,199.58,551.11,Single-ply,SBD,M
Boys,67.13,3,Sean Guinyard,Kennedale,60.06,199.58,102.06,185.97,487.61,Single-ply,SBD,M
Boys,59.87,4,Tyler Hickman,Joshua,59.24,170.1,111.13,190.51,471.74,Single-ply,SBD,M
Boys,59.87,5,Demitri Sommer,Lewisville The Colony,59.51,192.78,77.11,185.97,455.86,Single-ply,SBD,M
Boys,59.87,6,Ellic Hayden,Justin Northwest,58.6,149.69,97.52,149.69,396.89,Single-ply,SBD,M
Boys,67.13,7,Fouad Ali,Kennedale,59.96,140.61,88.45,163.29,392.36,Single-ply,SBD,M
Boys,67.13,8,Zach Rose,Cedar Hill,59.96,140.61,74.84,167.83,383.29,Single-ply,SBD,M
Boys,59.87,9,Alejandro Olmos,Everman,59.15,142.88,111.13,124.74,378.75,Single-ply,SBD,M
Boys,59.87,10,Chase Porter,Burleson,59.33,131.54,90.72,149.69,371.95,Single-ply,SBD,M
Boys,59.87,11,Gary Hampton,Everman,59.42,136.08,70.31,158.76,365.14,Single-ply,SBD,M
Boys,67.13,12,Dempsey Duprie,Midlothian,60.06,138.35,77.11,142.88,358.34,Single-ply,SBD,M
Boys,67.13,13,Tyler Madsen,Fort Worth Western Hills,60.06,111.13,68.04,158.76,337.93,Single-ply,SBD,M
Boys,59.87,14,Brandon Johnson,Everman,57.97,113.4,70.31,147.42,331.12,Single-ply,SBD,M
Boys,59.87,15,Jeff Iwainin,Bishop,59.87,124.74,58.97,124.74,308.44,Single-ply,SBD,M
Boys,67.13,16,Keineilous Stewart,Cedar Hill,60.06,122.47,81.65,104.33,308.44,Single-ply,SBD,M
Boys,59.87,DQ,Kareem Williams,Carrollton Ranchview,58.33,174.63,,,,Single-ply,SBD,M
Boys,74.84,1,Devin Walker,Everman,67.36,170.1,113.4,197.31,480.81,Single-ply,SBD,M
Boys,67.13,2,Charles Crosby,Red Oak,66.04,188.24,99.79,190.51,478.54,Single-ply,SBD,M
Boys,67.13,3,Trey Williams,Kennedale,66.5,172.37,99.79,181.44,453.59,Single-ply,SBD,M
Boys,67.13,4,Jafus Johnson,Cedar Hill,67.04,181.44,102.06,158.76,442.25,Single-ply,SBD,M
Boys,67.13,5,Corey Carter,Fort Worth Western Hills,67.13,147.42,83.91,174.63,405.97,Single-ply,SBD,M
Boys,67.13,6,Joseph Ogunniyi,Cedar Hill,67.13,149.69,83.91,170.1,403.7,Single-ply,SBD,M
Boys,67.13,7,Dakota Chavis,Justin Northwest,65.05,142.88,81.65,174.63,399.16,Single-ply,SBD,M
Boys,67.13,8,Christian McClain,Carrollton Ranchview,61.6,131.54,74.84,158.76,365.14,Single-ply,SBD,M
Boys,67.13,9,Jared Silva,Bishop,67.13,131.54,70.31,136.08,337.93,Single-ply,SBD,M
Boys,67.13,10,Tyler Hunter,Kennedale,62.23,142.88,86.18,102.06,331.12,Single-ply,SBD,M
Boys,67.13,11,Billy Mixon,Bishop,66.86,117.93,70.31,115.67,303.91,Single-ply,SBD,M
Boys,67.13,12,Grant Leach,Fort Worth Western Hills,61.96,61.23,70.31,115.67,247.21,Single-ply,SBD,M
Boys,67.13,DQ,Quintn Cook,Arlington Seguin,66.32,156.49,88.45,,,Single-ply,SBD,M
Boys,74.84,1,Dylan Byrd,Joshua,74.12,247.21,154.22,242.67,644.1,Single-ply,SBD,M
Boys,74.84,2,Dashune Barlow,Cedar Hill,70.94,188.24,104.33,251.74,544.31,Single-ply,SBD,M
Boys,74.84,3,David Carter,Everman,68.04,201.85,106.59,217.72,526.17,Single-ply,SBD,M
Boys,74.84,4,Tarik Crear,Cedar Hill,72.21,192.78,111.13,208.65,512.56,Single-ply,SBD,M
Boys,74.84,5,Brennan Sooter,Justin Northwest,73.84,185.97,102.06,210.92,498.95,Single-ply,SBD,M
Boys,74.84,6,Collin Seago,Burleson,72.76,195.04,115.67,185.97,496.68,Single-ply,SBD,M
Boys,74.84,7,Jon Rojes,Keller Timber Creek,73.75,192.78,102.06,181.44,476.27,Single-ply,SBD,M
Boys,74.84,8,Aj Stephens,Cedar Hill,74.84,181.44,102.06,174.63,458.13,Single-ply,SBD,M
Boys,74.84,9,Alex Chuk,Arlington Seguin,72.67,172.37,90.72,181.44,444.52,Single-ply,SBD,M
Boys,74.84,10,Jamal Patterson,Cedar Hill,71.3,156.49,92.99,190.51,439.98,Single-ply,SBD,M
Boys,74.84,11,Essix Lightfoot,Everman,72.8,192.78,102.06,145.15,439.98,Single-ply,SBD,M
Boys,74.84,12,Austin Parker,Arlington Seguin,69.58,167.83,92.99,154.22,415.04,Single-ply,SBD,M
Boys,74.84,13,Kahlil Edwards,Carrollton Ranchview,73.12,156.49,65.77,192.78,415.04,Single-ply,SBD,M
Boys,82.1,14,Darren Darham,Arlington Seguin,75.07,158.76,88.45,167.83,415.04,Single-ply,SBD,M
Boys,74.84,15,Collin Radford,Joshua,70.4,138.35,95.25,174.63,408.23,Single-ply,SBD,M
Boys,74.84,16,Adrian Aldape,Midlothian,74.66,138.35,86.18,183.7,408.23,Single-ply,SBD,M
Boys,74.84,17,Chandler Dubriel,Arlington Seguin,68.86,131.54,86.18,154.22,371.95,Single-ply,SBD,M
Boys,74.84,18,Tyler Kilberg,Everman,74.75,102.06,74.84,179.17,356.07,Single-ply,SBD,M
Boys,74.84,19,Justin Hull,Joshua,68.4,111.13,72.57,147.42,331.12,Single-ply,SBD,M
Boys,89.81,1,Jerrod King,Midlothian,82.28,226.8,154.22,210.92,591.94,Single-ply,SBD,M
Boys,82.1,2,Cale Gilley,Kennedale,80.01,208.65,142.88,208.65,560.19,Single-ply,SBD,M
Boys,82.1,3,Justin Seeton,Midlothian,78.56,190.51,113.4,213.19,517.1,Single-ply,SBD,M
Boys,82.1,4,Cameron Bausley,Red Oak,76.11,197.31,106.59,206.38,510.29,Single-ply,SBD,M
Boys,82.1,5,Isaiah Lewis,Cedar Hill,81.78,197.31,104.33,208.65,510.29,Single-ply,SBD,M
Boys,82.1,6,KJ Evans,Joshua,79.83,179.17,120.2,197.31,496.68,Single-ply,SBD,M
Boys,82.1,7,Will Martin,Arlington Seguin,80.83,185.97,120.2,181.44,487.61,Single-ply,SBD,M
Boys,82.1,8,Hunter Smith,Kennedale,81.56,183.7,92.99,195.04,471.74,Single-ply,SBD,M
Boys,82.1,9,Michael Edwards,Keller Timber Creek,77.2,174.63,92.99,192.78,460.4,Single-ply,SBD,M
Boys,89.81,10,Dovean Dillard,Cedar Hill,82.33,181.44,106.59,151.95,439.98,Single-ply,SBD,M
Boys,82.1,11,Sean Slater,Fort Worth Western Hills,77.07,161.03,74.84,185.97,421.84,Single-ply,SBD,M
Boys,82.1,12,Ramizes Norris,Everman,78.11,142.88,81.65,195.04,419.57,Single-ply,SBD,M
Boys,82.1,13,Leonidas Brooks,Kennedale,77.56,151.95,95.25,170.1,417.3,Single-ply,SBD,M
Boys,82.1,14,Jacovan Duffutt,Arlington Seguin,81.1,151.95,90.72,163.29,405.97,Single-ply,SBD,M
Boys,82.1,15,Josh Williams,Fort Worth Western Hills,76.93,172.37,61.23,165.56,399.16,Single-ply,SBD,M
Boys,82.1,16,Tirreyon Crowe,Carrollton Ranchview,75.93,142.88,74.84,136.08,353.8,Single-ply,SBD,M
Boys,82.1,17,Daniel Ambriz,Everman,81.37,145.15,65.77,142.88,353.8,Single-ply,SBD,M
Boys,82.1,18,John Molina,Bishop,82.1,140.61,77.11,124.74,342.46,Single-ply,SBD,M
Boys,82.1,19,Kendal Adams,Cedar Hill,78.56,113.4,74.84,142.88,331.12,Single-ply,SBD,M
Boys,82.1,20,Christian Garcia,Fort Worth Western Hills,78.47,124.74,72.57,124.74,322.05,Single-ply,SBD,M
Boys,82.1,DQ,Quantence Walker,Everman,75.39,170.1,,,,Single-ply,SBD,M
Boys,82.1,DQ,Michael Kim,Carrollton Ranchview,80.74,174.63,,,,Single-ply,SBD,M
Boys,82.1,DQ,Jacob Muniz,Carrollton Ranchview,79.74,,,,,Single-ply,SBD,M
Boys,89.81,1,Jeff Stevens,Justin Northwest,86.82,240.4,149.69,242.67,632.76,Single-ply,SBD,M
Boys,89.81,2,Stratford Washington,Cedar Hill,88.13,244.94,147.42,240.4,632.76,Single-ply,SBD,M
Boys,89.81,3,Michael Denton,Lewisville The Colony,86.64,240.4,102.06,235.87,578.33,Single-ply,SBD,M
Boys,89.81,4,Cedric Shaw,Everman,89.68,240.4,122.47,215.46,578.33,Single-ply,SBD,M
Boys,89.81,5,Michael Ray,Justin Northwest,89.58,204.12,127.01,244.94,576.06,Single-ply,SBD,M
Boys,89.81,6,Chris Carnes,Burleson,85.87,204.12,136.08,206.38,546.58,Single-ply,SBD,M
Boys,89.81,7,Kassey Cook,Everman,89.04,185.97,115.67,197.31,498.95,Single-ply,SBD,M
Boys,89.81,8,Quinton Slaughter,Red Oak,89.81,192.78,111.13,195.04,498.95,Single-ply,SBD,M
Boys,89.81,9,Josh Whitworth,Joshua,85.96,170.1,113.4,192.78,476.27,Single-ply,SBD,M
Boys,89.81,10,Lafayette Noble,Red Oak,84.64,181.44,104.33,188.24,474,Single-ply,SBD,M
Boys,89.81,11,Caleb Shaw,Midlothian,87.09,170.1,102.06,183.7,455.86,Single-ply,SBD,M
Boys,89.81,12,Cedric Jones,Arlington Seguin,83.37,174.63,90.72,145.15,410.5,Single-ply,SBD,M
Boys,89.81,13,James Slawson,Joshua,87.45,161.03,88.45,154.22,403.7,Single-ply,SBD,M
Boys,89.81,14,Chaz Miller,Bishop,89.4,145.15,92.99,158.76,396.89,Single-ply,SBD,M
Boys,89.81,15,Rotimi Adetula,Arlington Seguin,88.18,151.95,86.18,149.69,387.82,Single-ply,SBD,M
Boys,89.81,16,Eric Raman,Bishop,89.45,151.95,65.77,149.69,367.41,Single-ply,SBD,M
Boys,89.81,DQ,Mervin Pressley,Arlington Seguin,88.04,192.78,,181.44,,Single-ply,SBD,M
Boys,89.81,DQ,Bryan Leonard,Fort Worth Western Hills,87,,,,,Single-ply,SBD,M
Boys,89.81,DQ,Caleb Moreau,Fort Worth Western Hills,88.54,,,,,Single-ply,SBD,M
Boys,99.79,1,Xavier Warren,Cedar Hill,96.07,247.21,145.15,254.01,646.37,Single-ply,SBD,M
Boys,109.77,2,Eissa Eissa,Joshua,100.02,247.21,149.69,226.8,623.69,Single-ply,SBD,M
Boys,99.79,3,Brett Wade,Kennedale,95.21,242.67,133.81,238.14,614.62,Single-ply,SBD,M
Boys,99.79,4,Sir Wells,Lewisville The Colony,98.93,226.8,111.13,242.67,580.6,Single-ply,SBD,M
Boys,99.79,5,Austin Apari Jr,Lewisville The Colony,99.56,240.4,111.13,226.8,578.33,Single-ply,SBD,M
Boys,99.79,6,Jude Akpunku,Cedar Hill,99.52,204.12,127.01,244.94,576.06,Single-ply,SBD,M
Boys,99.79,7,Shane King,Justin Northwest,96.93,226.8,102.06,226.8,555.65,Single-ply,SBD,M
Boys,99.79,8,Addison Parrish,Burleson,93.21,219.99,124.74,206.38,551.11,Single-ply,SBD,M
Boys,99.79,9,Koltyn Davis,Kennedale,97.39,208.65,117.93,215.46,542.04,Single-ply,SBD,M
Boys,99.79,10,Cameron Chamberlin,Burleson,94.89,206.38,140.61,181.44,528.44,Single-ply,SBD,M
Boys,99.79,11,Cayn Miller,Midlothian,92.26,210.92,104.33,206.38,521.63,Single-ply,SBD,M
Boys,99.79,12,Leo Garcia,Justin Northwest,98.47,204.12,111.13,190.51,505.76,Single-ply,SBD,M
Boys,99.79,13,Josh Fleming,Keller Timber Creek,93.8,190.51,124.74,183.7,498.95,Single-ply,SBD,M
Boys,99.79,14,Tony Kirk,Midlothian,94.12,176.9,106.59,206.38,489.88,Single-ply,SBD,M
Boys,99.79,15,Bobby McGruder,Arlington Seguin,99.52,170.1,92.99,181.44,444.52,Single-ply,SBD,M
Boys,99.79,16,Cruz Marquez,Joshua,96.75,161.03,83.91,174.63,419.57,Single-ply,SBD,M
Boys,99.79,17,Torian Love,Fort Worth Western Hills,93.08,165.56,97.52,142.88,405.97,Single-ply,SBD,M
Boys,99.79,18,Eli Zabloskly,Bishop,92.31,90.72,70.31,111.13,272.16,Single-ply,SBD,M
Boys,99.79,DQ,Calen Johnson,Cedar Hill,91.63,231.33,138.35,,,Single-ply,SBD,M
Boys,99.79,DQ,Steven Aikens,Arlington Seguin,91.26,176.9,88.45,,,Single-ply,SBD,M
Boys,99.79,DQ,James Legrand,Everman,92.99,170.1,,,,Single-ply,SBD,M
Boys,109.77,1,Clayton McGilvray,Justin Northwest,106.23,254.01,140.61,249.48,644.1,Single-ply,SBD,M
Boys,109.77,2,Paul Cox,Everman,104.51,254.01,149.69,235.87,639.57,Single-ply,SBD,M
Boys,109.77,3,Albert Willingham,Fort Worth Western Hills,107.18,238.14,163.29,204.12,605.55,Single-ply,SBD,M
Boys,109.77,4,Brett Mosher,Tolar,109.72,235.87,145.15,217.72,598.74,Single-ply,SBD,M
Boys,109.77,5,Isaiah Hinton,Lewisville The Colony,101.74,244.94,120.2,226.8,591.94,Single-ply,SBD,M
Boys,109.77,6,Sebastian Sara,Carrollton Ranchview,107.68,231.33,127.01,199.58,557.92,Single-ply,SBD,M
Boys,109.77,7,Hunter Heins,Burleson,104.37,215.46,120.2,215.46,551.11,Single-ply,SBD,M
Boys,109.77,8,Sam Jenkins,Red Oak,108.36,206.38,145.15,192.78,544.31,Single-ply,SBD,M
Boys,109.77,9,Thomas Marek,Red Oak,105.73,204.12,117.93,208.65,530.7,Single-ply,SBD,M
Boys,109.77,10,Mason Decker,Justin Northwest,105.41,231.33,108.86,188.24,528.44,Single-ply,SBD,M
Boys,109.77,11,Dylan Johnson,Red Oak,103.51,206.38,111.13,183.7,501.22,Single-ply,SBD,M
Boys,109.77,12,Xavier Frederick,Carrollton Ranchview,104.51,185.97,113.4,185.97,485.34,Single-ply,SBD,M
Boys,109.77,13,Cody Curlee,Keller Timber Creek,109.32,183.7,113.4,165.56,462.66,Single-ply,SBD,M
Boys,109.77,14,Daquan Washington,Carrollton Ranchview,101.74,172.37,97.52,149.69,419.57,Single-ply,SBD,M
Boys,109.77,15,Lionel Bellazin,Everman,107.09,170.1,90.72,147.42,408.23,Single-ply,SBD,M
Boys,124.74,1,Heath LeMoine,Midlothian,124.51,272.16,183.7,215.46,671.32,Single-ply,SBD,M
Boys,124.74,2,Travis Stubblefield,Justin Northwest,114.21,260.82,161.03,226.8,648.64,Single-ply,SBD,M
Boys,124.74,3,Diego Mejia,Everman,115.94,249.48,115.67,222.26,587.4,Single-ply,SBD,M
Boys,124.74,4,Josh Fisher,Red Oak,120.56,242.67,129.27,215.46,587.4,Single-ply,SBD,M
Boys,124.74,5,Damarcus Henderson,Lewisville The Colony,120.93,238.14,115.67,226.8,580.6,Single-ply,SBD,M
Boys,124.74,6,Brandon Lane,Tolar,122.11,226.8,138.35,204.12,569.26,Single-ply,SBD,M
Boys,124.74,7,Buck Buchanan,Lewisville The Colony,123.47,219.99,106.59,226.8,553.38,Single-ply,SBD,M
Boys,124.74,8,Anthony Pullins,Cedar Hill,118.3,226.8,127.01,192.78,546.58,Single-ply,SBD,M
Boys,124.74,9,Anthony Zapata,Everman,118.84,226.8,108.86,208.65,544.31,Single-ply,SBD,M
Boys,124.74,10,Steven Patton,Red Oak,123.97,195.04,108.86,183.7,487.61,Single-ply,SBD,M
Boys,124.74,11,Austin McCord,Joshua,117.62,188.24,106.59,181.44,476.27,Single-ply,SBD,M
Boys,124.74,12,Ethan Jones,Burleson,116.48,192.78,108.86,158.76,460.4,Single-ply,SBD,M
Boys,124.74,13,Christian Reyes,Fort Worth Western Hills,119.66,179.17,97.52,183.7,460.4,Single-ply,SBD,M
Boys,124.74,14,Nick Savela,Bishop,112.99,192.78,88.45,149.69,430.91,Single-ply,SBD,M
Boys,124.74,15,Ray Beach,Arlington Seguin,115.98,147.42,122.47,145.15,415.04,Single-ply,SBD,M
Boys,124.74,16,Sean Partridge,Fort Worth Western Hills,121.43,170.1,83.91,156.49,410.5,Single-ply,SBD,M
Boys,124.74,DQ,Sawyer Cooper,Justin Northwest,120.93,278.96,154.22,,,Single-ply,SBD,M
Boys,124.74+,1,Bobby Romero,Everman,145.6,306.17,181.44,251.74,739.36,Single-ply,SBD,M
Boys,124.74+,2,DJ Willis,Lewisville The Colony,138.35,272.16,149.69,263.08,684.92,Single-ply,SBD,M
Boys,124.74+,3,Adarius Epps,Cedar Hill,133.13,244.94,154.22,244.94,644.1,Single-ply,SBD,M
Boys,124.74+,4,Fred Gipson,Everman,128.5,244.94,170.1,215.46,630.49,Single-ply,SBD,M
Boys,124.74+,5,Dylan Baldeschiler,Burleson,126.78,240.4,151.95,195.04,587.4,Single-ply,SBD,M
Boys,124.74+,6,Cotton Pena,Joshua,153.27,219.99,149.69,185.97,555.65,Single-ply,SBD,M
Boys,124.74+,7,Zeke Clerk,Red Oak,139.8,226.8,136.08,181.44,544.31,Single-ply,SBD,M
Boys,124.74+,8,Kyle Green,Joshua,151.41,195.04,136.08,136.08,467.2,Single-ply,SBD,M
Boys,124.74+,9,Taason Richardson,Arlington Seguin,140.98,163.29,88.45,163.29,415.04,Single-ply,SBD,M
Boys,124.74+,DQ,Jeff Reynolds,Midlothian,133.72,183.7,,,,Single-ply,SBD,M
