Place,Sex,Name,Event,Division,WeightClassKg,Equipment,BirthYear,Team,State,BodyweightKg,Squat1Kg,Squat2Kg,Squat3Kg,Best3SquatKg,Bench1Kg,Bench2Kg,Bench3Kg,Best3BenchKg,Deadlift1Kg,Deadlift2Kg,Deadlift3Kg,Best3DeadliftKg,TotalKg
1,M,Jake Hegler,B,MR-O,120,Raw,1979,UNA,VA,118,,,,,250,-257.5,-257.5,250.0,,,,,250
1,M,Matthew Zwiren,SBD,M-O,74,Single-ply,1995,Virginia Military Institute,VA,72.6,180,-185,-185,180.0,137.5,145,147.5,147.5,180,187.5,192.5,192.5,520
1,M,Morgan Menaker,SBD,M-O,93,Single-ply,1995,Virginia Military Institute,NC,89,192.5,207.5,217.5,217.5,125,135,-142.5,135.0,227.5,240,255,255.0,607.5
DQ,M,Cody Ellis,SBD,M-O,93,Single-ply,1994,Virginia Military Institute,VA,90.4,190,-195,200,200.0,-142.5,-150,-150,,-192.5,-192.5,-192.5,,
1,M,Haris Mukic,SBD,MR-Jr,83,Raw,1994,Virginia Commonwealth Univ.,VA,80.6,155,167.5,-177.5,167.5,82.5,87.5,-97.5,87.5,205,217.5,227.5,227.5,482.5
1,M,Graham Martin,SBD,MR-Jr,93,Raw,1993,Virginia Military Institute,VA,88.5,130,142.5,150,150.0,82.5,92.5,95,95.0,182.5,207.5,215,215.0,460
1,M,Joel Person,SBD,MR-Jr,105,Raw,1993,Virginia Commonwealth Univ.,VA,103.7,230,-245,252.5,252.5,147.5,160,-167.5,160.0,-272.5,290,-300,290.0,702.5
1,M,Stephen Lawson,SBD,MR-O,59,Raw,1995,Unattached,VA,57.4,105,115,-117.5,115.0,82.5,-92.5,92.5,92.5,142.5,-155,155,155.0,362.5
1,M,Jose Gonzales,SBD,MR-O,66,Raw,1992,Virginia Commonwealth Univ.,VA,65.5,160,-170,-170,160.0,82.5,-90,-90,82.5,170,182.5,192.5,192.5,435
2,M,Justin Nguyen,SBD,MR-O,66,Raw,1995,Virginia Commonwealth Univ.,VA,65.2,145,-152.5,152.5,152.5,77.5,82.5,87.5,87.5,175,182.5,-195,182.5,422.5
3,M,Alex Le,SBD,MR-O,66,Raw,1994,Virginia Commonwealth Univ.,VA,65.4,132.5,140,-147.5,140.0,95,-100,-100,95.0,170,180,187.5,187.5,422.5
1,M,William Van Deusen,SBD,MR-O,74,Raw,1995,Virginia Commonwealth Univ.,VA,73.2,152.5,155,167.5,167.5,95,100,-102.5,100.0,200,215,-227.5,215.0,482.5
2,M,Derek Pham,SBD,MR-O,74,Raw,1997,Virginia Commonwealth Univ.,VA,71,142.5,147.5,157.5,157.5,75,80,-87.5,80.0,172.5,180,192.5,192.5,430
3,M,Joshua Mack,SBD,MR-O,74,Raw,1997,Virginia Commonwealth Univ.,VA,72.5,140,152.5,157.5,157.5,77.5,82.5,87.5,87.5,152.5,165,177.5,177.5,422.5
4,M,Ramon Rivera,SBD,MR-O,74,Raw,1996,Virginia Military Institute,VA,70.8,135,142.5,152.5,152.5,82.5,87.5,92.5,92.5,142.5,152.5,165,165.0,410
5,M,Jacob Bailey,SBD,MR-O,74,Raw,1995,Virginia Military Institute,VA,71.5,102.5,105,-115,105.0,95,-100,-100,95.0,142.5,152.5,-182.5,152.5,352.5
1,M,Kai Rossbach,SBD,MR-O,83,Raw,1992,Unattached,VA,79.9,170,185,195,195.0,115,125,-132.5,125.0,210,225,232.5,232.5,552.5
2,M,Ciarran Roche,SBD,MR-O,83,Raw,1996,Unattached,VA,81,175,185,190,190.0,-127.5,-127.5,127.5,127.5,190,195,207.5,207.5,525
3,M,Thomas LaRocco,SBD,MR-O,83,Raw,1978,Unattached,VA,81.2,-165,170,175,175.0,125,130,135,135.0,205,212.5,-227.5,212.5,522.5
4,M,Zachary Holland,SBD,MR-O,83,Raw,1994,Virginia Military Institute,VA,77.8,182.5,192.5,200,200.0,-107.5,115,-117.5,115.0,192.5,205,-215,205.0,520
5,M,Alex Azer,SBD,MR-O,83,Raw,1993,Unattached,VA,81.6,137.5,147.5,155,155.0,107.5,115,-120,115.0,197.5,210,215,215.0,485
6,M,Haris Mukic,SBD,MR-O,83,Raw,1994,Virginia Commonwealth Univ.,VA,80.6,155,167.5,-177.5,167.5,82.5,87.5,-97.5,87.5,205,217.5,227.5,227.5,482.5
7,M,Samuel Crawford,SBD,MR-O,83,Raw,1994,Virginia Military Institute,VA,79.9,130,140,150,150.0,85,95,-100,95.0,195,210,220,220.0,465
8,M,William Suess,SBD,MR-O,83,Raw,1995,Virginia Military Institute,TX,79.7,125,142.5,155,155.0,90,107.5,112.5,112.5,165,170,185,185.0,452.5
1,M,Jonathan Plotz,SBD,MR-O,93,Raw,1996,Virginia Commonwealth Univ.,VA,88.1,162.5,172.5,-177.5,172.5,105,112.5,115,115.0,202.5,215,227.5,227.5,515
2,M,Zhichen Zhang,SBD,MR-O,93,Raw,1995,Virginia Military Institute,VA,89.8,142.5,145,160,160.0,122.5,132.5,140,140.0,170,182.5,187.5,187.5,487.5
3,M,Graham Martin,SBD,MR-O,93,Raw,1993,Virginia Military Institute,VA,88.5,130,142.5,150,150.0,82.5,92.5,95,95.0,182.5,207.5,215,215.0,460
4,M,David Pham,SBD,MR-O,93,Raw,1993,Unattached,VA,86,142.5,-147.5,147.5,147.5,72.5,77.5,82.5,82.5,165,175,185,185.0,415
5,M,David Kim,SBD,MR-O,93,Raw,1993,Virginia Commonwealth Univ.,VA,87.9,127.5,137.5,150,150.0,87.5,95,-97.5,95.0,135,147.5,160,160.0,405
DQ,M,Taylor Ayers,SBD,MR-O,93,Raw,1996,Virginia Military Institute,VA,85.9,-160,-160,-160,,120,125,-130,125.0,160,167.5,175,175.0,
1,M,Joel Person,SBD,MR-O,105,Raw,1993,Virginia Commonwealth Univ.,VA,103.7,230,-245,252.5,252.5,147.5,160,-167.5,160.0,-272.5,290,-300,290.0,702.5
2,M,Ben Gibson,SBD,MR-O,105,Raw,1997,Virginia Military Institute,VA,100.7,185,-207.5,-237.5,185.0,125,-142.5,142.5,142.5,205,227.5,250,250.0,577.5
1,M,Collin Gray,SBD,MR-O,120,Raw,1987,Unattached,VA,114.2,142.5,150,160,160.0,125,130,135,135.0,147.5,165,-175,165.0,460
1,M,James Arnold,SBD,MR-O,120+,Raw,1993,Virginia Commonwealth Univ.,VA,122.9,135,145,155,155.0,90,102.5,110,110.0,180,192.5,202.5,202.5,467.5
1,F,Emma Nobile,SBD,F-O,63,Single-ply,1995,Virginia Military Institute,VA,57.7,-87.5,87.5,90,90.0,47.5,-52.5,52.5,52.5,90,97.5,102.5,102.5,245
1,F,Virginia Villani,SBD,F-O,72,Single-ply,1996,Virginia Military Institute,VA,64.4,125,132.5,-140,132.5,60,65,67.5,67.5,-127.5,137.5,147.5,147.5,347.5
1,F,Emily Joy Kuhn,SBD,FR-Jr,72,Raw,1996,Unattached,VA,63.7,92.5,100,-110,100.0,42.5,-47.5,-47.5,42.5,100,107.5,117.5,117.5,260
1,F,Natalie Carroll,SBD,FR-O,57,Raw,1994,Virginia Military Institute,VA,55.8,95,102.5,107.5,107.5,47.5,57.5,-62.5,57.5,102.5,115,127.5,127.5,292.5
DQ,F,Natalie Green,SBD,FR-O,57,Raw,1992,Unattached,VA,56,90,97.5,102.5,102.5,-45,-50,-52.5,,107.5,-120,120,120.0,
1,F,Lindsay Maguire,SBD,FR-O,63,Raw,1993,Unattached,VA,62.2,100,112.5,117.5,117.5,60,65,-70,65.0,137.5,147.5,155,155.0,337.5
1,F,Rebecca Wilders,SBD,FR-O,72,Raw,1985,Unattached,VA,69.1,112.5,125,137.5,137.5,62.5,67.5,-80,67.5,125,142.5,150,150.0,355
2,F,Caitlyn Casten,SBD,FR-O,72,Raw,1996,Virginia Military Institute,VA,69.6,87.5,100,107.5,107.5,42.5,57.5,-65,57.5,110,140,147.5,147.5,312.5
3,F,Emily Joy Kuhn,SBD,FR-O,72,Raw,1996,Unattached,VA,63.7,92.5,100,-110,100.0,42.5,-47.5,-47.5,42.5,100,107.5,117.5,117.5,260
1,F,Sze Ching Choi,SBD,FR-O,84,Raw,1997,Virginia Commonwealth Univ.,VA,82.1,117.5,120,127.5,127.5,-62.5,65,70,70.0,125,135,142.5,142.5,340
1,F,Pauline Laquindanum,SBD,FR-O,84+,Raw,1992,Virginia Commonwealth Univ.,VA,89.1,112.5,137.5,-145,137.5,40,55,-60,55.0,125,135,140,140.0,332.5
